%!PS-Adobe-3.0 EPSF-3.0
%%BoundingBox: 0 0 566 425
%%Title: Graphics produced by IDL
%%For: alberto@albertos-macbook-pro.local, /Users/alberto
%%Creator: IDL Version 7.0, Mac OS X (darwin i386 m32)
%%CreationDate: Wed Sep 22 18:03:12 2010
%%DocumentData: Clean7bit
%%Requirements: color
%%LanguageLevel: 1
%%PageOrder: Ascend
%%Pages: (atend)
%%DocumentNeededResources: (atend)
%%EndComments
%%BeginProlog
%+ prolog.ps -- Prolog for IDL generated PostScript files
%+ Copyright (c) 1988-2007 ITT Visual Information Solutions. All Rights Reserved.
%v 5
/$IDL_DICT 40 dict def $IDL_DICT begin /bdef { bind def } bind def /C
{currentpoint newpath moveto} bdef /CP {currentpoint} bdef /D {currentpoint
stroke moveto} bdef /F {closepath fill} bdef /K { setgray } bdef /M {moveto}
bdef /N {rmoveto} bdef /P {lineto} bdef /R {rlineto} bdef /S {gsave show
grestore} bdef /X {currentpoint pop} bdef /Z {gsave currentpoint lineto 20
setlinewidth 1 setlinecap stroke grestore} bdef /L0 {[] 0 setdash} bdef /L1
{[40 100] 0 setdash} bdef /L2 {[200 200] 0 setdash} bdef /L3 {[200 100 50
100] 0 setdash} bdef /L4 {[300 100 50 100 50 100 50 100] 0 setdash} bdef /L5
{[400 200] 0 setdash} bdef /STDFONT { findfont exch scalefont setfont } bdef
/ISOFONT { findfont dup length dict begin { 1 index /FID ne {def} {pop pop}
ifelse } forall /Encoding ISOLatin1Encoding def currentdict end /idltmpfont
exch definefont exch scalefont setfont } bdef /ISOBULLET { gsave /Helvetica
findfont exch scalefont setfont (\267) show currentpoint grestore moveto}
bdef /MITERLIMIT { 2.5 setmiterlimit } bdef end
%%EndProlog
%%Page: 0 1
%%PageRequirements: color
%%PageResources: (atend)
%%PageOrientation: Portrait
%%PageBoundingBox: 0 0 566 425
%%BeginPageSetup
$IDL_DICT begin 0.0283465 dup scale MITERLIMIT
%%IncludeResource: font Helvetica
423.333 /Helvetica STDFONT
%%EndPageSetup
50 setlinewidth L0 0.000 0.000 0.000 setrgbcolor 4440 2816 M 14228 0 R D
4440 2816 M 0 216 R D 3856 2157 M 47 24 R 70 70 R 0 -491 R D 4534 2251 M
-234 0 R -23 -211 R 23 24 R 70 23 R 70 0 R 70 -23 R 47 -47 R 23 -70 R
0 -47 R -23 -70 R -47 -47 R -70 -23 R -70 0 R -70 23 R -23 24 R -24 47 R D
4861 2251 M -70 -24 R -47 -70 R -23 -117 R 0 -70 R 23 -116 R 47 -71 R
70 -23 R 46 0 R 71 23 R 46 71 R 24 116 R 0 70 R -24 117 R -46 70 R -71 24 R
-46 0 R D 8392 2816 M 0 216 R D 7761 2134 M 0 23 R 24 47 R 23 23 R 47 24 R
93 0 R 47 -24 R 23 -23 R 24 -47 R 0 -46 R -24 -47 R -46 -70 R -234 -234 R
327 0 R D 8346 2251 M -71 -24 R -46 -70 R -24 -117 R 0 -70 R 24 -116 R
46 -71 R 71 -23 R 46 0 R 70 23 R 47 71 R 24 116 R 0 70 R -24 117 R -47 70 R
-70 24 R -46 0 R D 8813 2251 M -70 -24 R -47 -70 R -23 -117 R 0 -70 R
23 -116 R 47 -71 R 70 -23 R 47 0 R 70 23 R 47 71 R 23 116 R 0 70 R -23 117 R
-47 70 R -70 24 R -47 0 R D 12345 2816 M 0 216 R D 11714 2134 M 0 23 R
23 47 R 23 23 R 47 24 R 94 0 R 46 -24 R 24 -23 R 23 -47 R 0 -46 R -23 -47 R
-47 -70 R -234 -234 R 327 0 R D 12438 2251 M -234 0 R -23 -211 R 23 24 R
70 23 R 71 0 R 70 -23 R 46 -47 R 24 -70 R 0 -47 R -24 -70 R -46 -47 R
-70 -23 R -71 0 R -70 23 R -23 24 R -23 47 R D 12765 2251 M -70 -24 R
-47 -70 R -23 -117 R 0 -70 R 23 -116 R 47 -71 R 70 -23 R 47 0 R 70 23 R
47 71 R 23 116 R 0 70 R -23 117 R -47 70 R -70 24 R -47 0 R D 16297 2816 M
0 216 R D 15689 2251 M 257 0 R -140 -187 R 70 0 R 47 -24 R 23 -23 R 24 -70 R
0 -47 R -24 -70 R -46 -47 R -71 -23 R -70 0 R -70 23 R -23 24 R -24 47 R D
16250 2251 M -70 -24 R -47 -70 R -23 -117 R 0 -70 R 23 -116 R 47 -71 R
70 -23 R 47 0 R 70 23 R 47 71 R 23 116 R 0 70 R -23 117 R -47 70 R -70 24 R
-47 0 R D 16717 2251 M -70 -24 R -46 -70 R -24 -117 R 0 -70 R 24 -116 R
46 -71 R 70 -23 R 47 0 R 70 23 R 47 71 R 23 116 R 0 70 R -23 117 R -47 70 R
-70 24 R -47 0 R D 5231 2816 M 0 108 R D 6021 2816 M 0 108 R D 6811 2816 M
0 108 R D 7602 2816 M 0 108 R D 9183 2816 M 0 108 R D 9973 2816 M 0 108 R D
10764 2816 M 0 108 R D 11554 2816 M 0 108 R D 13135 2816 M 0 108 R D
13925 2816 M 0 108 R D 14716 2816 M 0 108 R D 15506 2816 M 0 108 R D
17087 2816 M 0 108 R D 17878 2816 M 0 108 R D 18668 2816 M 0 108 R D
10077 1336 M 0 -491 R D 10077 1336 M 304 0 R D 10077 1102 M 187 0 R D
10077 845 M 304 0 R D 10451 818 M 29 29 R 29 14 R 29 0 R 29 -14 R 15 -15 R
14 -43 R 0 -58 R -14 -58 R -44 -130 R D 10466 832 M 29 15 R 58 0 R 29 -15 R
D 10697 861 M -14 -43 R -15 -29 R -72 -101 R -43 -87 R -29 -58 R D
10683 861 M -15 -43 R -14 -29 R -58 -101 R D 11348 1429 M -47 -47 R
-46 -70 R -47 -93 R -23 -117 R 0 -94 R 23 -116 R 47 -117 R 46 -70 R 47 -47 R
D 11839 1219 M -23 47 R -47 46 R -47 24 R -93 0 R -47 -24 R -47 -46 R
-23 -47 R -24 -70 R 0 -117 R 24 -70 R 23 -47 R 47 -47 R 47 -23 R 93 0 R
47 23 R 47 47 R 23 47 R 0 70 R -117 0 R D 11979 1032 M 281 0 R 0 47 R
-24 46 R -23 24 R -47 23 R -70 0 R -47 -23 R -46 -47 R -24 -70 R 0 -47 R
24 -70 R 46 -47 R 47 -23 R 70 0 R 47 23 R 47 47 R D 12353 1336 M 187 -491 R
187 491 R D 12820 1429 M 47 -47 R 47 -70 R 47 -93 R 23 -117 R 0 -94 R
-23 -116 R -47 -117 R -47 -70 R -47 -47 R D 4440 13592 M 14228 0 R D
4440 13592 M 0 -215 R D 8392 13592 M 0 -215 R D 12345 13592 M 0 -215 R D
16297 13592 M 0 -215 R D 5231 13592 M 0 -108 R D 6021 13592 M 0 -108 R D
6811 13592 M 0 -108 R D 7602 13592 M 0 -108 R D 9183 13592 M 0 -108 R D
9973 13592 M 0 -108 R D 10764 13592 M 0 -108 R D 11554 13592 M 0 -108 R D
13135 13592 M 0 -108 R D 13925 13592 M 0 -108 R D 14716 13592 M 0 -108 R D
15506 13592 M 0 -108 R D 17087 13592 M 0 -108 R D 17878 13592 M 0 -108 R D
18668 13592 M 0 -108 R D 4440 2816 M 0 10776 R D 4440 2816 M 285 0 R D
2446 3213 M 46 24 R 70 70 R 0 -491 R D 2983 3307 M -70 -24 R -47 -70 R
-23 -117 R 0 -70 R 23 -116 R 47 -71 R 70 -23 R 47 0 R 70 23 R 47 71 R
23 116 R 0 70 R -23 117 R -47 70 R -70 24 R -47 0 R D 3307 3301 M 260 0 R D
3712 3417 M 29 15 R 43 43 R 0 -304 R D 4045 3475 M -44 -14 R -29 -44 R
-14 -72 R 0 -44 R 14 -72 R 29 -43 R 44 -15 R 28 0 R 44 15 R 29 43 R 14 72 R
0 44 R -14 72 R -29 44 R -44 14 R -28 0 R D 4440 13592 M 285 0 R D
2735 13497 M 47 23 R 70 70 R 0 -491 R D 3272 13590 M -70 -23 R -47 -70 R
-23 -117 R 0 -70 R 23 -117 R 47 -70 R 70 -24 R 47 0 R 70 24 R 47 70 R
23 117 R 0 70 R -23 117 R -47 70 R -70 23 R -47 0 R D 3596 13585 M 260 0 R D
4146 13657 M -15 -43 R -29 -29 R -43 -15 R -14 0 R -44 15 R -29 29 R
-14 43 R 0 14 R 14 44 R 29 29 R 44 14 R 14 0 R 43 -14 R 29 -29 R 15 -58 R
0 -72 R -15 -73 R -29 -43 R -43 -15 R -29 0 R -43 15 R -15 29 R D
4440 6060 M 142 0 R D 4440 7958 M 142 0 R D 4440 9304 M 142 0 R D
4440 10348 M 142 0 R D 4440 11201 M 142 0 R D 4440 11923 M 142 0 R D
4440 12548 M 142 0 R D 4440 13099 M 142 0 R D 1172 3573 M 491 0 R D
1172 3573 M 0 304 R D 1406 3573 M 0 187 R D 1663 3573 M 0 304 R D
1076 3991 M -14 0 R -29 14 R -15 15 R -14 28 R 0 58 R 14 29 R 15 15 R
29 14 R 28 0 R 29 -14 R 44 -29 R 144 -145 R 0 203 R D 1172 4938 M 491 0 R D
1406 4938 M -47 -47 R -23 -47 R 0 -70 R 23 -47 R 47 -47 R 70 -23 R 46 0 R
71 23 R 46 47 R 24 47 R 0 70 R -24 47 R -46 47 R D 1172 5265 M 491 0 R D
1172 5288 M 491 0 R D 1289 5218 M 23 -70 R 24 -24 R 46 -23 R 70 0 R 47 23 R
23 24 R 24 70 R 0 117 R -24 70 R -23 23 R -47 24 R -70 0 R -46 -24 R
-24 -23 R -23 -70 R 0 -117 R 23 -47 R 24 -23 R 46 -24 R 70 0 R 47 24 R
23 23 R 24 47 R D 1546 5335 M -24 47 R -23 23 R -47 23 R -70 0 R -46 -23 R
-24 -23 R -23 -47 R D 1172 5195 M 0 163 R D 1663 5195 M 0 163 R D
1078 5989 M 772 -421 R D 1172 6386 M 491 0 R D 1406 6386 M -47 -46 R
-23 -47 R 0 -70 R 23 -47 R 47 -47 R 70 -23 R 46 0 R 71 23 R 46 47 R 24 47 R
0 70 R -24 47 R -46 46 R D 1172 6573 M 491 0 R D 1172 6573 M 0 304 R D
1406 6573 M 0 187 R D 1663 6573 M 0 304 R D 1078 7555 M 47 -47 R 70 -47 R
94 -46 R 117 -24 R 93 0 R 117 24 R 117 46 R 70 47 R 47 47 R D 1289 8046 M
-47 -24 R -47 -47 R -23 -46 R 0 -94 R 23 -47 R 47 -46 R 47 -24 R 70 -23 R
117 0 R 70 23 R 47 24 R 46 46 R 24 47 R 0 94 R -24 46 R -46 47 R -47 24 R
-70 0 R 0 -117 R D 1476 8186 M 0 280 R -47 0 R -47 -23 R -23 -24 R -23 -46 R
0 -70 R 23 -47 R 47 -47 R 70 -23 R 46 0 R 71 23 R 46 47 R 24 47 R 0 70 R
-24 46 R -46 47 R D 1172 8560 M 491 187 R -491 187 R D 1406 9681 M -47 -46 R
-23 -47 R 0 -70 R 23 -47 R 47 -47 R 70 -23 R 46 0 R 71 23 R 46 47 R 24 47 R
0 70 R -24 47 R -46 46 R D 1336 9845 M 327 0 R D 1429 9845 M -70 70 R
-23 47 R 0 70 R 23 47 R 70 23 R 234 0 R D 1429 10102 M -70 70 R -23 47 R
0 70 R 23 47 R 70 23 R 234 0 R D 1177 10519 M 0 261 R D 1076 10895 M -14 0 R
-29 15 R -15 14 R -14 29 R 0 58 R 14 29 R 15 14 R 29 15 R 28 0 R 29 -15 R
44 -28 R 144 -145 R 0 202 R D 1406 11819 M -47 -23 R -23 -71 R 0 -70 R
23 -70 R 47 -23 R 46 23 R 24 47 R 23 117 R 23 47 R 47 23 R 24 0 R 46 -23 R
24 -71 R 0 -70 R -24 -70 R -46 -23 R D 1177 11956 M 0 260 R D 1062 12361 M
-15 29 R -43 43 R 303 0 R D 1078 12625 M 47 46 R 70 47 R 94 47 R 117 23 R
93 0 R 117 -23 R 117 -47 R 70 -47 R 47 -46 R D 18668 2816 M 0 10776 R D
18668 2816 M -284 0 R D 18668 13592 M -284 0 R D 18668 6060 M -142 0 R D
18668 7958 M -142 0 R D 18668 9304 M -142 0 R D 18668 10348 M -142 0 R D
18668 11201 M -142 0 R D 18668 11923 M -142 0 R D 18668 12548 M -142 0 R D
18668 13099 M -142 0 R D 4440 11295 M 2 -1 R 4 -1 R 3 -1 R 4 -1 R 3 -2 R
4 -1 R 3 -1 R 4 -2 R 3 -1 R 3 -1 R 4 -2 R 3 -1 R 4 -1 R 3 -2 R 4 -1 R 3 -1 R
4 -2 R 3 -1 R 4 -1 R 3 -1 R 4 -2 R 3 -1 R 4 -1 R 3 -2 R 4 -1 R 3 -1 R 4 -1 R
3 -1 R 3 -2 R 4 -1 R 3 -1 R 4 -1 R 3 -2 R 4 -1 R 3 -1 R 4 -1 R 3 -1 R 4 -1 R
3 -2 R 4 -1 R 3 -1 R 4 -1 R 3 -1 R 4 -1 R 3 -2 R 4 -1 R 3 -1 R 4 -1 R 3 -1 R
3 -1 R 4 -2 R 3 -1 R 4 -1 R 3 -1 R 4 -1 R 3 -1 R 4 -2 R 3 -1 R 4 -1 R 3 -1 R
4 -1 R 3 -1 R 4 -2 R 3 -1 R 4 -1 R 3 -1 R 4 -1 R 3 -2 R 3 -1 R 4 -1 R 3 -1 R
4 -1 R 3 -1 R 4 -2 R 3 -1 R 4 -1 R 3 -1 R 4 -1 R 3 -2 R 4 -1 R 3 -1 R 4 -1 R
3 -1 R 4 -2 R 3 -1 R 4 -1 R 3 -1 R 3 -1 R 4 -2 R 3 -1 R 4 -1 R 3 -1 R 4 -2 R
3 -1 R 4 -1 R 3 -1 R 4 -1 R 3 -2 R 4 -1 R 3 -1 R 4 -1 R 3 -1 R 4 -2 R 3 -1 R
4 -1 R 3 -1 R 3 -2 R 4 -1 R 3 -1 R 4 -1 R 3 -2 R 4 -1 R 3 -1 R 4 -1 R 3 -1 R
4 -2 R 3 -1 R 4 -1 R 3 -1 R 4 -2 R 3 -1 R 4 -1 R 3 -1 R 4 -2 R 3 -1 R 3 -1 R
4 -1 R 3 -2 R 4 -1 R 3 -1 R 4 -1 R 3 -2 R 4 -1 R 3 -1 R 4 -1 R 3 -2 R 4 -1 R
3 -1 R 4 -1 R 3 -2 R 4 -1 R 3 -1 R 4 -1 R 3 -2 R 3 -1 R 4 -1 R 3 -2 R 4 -1 R
3 -1 R 4 -1 R 3 -2 R 4 -1 R 3 -1 R 4 -1 R 3 -2 R 4 -1 R 3 -1 R 4 -2 R 3 -1 R
4 -1 R 3 -1 R 4 -2 R 3 -1 R 3 -1 R 4 -2 R 3 -1 R 4 -1 R 3 -1 R 4 -2 R 3 -1 R
4 -1 R 3 -2 R 4 -1 R 3 -1 R 4 -2 R 3 -1 R 4 -1 R 3 -1 R 4 -2 R 3 -1 R 4 -1 R
3 -2 R 4 -1 R 3 -1 R 3 -2 R 4 -1 R 3 -1 R 4 -2 R 3 -1 R 4 -1 R 3 -1 R 4 -2 R
3 -1 R 4 -1 R 3 -2 R 4 -1 R 3 -1 R 4 -2 R 3 -1 R 4 -1 R 3 -2 R 4 -1 R 3 -1 R
3 -2 R 4 -1 R 3 -1 R 4 -2 R 3 -1 R 4 -1 R 3 -2 R 4 -1 R 3 -1 R 4 -2 R 3 -1 R
4 -1 R 3 -2 R 4 -1 R 3 -1 R 4 -2 R 3 -1 R 4 -1 R 3 -2 R 3 -1 R 4 -2 R 3 -1 R
4 -1 R 3 -2 R 4 -1 R 3 -1 R 4 -2 R 3 -1 R 4 -1 R 3 -2 R 4 -1 R 3 -2 R 4 -1 R
3 -1 R 4 -2 R 3 -1 R 4 -1 R 3 -2 R 3 -1 R 4 -1 R 3 -2 R 4 -1 R 3 -2 R 4 -1 R
3 -1 R 4 -2 R 3 -1 R 4 -2 R 3 -1 R 4 -1 R 3 -2 R 4 -1 R 3 -1 R 4 -2 R 3 -1 R
4 -2 R 3 -1 R 3 -1 R 4 -2 R 3 -1 R 4 -2 R 3 -1 R 4 -1 R 3 -2 R 4 -1 R 3 -2 R
4 -1 R 3 -1 R 4 -2 R 3 -1 R 4 -2 R 3 -1 R 4 -1 R 3 -2 R 4 -1 R 3 -2 R 3 -1 R
4 -2 R 3 -1 R 4 -1 R 3 -2 R 4 -1 R 3 -2 R 4 -1 R 3 -2 R 4 -1 R 3 -1 R 4 -2 R
3 -1 R 4 -2 R 3 -1 R 4 -2 R 3 -1 R 4 -1 R 3 -2 R 3 -1 R 4 -2 R 3 -1 R 4 -2 R
3 -1 R 4 -2 R 3 -1 R 4 -1 R 3 -2 R 4 -1 R 3 -2 R 4 -1 R 3 -2 R 4 -1 R 3 -2 R
4 -1 R 3 -1 R 4 -2 R 3 -1 R 3 -2 R 4 -1 R 3 -2 R 4 -1 R 3 -2 R 4 -1 R 3 -2 R
4 -1 R 3 -2 R 4 -1 R 3 -2 R 4 -1 R 3 -1 R 4 -2 R 3 -1 R 4 -2 R 3 -1 R 4 -2 R
3 -1 R 4 -2 R 3 -1 R 3 -2 R 4 -1 R 3 -2 R 4 -1 R 3 -2 R 4 -1 R 3 -2 R 4 -1 R
3 -2 R 4 -1 R 3 -2 R 4 -1 R 3 -1 R 4 -2 R 3 -1 R 4 -2 R 3 -1 R 4 -1 R 3 -2 R
3 -1 R 4 -2 R 3 -1 R 4 -1 R 3 -1 R 4 -2 R 3 -1 R 4 -1 R 3 -2 R 4 -1 R 3 -1 R
4 -1 R 3 -1 R 4 -2 R 3 -1 R 4 -1 R 3 -1 R 4 -1 R 3 -2 R 3 -1 R 4 -1 R 3 -1 R
4 -2 R 3 -1 R 4 -1 R 3 -1 R 4 -1 R 3 -2 R 4 -1 R 3 -1 R 4 -1 R 3 -1 R 4 -2 R
3 -1 R 4 -1 R 3 -1 R 4 -2 R 3 -1 R 3 -1 R 4 -1 R 3 -1 R 4 -2 R 3 -1 R 4 -1 R
3 -1 R 4 -2 R 3 -1 R 4 -1 R 3 -1 R 4 -1 R 3 -2 R 4 -1 R 3 -1 R 4 -1 R 3 -2 R
4 -1 R 3 -1 R 3 -1 R 4 -2 R 3 -1 R 4 -1 R 3 -1 R 4 -2 R 3 -1 R 4 -1 R 3 -1 R
4 -2 R 3 -1 R 4 -1 R 3 -1 R 4 -2 R 3 -1 R 4 -1 R 3 -1 R 4 -2 R 3 -1 R 3 -1 R
4 -1 R 3 -2 R 4 -1 R 3 -1 R 4 -1 R 3 -2 R 4 -1 R 3 -1 R 4 -1 R 3 -2 R 4 -1 R
3 -1 R 4 -2 R 3 -1 R 4 -1 R 3 -1 R 4 -2 R 3 -1 R 3 -1 R 4 -1 R 3 -2 R 4 -1 R
3 -1 R 4 -2 R 3 -1 R 4 -1 R 3 -1 R 4 -2 R 3 -1 R 4 -1 R 3 -2 R 4 -1 R 3 -1 R
4 -1 R 3 -2 R 4 -1 R 3 -1 R 4 -2 R 3 -1 R 3 -1 R 4 -2 R 3 -1 R 4 -1 R 3 -1 R
4 -2 R 3 -1 R 4 -1 R 3 -2 R 4 -1 R 3 -1 R 4 -2 R 3 -1 R 4 -1 R 3 -1 R 4 -2 R
3 -1 R 4 -1 R 3 -2 R 3 -1 R 4 -1 R 3 -2 R 4 -1 R 3 -1 R 4 -2 R 3 -1 R 4 -1 R
3 -2 R 4 -1 R 3 -1 R 4 -2 R 3 -1 R 4 -1 R 3 -2 R 4 -1 R 3 -1 R 4 -2 R 3 -1 R
3 -1 R 4 -2 R 3 -1 R 4 -1 R 3 -2 R 4 -1 R 3 -1 R 4 -2 R 3 -1 R 4 -1 R 3 -2 R
4 -1 R 3 -1 R 4 -2 R 3 -1 R 4 -1 R 3 -2 R 4 -1 R 3 -2 R 3 -1 R 4 -1 R 3 -2 R
4 -1 R 3 -1 R 4 -2 R 3 -1 R 4 -1 R 3 -2 R 4 -1 R 3 -1 R 4 -2 R 3 -1 R 4 -2 R
3 -1 R 4 -1 R 3 -2 R 4 -1 R 3 -1 R 3 -2 R 4 -1 R 3 -2 R 4 -1 R 3 -1 R 4 -2 R
3 -1 R 4 -1 R 3 -2 R 4 -1 R 3 -2 R 4 -1 R 3 -1 R 4 -2 R 3 -1 R 4 -2 R 3 -1 R
4 -1 R 3 -2 R 3 -1 R 4 -2 R 3 -1 R 4 -1 R 3 -2 R 4 -1 R 3 -2 R 4 -1 R 3 -1 R
4 -2 R 3 -1 R 4 -2 R 3 -1 R 4 -1 R 3 -2 R 4 -1 R 3 -2 R 4 -1 R 3 -1 R 3 -2 R
4 -1 R 3 -2 R 4 -1 R 3 -2 R 4 -1 R 3 -1 R 4 -2 R 3 -1 R 4 -2 R 3 -1 R 4 -2 R
3 -1 R 4 -1 R 3 -2 R 4 -1 R 3 -2 R 4 -1 R 3 -2 R 4 -1 R 3 -1 R 3 -2 R 4 -1 R
3 -2 R 4 -1 R 3 -2 R 4 -1 R 3 -2 R 4 -1 R 3 -1 R 4 -2 R 3 -1 R 4 -2 R 3 -1 R
4 -2 R 3 -1 R 4 -2 R 3 -1 R 4 -2 R 3 -1 R 3 -1 R 4 -2 R 3 -1 R 4 -2 R 3 -1 R
4 -2 R 3 -1 R 4 -2 R 3 -1 R 4 -2 R 3 -1 R 4 -2 R 3 -1 R 4 -2 R 3 -1 R 4 -1 R
3 -2 R 4 -1 R 3 -2 R 3 -1 R 4 -2 R 3 -1 R 4 -2 R 3 -1 R 4 -2 R 3 -1 R 4 -2 R
3 -1 R 4 -2 R 3 -1 R 4 -2 R 3 -1 R 4 -2 R 3 -1 R 4 -2 R 3 -1 R 4 -2 R 3 -1 R
3 -2 R 4 -1 R 3 -2 R 4 -1 R 3 -2 R 4 -1 R 3 -2 R 4 -1 R 3 -2 R 4 -1 R 3 -2 R
4 -1 R 3 -2 R 4 -1 R 3 -2 R 4 -1 R 3 -2 R 4 -1 R 3 -2 R 3 -1 R 4 -2 R 3 -2 R
4 -1 R 3 -2 R 4 -1 R 3 -2 R 4 -1 R 3 -2 R 4 -1 R 3 -2 R 4 -1 R 3 -2 R 4 -1 R
3 -2 R 4 -1 R 3 -2 R 4 -2 R 3 -1 R 3 -2 R 4 -1 R 3 -2 R 4 -1 R 3 -2 R 4 -1 R
3 -2 R 4 -1 R 3 -2 R 4 -1 R 3 -2 R 4 -1 R 3 -2 R 4 -1 R 3 -2 R 4 -1 R 3 -2 R
4 -1 R 3 -2 R 3 -1 R 4 -2 R 3 -1 R 4 -1 R 3 -2 R 4 -1 R 3 -1 R 4 -2 R 3 -1 R
4 -1 R 3 -2 R 4 -1 R 3 -2 R 4 -1 R 3 -1 R 4 -1 R 3 -2 R 4 -1 R 3 -1 R 3 -2 R
4 -1 R 3 -1 R 4 -2 R 3 -1 R 4 -1 R 3 -2 R 4 -1 R 3 -1 R D 7044 10288 M
4 -2 R 3 -1 R 4 -1 R 3 -2 R 4 -1 R 3 -1 R 4 -2 R 3 -1 R 4 -1 R 3 -2 R 4 -1 R
3 -1 R 3 -2 R 4 -1 R 3 -1 R 4 -2 R 3 -1 R 4 -2 R 3 -1 R 4 -1 R 3 -2 R 4 -1 R
3 -1 R 4 -2 R 3 -1 R 4 -1 R 3 -2 R 4 -1 R 3 -1 R 4 -2 R 3 -1 R 3 -1 R 4 -2 R
3 -1 R 4 -2 R 3 -1 R 4 -1 R 3 -2 R 4 -1 R 3 -1 R 4 -2 R 3 -1 R 4 -1 R 3 -2 R
4 -1 R 3 -2 R 4 -1 R 3 -1 R 4 -2 R 3 -1 R 3 -1 R 4 -2 R 3 -1 R 4 -2 R 3 -1 R
4 -1 R 3 -2 R 4 -1 R 3 -2 R 4 -1 R 3 -1 R 4 -2 R 3 -1 R 4 -2 R 3 -1 R 4 -1 R
3 -2 R 4 -1 R 3 -1 R 3 -2 R 4 -1 R 3 -2 R 4 -1 R 3 -1 R 4 -2 R 3 -1 R 4 -2 R
3 -1 R 4 -2 R 3 -1 R 4 -1 R 3 -2 R 4 -1 R 3 -2 R 4 -1 R 3 -1 R 4 -2 R 3 -1 R
3 -2 R 4 -1 R 3 -1 R 4 -2 R 3 -1 R 4 -2 R 3 -1 R 4 -2 R 3 -1 R 4 -1 R 3 -2 R
4 -1 R 3 -2 R 4 -1 R 3 -2 R 4 -1 R 3 -1 R 4 -2 R 3 -1 R 3 -2 R 4 -1 R 3 -2 R
4 -1 R 3 -2 R 4 -1 R 3 -1 R 4 -2 R 3 -1 R 4 -2 R 3 -1 R 4 -2 R 3 -1 R 4 -2 R
3 -1 R 4 -1 R 3 -2 R 4 -1 R 3 -2 R 3 -1 R 4 -2 R 3 -1 R 4 -2 R 3 -1 R 4 -2 R
3 -1 R 4 -2 R 3 -1 R 4 -1 R 3 -2 R 4 -1 R 3 -2 R 4 -1 R 3 -2 R 4 -1 R 3 -2 R
4 -1 R 3 -2 R 4 -1 R 3 -2 R 3 -1 R 4 -2 R 3 -1 R 4 -2 R 3 -1 R 4 -2 R 3 -1 R
4 -2 R 3 -1 R 4 -1 R 3 -2 R 4 -1 R 3 -2 R 4 -1 R 3 -2 R 4 -1 R 3 -2 R 4 -1 R
3 -2 R 3 -1 R 4 -2 R 3 -1 R 4 -2 R 3 -1 R 4 -2 R 3 -1 R 4 -2 R 3 -1 R 4 -2 R
3 -1 R 4 -2 R 3 -2 R 4 -1 R 3 -2 R 4 -1 R 3 -2 R 4 -1 R 3 -2 R 3 -1 R 4 -2 R
3 -1 R 4 -2 R 3 -1 R 4 -2 R 3 -1 R 4 -2 R 3 -1 R 4 -2 R 3 -1 R 4 -2 R 3 -1 R
4 -2 R 3 -2 R 4 -1 R 3 -2 R 4 -1 R 3 -2 R 3 -1 R 4 -2 R 3 -1 R 4 -2 R 3 -1 R
4 -2 R 3 -1 R 4 -2 R 3 -2 R 4 -1 R 3 -2 R 4 -1 R 3 -2 R 4 -1 R 3 -2 R 4 -1 R
3 -2 R 4 -2 R 3 -1 R 3 -2 R 4 -1 R 3 -2 R 4 -1 R 3 -2 R 4 -2 R 3 -1 R 4 -2 R
3 -1 R 4 -2 R 3 -1 R 4 -2 R 3 -2 R 4 -1 R 3 -2 R 4 -1 R 3 -2 R 4 -1 R 3 -2 R
3 -2 R 4 -1 R 3 -2 R 4 -1 R 3 -2 R 4 -2 R 3 -1 R 4 -2 R 3 -1 R 4 -2 R 3 -2 R
4 -1 R 3 -2 R 4 -1 R 3 -2 R 4 -2 R 3 -1 R 4 -2 R 3 -1 R 3 -2 R 4 -2 R 3 -1 R
4 -2 R 3 -1 R 4 -2 R 3 -2 R 4 -1 R 3 -2 R 4 -1 R 3 -2 R 4 -2 R 3 -1 R 4 -2 R
3 -2 R 4 -1 R 3 -2 R 4 -1 R 3 -2 R 4 -2 R 3 -1 R 3 -2 R 4 -2 R 3 -1 R 4 -2 R
3 -1 R 4 -2 R 3 -2 R 4 -1 R 3 -2 R 4 -2 R 3 -1 R 4 -2 R 3 -2 R 4 -1 R 3 -2 R
4 -1 R 3 -2 R 4 -2 R 3 -1 R 3 -2 R 4 -2 R 3 -1 R 4 -2 R 3 -2 R 4 -1 R 3 -2 R
4 -2 R 3 -1 R 4 -2 R 3 -2 R 4 -1 R 3 -2 R 4 -2 R 3 -1 R 4 -2 R 3 -2 R 4 -1 R
3 -2 R 3 -2 R 4 -1 R 3 -2 R 4 -2 R 3 -1 R 4 -2 R 3 -2 R 4 -1 R 3 -2 R 4 -2 R
3 -2 R 4 -1 R 3 -2 R 4 -2 R 3 -1 R 4 -2 R 3 -2 R 4 -1 R 3 -2 R 3 -2 R 4 -1 R
3 -2 R 4 -2 R 3 -2 R 4 -1 R 3 -2 R 4 -2 R 3 -1 R 4 -2 R 3 -2 R 4 -1 R 3 -2 R
4 -2 R 3 -2 R 4 -1 R 3 -2 R 4 -2 R 3 -1 R 3 -2 R 4 -2 R 3 -1 R 4 -2 R 3 -2 R
4 -1 R 3 -2 R 4 -1 R 3 -2 R 4 -2 R 3 -1 R 4 -2 R 3 -1 R 4 -2 R 3 -1 R 4 -2 R
3 -1 R 4 -2 R 3 -1 R 3 -1 R 4 -2 R 3 -1 R 4 -2 R 3 -1 R 4 -1 R 3 -2 R 4 -1 R
3 -2 R 4 -1 R 3 -1 R 4 -2 R 3 -1 R 4 -1 R 3 -2 R 4 -1 R 3 -1 R 4 -2 R 3 -1 R
3 -1 R 4 -2 R 3 -1 R 4 -1 R 3 -2 R 4 -1 R 3 -1 R 4 -2 R 3 -1 R 4 -1 R 3 -2 R
4 -1 R 3 -2 R 4 -1 R 3 -1 R 4 -2 R 3 -1 R 4 -1 R 3 -2 R 3 -1 R 4 -1 R 3 -2 R
4 -1 R 3 -1 R 4 -2 R 3 -1 R 4 -2 R 3 -1 R 4 -1 R 3 -2 R 4 -1 R 3 -1 R 4 -2 R
3 -1 R 4 -2 R 3 -1 R 4 -1 R 3 -2 R 4 -1 R 3 -1 R 3 -2 R 4 -1 R 3 -2 R 4 -1 R
3 -1 R 4 -2 R 3 -1 R 4 -1 R 3 -2 R 4 -1 R 3 -2 R 4 -1 R 3 -1 R 4 -2 R 3 -1 R
4 -2 R 3 -1 R 4 -1 R 3 -2 R 3 -1 R 4 -2 R 3 -1 R 4 -1 R 3 -2 R 4 -1 R 3 -2 R
4 -1 R 3 -1 R 4 -2 R 3 -1 R 4 -2 R 3 -1 R 4 -1 R 3 -2 R 4 -1 R 3 -2 R 4 -1 R
3 -1 R 3 -2 R 4 -1 R 3 -2 R 4 -1 R 3 -2 R 4 -1 R 3 -1 R 4 -2 R 3 -1 R 4 -2 R
3 -1 R 4 -1 R 3 -2 R 4 -1 R 3 -2 R 4 -1 R 3 -2 R 4 -1 R 3 -1 R 3 -2 R 4 -1 R
3 -2 R 4 -1 R 3 -2 R 4 -1 R 3 -2 R 4 -1 R 3 -1 R 4 -2 R 3 -1 R 4 -2 R 3 -1 R
4 -2 R 3 -1 R 4 -2 R 3 -1 R 4 -1 R 3 -2 R 3 -1 R 4 -2 R 3 -1 R 4 -2 R 3 -1 R
4 -2 R 3 -1 R 4 -1 R 3 -2 R 4 -1 R 3 -2 R 4 -1 R 3 -2 R 4 -1 R 3 -2 R 4 -1 R
3 -2 R 4 -1 R 3 -2 R 3 -1 R 4 -2 R 3 -1 R 4 -1 R 3 -2 R 4 -1 R 3 -2 R 4 -1 R
3 -2 R 4 -1 R 3 -2 R 4 -1 R 3 -2 R 4 -1 R 3 -2 R 4 -1 R 3 -2 R 4 -1 R 3 -2 R
3 -1 R 4 -2 R 3 -1 R 4 -2 R 3 -1 R 4 -2 R 3 -1 R 4 -2 R 3 -1 R 4 -2 R 3 -1 R
4 -2 R 3 -1 R 4 -2 R 3 -1 R 4 -2 R 3 -1 R 4 -2 R 3 -1 R 4 -2 R 3 -1 R 3 -2 R
4 -1 R 3 -2 R 4 -1 R 3 -2 R 4 -1 R 3 -2 R 4 -1 R 3 -2 R 4 -1 R 3 -2 R 4 -1 R
3 -2 R 4 -1 R 3 -2 R 4 -1 R 3 -2 R 4 -1 R 3 -2 R 3 -2 R 4 -1 R 3 -2 R 4 -1 R
3 -2 R 4 -1 R 3 -2 R 4 -1 R 3 -2 R 4 -1 R 3 -2 R 4 -1 R 3 -2 R 4 -2 R 3 -1 R
4 -2 R 3 -1 R 4 -2 R 3 -1 R 3 -2 R 4 -1 R 3 -2 R 4 -1 R 3 -2 R 4 -2 R 3 -1 R
4 -2 R 3 -1 R 4 -2 R 3 -1 R 4 -2 R 3 -1 R 4 -2 R 3 -2 R 4 -1 R 3 -2 R 4 -1 R
3 -2 R 3 -1 R 4 -2 R 3 -2 R 4 -1 R 3 -2 R 4 -1 R 3 -2 R 4 -1 R 3 -2 R 4 -2 R
3 -1 R 4 -2 R 3 -1 R 4 -2 R 3 -2 R 4 -1 R 3 -2 R 4 -1 R 3 -2 R 3 -1 R 4 -2 R
3 -2 R 4 -1 R 3 -2 R 4 -1 R 3 -2 R 4 -2 R 3 -1 R 4 -2 R 3 -1 R 4 -2 R 3 -2 R
4 -1 R 3 -2 R 4 -1 R 3 -2 R 4 -2 R 3 -1 R 3 -2 R 4 -1 R 3 -2 R 4 -2 R 3 -1 R
4 -2 R 3 -2 R 4 -1 R 3 -2 R 4 -1 R 3 -2 R 4 -2 R 3 -1 R 4 -2 R 3 -1 R 4 -2 R
3 -2 R 4 -1 R 3 -2 R 3 -2 R 4 -1 R 3 -2 R 4 -2 R 3 -1 R 4 -2 R 3 -1 R 4 -2 R
3 -2 R 4 -1 R 3 -2 R 4 -2 R 3 -1 R 4 -2 R 3 -2 R 4 -1 R 3 -2 R 4 -2 R 3 -1 R
4 -2 R 3 -1 R 3 -2 R 4 -2 R 3 -1 R 4 -2 R 3 -2 R 4 -1 R 3 -2 R 4 -2 R 3 -1 R
4 -2 R 3 -2 R 4 -1 R 3 -2 R 4 -2 R 3 -1 R 4 -2 R 3 -2 R 4 -1 R 3 -2 R 3 -2 R
4 -1 R 3 -2 R 4 -2 R 3 -1 R 4 -2 R 3 -2 R 4 -2 R 3 -1 R 4 -2 R 3 -2 R 4 -1 R
3 -2 R 4 -2 R 3 -1 R 4 -2 R 3 -2 R 4 -1 R 3 -2 R 3 -2 R 4 -1 R 3 -2 R 4 -2 R
3 -2 R 4 -1 R D 9650 9153 M 3 -2 R 4 -2 R 3 -1 R 4 -2 R 3 -2 R 4 -2 R 3 -1 R
4 -2 R 3 -2 R 4 -1 R 3 -2 R 4 -2 R 3 -2 R 3 -1 R 4 -2 R 3 -2 R 4 -1 R 3 -2 R
4 -2 R 3 -2 R 4 -1 R 3 -2 R 4 -2 R 3 -2 R 4 -1 R 3 -2 R 4 -2 R 3 -1 R 4 -2 R
3 -2 R 4 -2 R 3 -1 R 3 -2 R 4 -2 R 3 -2 R 4 -1 R 3 -2 R 4 -2 R 3 -2 R 4 -1 R
3 -2 R 4 -2 R 3 -1 R 4 -2 R 3 -2 R 4 -1 R 3 -2 R 4 -2 R 3 -1 R 4 -2 R 3 -2 R
3 -1 R 4 -2 R 3 -1 R 4 -2 R 3 -1 R 4 -2 R 3 -1 R 4 -1 R 3 -2 R 4 -1 R 3 -2 R
4 -1 R 3 -1 R 4 -2 R 3 -1 R 4 -1 R 3 -1 R 4 -1 R 3 -2 R 3 -1 R 4 -1 R 3 -1 R
4 -1 R 3 -2 R 4 -1 R 3 -1 R 4 -1 R 3 -1 R 4 -1 R 3 -1 R 4 -2 R 3 -1 R 4 -1 R
3 -1 R 4 -1 R 3 -1 R 4 -1 R 3 -1 R 3 -2 R 4 -1 R 3 -1 R 4 -1 R 3 -1 R 4 -1 R
3 -1 R 4 -1 R 3 -2 R 4 -1 R 3 -1 R 4 -1 R 3 -1 R 4 -1 R 3 -1 R 4 -2 R 3 -1 R
4 -1 R 3 -1 R 4 -1 R 3 -1 R 3 -1 R 4 -1 R 3 -2 R 4 -1 R 3 -1 R 4 -1 R 3 -1 R
4 -1 R 3 -1 R 4 -2 R 3 -1 R 4 -1 R 3 -1 R 4 -1 R 3 -1 R 4 -2 R 3 -1 R 4 -1 R
3 -1 R 3 -1 R 4 -1 R 3 -1 R 4 -2 R 3 -1 R 4 -1 R 3 -1 R 4 -1 R 3 -1 R 4 -2 R
3 -1 R 4 -1 R 3 -1 R 4 -1 R 3 -1 R 4 -2 R 3 -1 R 4 -1 R 3 -1 R 3 -1 R 4 -1 R
3 -2 R 4 -1 R 3 -1 R 4 -1 R 3 -1 R 4 -1 R 3 -2 R 4 -1 R 3 -1 R 4 -1 R 3 -1 R
4 -1 R 3 -2 R 4 -1 R 3 -1 R 4 -1 R 3 -1 R 3 -2 R 4 -1 R 3 -1 R 4 -1 R 3 -1 R
4 -1 R 3 -2 R 4 -1 R 3 -1 R 4 -1 R 3 -1 R 4 -2 R 3 -1 R 4 -1 R 3 -1 R 4 -1 R
3 -2 R 4 -1 R 3 -1 R 3 -1 R 4 -1 R 3 -1 R 4 -2 R 3 -1 R 4 -1 R 3 -1 R 4 -1 R
3 -2 R 4 -1 R 3 -1 R 4 -1 R 3 -1 R 4 -2 R 3 -1 R 4 -1 R 3 -1 R 4 -1 R 3 -2 R
3 -1 R 4 -1 R 3 -1 R 4 -2 R 3 -1 R 4 -1 R 3 -1 R 4 -1 R 3 -2 R 4 -1 R 3 -1 R
4 -1 R 3 -1 R 4 -2 R 3 -1 R 4 -1 R 3 -1 R 4 -2 R 3 -1 R 3 -1 R 4 -1 R 3 -1 R
4 -2 R 3 -1 R 4 -1 R 3 -1 R 4 -2 R 3 -1 R 4 -1 R 3 -1 R 4 -1 R 3 -2 R 4 -1 R
3 -1 R 4 -1 R 3 -2 R 4 -1 R 3 -1 R 4 -1 R 3 -2 R 3 -1 R 4 -1 R 3 -1 R 4 -2 R
3 -1 R 4 -1 R 3 -1 R 4 -2 R 3 -1 R 4 -1 R 3 -1 R 4 -1 R 3 -2 R 4 -1 R 3 -1 R
4 -1 R 3 -2 R 4 -1 R 3 -1 R 3 -1 R 4 -2 R 3 -1 R 4 -1 R 3 -1 R 4 -2 R 3 -1 R
4 -1 R 3 -2 R 4 -1 R 3 -1 R 4 -1 R 3 -2 R 4 -1 R 3 -1 R 4 -1 R 3 -2 R 4 -1 R
3 -1 R 3 -1 R 4 -2 R 3 -1 R 4 -1 R 3 -1 R 4 -2 R 3 -1 R 4 -1 R 3 -2 R 4 -1 R
3 -1 R 4 -1 R 3 -2 R 4 -1 R 3 -1 R 4 -1 R 3 -2 R 4 -1 R 3 -1 R 3 -2 R 4 -1 R
3 -1 R 4 -1 R 3 -2 R 4 -1 R 3 -1 R 4 -2 R 3 -1 R 4 -1 R 3 -1 R 4 -2 R 3 -1 R
4 -1 R 3 -2 R 4 -1 R 3 -1 R 4 -1 R 3 -2 R 3 -1 R 4 -1 R 3 -2 R 4 -1 R 3 -1 R
4 -2 R 3 -1 R 4 -1 R 3 -1 R 4 -2 R 3 -1 R 4 -1 R 3 -2 R 4 -1 R 3 -1 R 4 -2 R
3 -1 R 4 -1 R 3 -2 R 3 -1 R 4 -1 R 3 -1 R 4 -2 R 3 -1 R 4 -1 R 3 -2 R 4 -1 R
3 -1 R 4 -2 R 3 -1 R 4 -1 R 3 -2 R 4 -1 R 3 -1 R 4 -2 R 3 -1 R 4 -1 R 3 -2 R
3 -1 R 4 -1 R 3 -2 R 4 -1 R 3 -1 R 4 -2 R 3 -1 R 4 -1 R 3 -1 R 4 -2 R 3 -1 R
4 -1 R 3 -2 R 4 -1 R 3 -2 R 4 -1 R 3 -1 R 4 -2 R 3 -1 R 4 -1 R 3 -2 R 3 -1 R
4 -1 R 3 -2 R 4 -1 R 3 -1 R 4 -2 R 3 -1 R 4 -1 R 3 -2 R 4 -1 R 3 -1 R 4 -2 R
3 -1 R 4 -1 R 3 -2 R 4 -1 R 3 -1 R 4 -2 R 3 -1 R 3 -2 R 4 -1 R 3 -1 R 4 -2 R
3 -1 R 4 -1 R 3 -2 R 4 -1 R 3 -1 R 4 -2 R 3 -1 R 4 -2 R 3 -1 R 4 -1 R 3 -2 R
4 -1 R 3 -1 R 4 -2 R 3 -1 R 3 -1 R 4 -2 R 3 -1 R 4 -2 R 3 -1 R 4 -1 R 3 -2 R
4 -1 R 3 -1 R 4 -2 R 3 -1 R 4 -2 R 3 -1 R 4 -1 R 3 -2 R 4 -1 R 3 -2 R 4 -1 R
3 -1 R 3 -2 R 4 -1 R 3 -1 R 4 -2 R 3 -1 R 4 -2 R 3 -1 R 4 -1 R 3 -2 R 4 -1 R
3 -2 R 4 -1 R 3 -1 R 4 -2 R 3 -1 R 4 -2 R 3 -1 R 4 -1 R 3 -2 R 3 -1 R 4 -2 R
3 -1 R 4 -1 R 3 -2 R 4 -1 R 3 -2 R 4 -1 R 3 -2 R 4 -1 R 3 -1 R 4 -2 R 3 -1 R
4 -2 R 3 -1 R 4 -1 R 3 -2 R 4 -1 R 3 -2 R 3 -1 R 4 -2 R 3 -1 R 4 -1 R 3 -2 R
4 -1 R 3 -2 R 4 -1 R 3 -1 R 4 -2 R 3 -1 R 4 -2 R 3 -1 R 4 -2 R 3 -1 R 4 -1 R
3 -2 R 4 -1 R 3 -2 R 3 -1 R 4 -2 R 3 -1 R 4 -2 R 3 -1 R 4 -1 R 3 -2 R 4 -1 R
3 -2 R 4 -1 R 3 -2 R 4 -1 R 3 -2 R 4 -1 R 3 -1 R 4 -2 R 3 -1 R 4 -2 R 3 -1 R
4 -2 R 3 -1 R 3 -2 R 4 -1 R 3 -1 R 4 -2 R 3 -1 R 4 -2 R 3 -1 R 4 -1 R 3 -2 R
4 -1 R 3 -2 R 4 -1 R 3 -1 R 4 -2 R 3 -1 R 4 -1 R 3 -1 R 4 -2 R 3 -1 R 3 -1 R
4 -1 R 3 -1 R 4 -2 R 3 -1 R 4 -1 R 3 -1 R 4 -1 R 3 -1 R 4 -1 R 3 -1 R 4 -1 R
3 -1 R 4 -1 R 3 -1 R 4 -1 R 3 -1 R 4 -1 R 3 -1 R 3 -1 R 4 -1 R 3 -1 R 4 0 R
3 -1 R 4 -1 R 3 -1 R 4 -1 R 3 -1 R 4 -1 R 3 -1 R 4 -1 R 3 0 R 4 -1 R 3 -1 R
4 -1 R 3 -1 R 4 -1 R 3 -1 R 3 0 R 4 -1 R 3 -1 R 4 -1 R 3 -1 R 4 -1 R 3 -1 R
4 -1 R 3 0 R 4 -1 R 3 -1 R 4 -1 R 3 -1 R 4 -1 R 3 -1 R 4 -1 R 3 0 R 4 -1 R
3 -1 R 3 -1 R 4 -1 R 3 -1 R 4 -1 R 3 -1 R 4 0 R 3 -1 R 4 -1 R 3 -1 R 4 -1 R
3 -1 R 4 -1 R 3 -1 R 4 -1 R 3 0 R 4 -1 R 3 -1 R 4 -1 R 3 -1 R 3 -1 R 4 -1 R
3 -1 R 4 -1 R 3 0 R 4 -1 R 3 -1 R 4 -1 R 3 -1 R 4 -1 R 3 -1 R 4 -1 R 3 -1 R
4 0 R 3 -1 R 4 -1 R 3 -1 R 4 -1 R 3 -1 R 3 -1 R 4 -1 R 3 -1 R 4 0 R 3 -1 R
4 -1 R 3 -1 R 4 -1 R 3 -1 R 4 -1 R 3 -1 R 4 -1 R 3 -1 R 4 0 R 3 -1 R 4 -1 R
3 -1 R 4 -1 R 3 -1 R 3 -1 R 4 -1 R 3 -1 R 4 -1 R 3 -1 R 4 0 R 3 -1 R 4 -1 R
3 -1 R 4 -1 R 3 -1 R 4 -1 R 3 -1 R 4 -1 R 3 -1 R 4 -1 R 3 0 R 4 -1 R 3 -1 R
4 -1 R 3 -1 R 3 -1 R 4 -1 R 3 -1 R 4 -1 R 3 -1 R 4 -1 R 3 -1 R 4 0 R 3 -1 R
4 -1 R 3 -1 R 4 -1 R 3 -1 R 4 -1 R 3 -1 R 4 -1 R 3 -1 R 4 -1 R 3 -1 R 3 -1 R
4 0 R 3 -1 R 4 -1 R 3 -1 R 4 -1 R 3 -1 R 4 -1 R 3 -1 R 4 -1 R 3 -1 R 4 -1 R
3 -1 R 4 -1 R 3 -1 R 4 0 R 3 -1 R 4 -1 R 3 -1 R 3 -1 R 4 -1 R 3 -1 R 4 -1 R
3 -1 R 4 -1 R 3 -1 R 4 -1 R 3 -1 R 4 -1 R 3 -1 R 4 -1 R 3 0 R 4 -1 R 3 -1 R
4 -1 R 3 -1 R 4 -1 R 3 -1 R 3 -1 R 4 -1 R 3 -1 R 4 -1 R 3 -1 R 4 -1 R 3 -1 R
4 -1 R 3 -1 R 4 -1 R 3 -1 R 4 -1 R 3 0 R 4 -1 R 3 -1 R 4 -1 R 3 -1 R 4 -1 R
3 -1 R 3 -1 R 4 -1 R 3 -1 R 4 -1 R 3 -1 R D 12255 8246 M 4 -1 R 3 -1 R
4 -1 R 3 -1 R 4 -1 R 3 -1 R 4 -1 R 3 -1 R 4 -1 R 3 -1 R 4 -1 R 3 0 R 4 -1 R
3 -1 R 3 -1 R 4 -1 R 3 -1 R 4 -1 R 3 -1 R 4 -1 R 3 -1 R 4 -1 R 3 -1 R 4 -1 R
3 -1 R 4 -1 R 3 -1 R 4 -1 R 3 -1 R 4 -1 R 3 -1 R 4 -1 R 3 -1 R 3 -1 R 4 -1 R
3 -1 R 4 -1 R 3 -1 R 4 -1 R 3 -1 R 4 -1 R 3 -1 R 4 -1 R 3 -1 R 4 -1 R 3 0 R
4 -1 R 3 -1 R 4 -1 R 3 -1 R 4 -1 R 3 -1 R 4 -1 R 3 -1 R 3 -1 R 4 -1 R 3 -1 R
4 -1 R 3 -1 R 4 -1 R 3 -1 R 4 -1 R 3 -1 R 4 -1 R 3 -1 R 4 -1 R 3 -1 R 4 -1 R
3 -1 R 4 -1 R 3 -1 R 4 -1 R 3 -1 R 3 -1 R 4 -1 R 3 -1 R 4 -1 R 3 -1 R 4 -1 R
3 -1 R 4 -1 R 3 -1 R 4 -1 R 3 -1 R 4 -1 R 3 -1 R 4 -1 R 3 -1 R 4 -1 R 3 -1 R
4 -1 R 3 -1 R 3 -1 R 4 -1 R 3 -1 R 4 -1 R 3 -1 R 4 -1 R 3 -1 R 4 -1 R 3 -1 R
4 -1 R 3 -1 R 4 -1 R 3 -1 R 4 -1 R 3 -1 R 4 -1 R 3 -1 R 4 -1 R 3 -1 R 3 -1 R
4 -1 R 3 -1 R 4 -1 R 3 -1 R 4 -1 R 3 -1 R 4 -1 R 3 -1 R 4 -1 R 3 -2 R 4 -1 R
3 -1 R 4 -1 R 3 -1 R 4 -1 R 3 -1 R 4 -1 R 3 -1 R 3 -1 R 4 -1 R 3 -1 R 4 -1 R
3 -1 R 4 -1 R 3 -1 R 4 -1 R 3 -1 R 4 -1 R 3 -1 R 4 -1 R 3 -1 R 4 -1 R 3 -1 R
4 -1 R 3 -1 R 4 -1 R 3 -1 R 3 -1 R 4 -1 R 3 -1 R 4 -1 R 3 -1 R 4 -1 R 3 -2 R
4 -1 R 3 -1 R 4 -1 R 3 -1 R 4 -1 R 3 -1 R 4 -1 R 3 -1 R 4 -1 R 3 -1 R 4 -1 R
3 -1 R 3 -1 R 4 -1 R 3 -1 R 4 -1 R 3 -1 R 4 -1 R 3 -1 R 4 -1 R 3 -1 R 4 -1 R
3 -2 R 4 -1 R 3 -1 R 4 -1 R 3 -1 R 4 -1 R 3 -1 R 4 -1 R 3 -1 R 4 -1 R 3 -1 R
3 -1 R 4 -1 R 3 -1 R 4 -1 R 3 -1 R 4 -1 R 3 -2 R 4 -1 R 3 -1 R 4 -1 R 3 -1 R
4 -1 R 3 -1 R 4 -1 R 3 -1 R 4 -1 R 3 -1 R 4 -1 R 3 -1 R 3 -1 R 4 -1 R 3 -1 R
4 -2 R 3 -1 R 4 -1 R 3 -1 R 4 -1 R 3 -1 R 4 -1 R 3 -1 R 4 -1 R 3 -1 R 4 -1 R
3 -1 R 4 -1 R 3 -2 R 4 -1 R 3 -1 R 3 -1 R 4 -1 R 3 -1 R 4 -1 R 3 -1 R 4 -1 R
3 -1 R 4 -1 R 3 -1 R 4 -1 R 3 -2 R 4 -1 R 3 -1 R 4 -1 R 3 -1 R 4 -1 R 3 -1 R
4 -1 R 3 -1 R 3 -1 R 4 -1 R 3 -2 R 4 -1 R 3 -1 R 4 -1 R 3 -1 R 4 -1 R 3 -1 R
4 -1 R 3 -1 R 4 -1 R 3 -1 R 4 -2 R 3 -1 R 4 -1 R 3 -1 R 4 -1 R 3 -1 R 3 -1 R
4 -1 R 3 -1 R 4 -1 R 3 -2 R 4 -1 R 3 -1 R 4 -1 R 3 -1 R 4 -1 R 3 -1 R 4 -1 R
3 -1 R 4 -1 R 3 -2 R 4 -1 R 3 -1 R 4 -1 R 3 -1 R 3 -1 R 4 -1 R 3 -1 R 4 -1 R
3 -2 R 4 -1 R 3 -1 R 4 -1 R 3 -1 R 4 -1 R 3 -1 R 4 -1 R 3 -1 R 4 -2 R 3 -1 R
4 -1 R 3 -1 R 4 -1 R 3 -1 R 3 -1 R 4 -1 R 3 -1 R 4 -2 R 3 -1 R 4 -1 R 3 -1 R
4 -1 R 3 -1 R 4 -1 R 3 -1 R 4 -1 R 3 -1 R 4 -1 R 3 -2 R 4 -1 R 3 -1 R 4 -1 R
3 -1 R 3 -1 R 4 -1 R 3 -1 R 4 -1 R 3 -1 R 4 -1 R 3 -1 R 4 -1 R 3 -2 R 4 -1 R
3 -1 R 4 -1 R 3 -1 R 4 -1 R 3 -1 R 4 -1 R 3 -1 R 4 -1 R 3 -1 R 4 -1 R 3 -1 R
3 -1 R 4 -2 R 3 -1 R 4 -1 R 3 -1 R 4 -1 R 3 -1 R 4 -1 R 3 -1 R 4 -1 R 3 -1 R
4 -1 R 3 -1 R 4 -1 R 3 -1 R 4 -1 R 3 -1 R 4 0 R 3 -1 R 3 -1 R 4 0 R 3 -1 R
4 0 R 3 0 R 4 0 R 3 1 R 4 1 R 3 1 R 4 1 R 3 3 R 4 2 R 3 3 R 4 4 R 3 4 R
4 6 R 3 6 R 4 6 R 3 8 R 3 9 R 4 9 R 3 10 R 4 12 R 3 12 R 4 12 R 3 14 R
4 13 R 3 15 R 4 14 R 3 15 R 4 14 R 3 14 R 4 14 R 3 13 R 4 13 R 3 11 R 4 10 R
3 9 R 3 7 R 4 5 R 3 4 R 4 2 R 3 -1 R 4 -1 R 3 -4 R 4 -6 R 3 -7 R 4 -9 R
3 -11 R 4 -12 R 3 -13 R 4 -15 R 3 -15 R 4 -16 R 3 -16 R 4 -16 R 3 -17 R
3 -17 R 4 -16 R 3 -16 R 4 -16 R 3 -14 R 4 -15 R 3 -13 R 4 -13 R 3 -11 R
4 -11 R 3 -10 R 4 -9 R 3 -9 R 4 -7 R 3 -7 R 4 -6 R 3 -6 R 4 -5 R 3 -4 R
3 -4 R 4 -4 R 3 -3 R 4 -3 R 3 -2 R 4 -3 R 3 -2 R 4 -2 R 3 -1 R 4 -2 R 3 -2 R
4 -1 R 3 -1 R 4 -2 R 3 -1 R 4 -1 R 3 -2 R 4 -1 R 3 -1 R 3 -1 R 4 -1 R 3 -2 R
4 -1 R 3 -1 R 4 -1 R 3 -1 R 4 -1 R 3 -2 R 4 -1 R 3 -1 R 4 -1 R 3 -1 R 4 -1 R
3 -1 R 4 -2 R 3 -1 R 4 -1 R 3 -1 R 4 -1 R 3 -1 R 3 -1 R 4 -2 R 3 -1 R 4 -1 R
3 -1 R 4 -1 R 3 -1 R 4 -2 R 3 -1 R 4 -1 R 3 -1 R 4 -1 R 3 -1 R 4 -2 R 3 -1 R
4 -1 R 3 -1 R 4 -1 R 3 -1 R 3 -1 R 4 -2 R 3 -1 R 4 -1 R 3 -1 R 4 -1 R 3 -1 R
4 -2 R 3 -1 R 4 -1 R 3 -1 R 4 -1 R 3 -1 R 4 -2 R 3 -1 R 4 -1 R 3 -1 R 4 -1 R
3 -1 R 3 -2 R 4 -1 R 3 -1 R 4 -1 R 3 -1 R 4 -2 R 3 -1 R 4 -1 R 3 -1 R 4 -1 R
3 -1 R 4 -2 R 3 -1 R 4 -1 R 3 -1 R 4 -1 R 3 -2 R 4 -1 R 3 -1 R 3 -1 R 4 -1 R
3 -1 R 4 -2 R 3 -1 R 4 -1 R 3 -1 R 4 -1 R 3 -2 R 4 -1 R 3 -1 R 4 -1 R 3 -1 R
4 -2 R 3 -1 R 4 -1 R 3 -1 R 4 -1 R 3 -1 R 3 -2 R 4 -1 R 3 -1 R 4 -1 R 3 -1 R
4 -2 R 3 -1 R 4 -1 R 3 -1 R 4 -1 R 3 -2 R 4 -1 R 3 -1 R 4 -1 R 3 -1 R 4 -2 R
3 -1 R 4 -1 R 3 -1 R 3 -2 R 4 -1 R 3 -1 R 4 -1 R 3 -1 R 4 -2 R 3 -1 R 4 -1 R
3 -1 R 4 -1 R 3 -2 R 4 -1 R 3 -1 R 4 -1 R 3 -1 R 4 -2 R 3 -1 R 4 -1 R 3 -1 R
3 -2 R 4 -1 R 3 -1 R 4 -1 R 3 -1 R 4 -2 R 3 -1 R 4 -1 R 3 -1 R 4 -2 R 3 -1 R
4 -1 R 3 -1 R 4 -1 R 3 -2 R 4 -1 R 3 -1 R 4 -1 R 3 -2 R 4 -1 R 3 -1 R 3 -1 R
4 -2 R 3 -1 R 4 -1 R 3 -1 R 4 -2 R 3 -1 R 4 -1 R 3 -1 R 4 -1 R 3 -2 R 4 -1 R
3 -1 R 4 -1 R 3 -2 R 4 -1 R 3 -1 R 4 -1 R 3 -2 R 3 -1 R 4 -1 R 3 -1 R 4 -2 R
3 -1 R 4 -1 R 3 -1 R 4 -2 R 3 -1 R 4 -1 R 3 -1 R 4 -2 R 3 -1 R 4 -1 R 3 -1 R
4 -2 R 3 -1 R 4 -1 R 3 -1 R 3 -2 R 4 -1 R 3 -1 R 4 -1 R 3 -2 R 4 -1 R 3 -1 R
4 -1 R 3 -2 R 4 -1 R 3 -1 R 4 -2 R 3 -1 R 4 -1 R 3 -1 R 4 -2 R 3 -1 R 4 -1 R
3 -1 R 3 -2 R 4 -1 R 3 -1 R 4 -1 R 3 -2 R 4 -1 R 3 -1 R 4 -2 R 3 -1 R 4 -1 R
3 -1 R 4 -2 R 3 -1 R 4 -1 R 3 -1 R 4 -2 R 3 -1 R 4 -1 R 3 -2 R 3 -1 R 4 -1 R
3 -1 R 4 -2 R 3 -1 R 4 -1 R 3 -2 R 4 -1 R 3 -1 R 4 -1 R 3 -2 R 4 -1 R 3 -1 R
4 -2 R 3 -1 R 4 -1 R 3 -1 R 4 -2 R 3 -1 R 3 -1 R 4 -2 R 3 -1 R 4 -1 R 3 -1 R
4 -2 R 3 -1 R 4 -1 R 3 -2 R 4 -1 R 3 -1 R 4 -2 R 3 -1 R 4 -1 R 3 -1 R 4 -2 R
3 -1 R 4 -1 R 3 -2 R 3 -1 R 4 -1 R 3 -2 R 4 -1 R 3 -1 R 4 -2 R 3 -1 R 4 -1 R
3 -1 R 4 -2 R 3 -1 R 4 -1 R 3 -2 R 4 -1 R 3 -1 R 4 -2 R 3 -1 R 4 -1 R 3 -2 R
3 -1 R 4 -1 R 3 -2 R 4 -1 R D 14861 7403 M 3 -1 R 4 -2 R 3 -1 R 4 -1 R
3 -1 R 4 -2 R 3 -1 R 4 -1 R 3 -2 R 4 -1 R 3 -1 R 4 -2 R 3 -1 R 4 -1 R 3 -2 R
4 -1 R 3 -1 R 3 -2 R 4 -1 R 3 -1 R 4 -2 R 3 -1 R 4 -1 R 3 -2 R 4 -1 R 3 -1 R
4 -2 R 3 -1 R 4 -1 R 3 -2 R 4 -1 R 3 -1 R 4 -2 R 3 -1 R 4 -1 R 3 -2 R 3 -1 R
4 -1 R 3 -2 R 4 -1 R 3 -2 R 4 -1 R 3 -1 R 4 -2 R 3 -1 R 4 -1 R 3 -2 R 4 -1 R
3 -1 R 4 -2 R 3 -1 R 4 -1 R 3 -2 R 4 -1 R 3 -1 R 3 -2 R 4 -1 R 3 -1 R 4 -2 R
3 -1 R 4 -2 R 3 -1 R 4 -1 R 3 -2 R 4 -1 R 3 -1 R 4 -2 R 3 -1 R 4 -1 R 3 -2 R
4 -1 R 3 -1 R 4 -2 R 3 -1 R 3 -2 R 4 -1 R 3 -1 R 4 -2 R 3 -1 R 4 -1 R 3 -2 R
4 -1 R 3 -1 R 4 -2 R 3 -1 R 4 -2 R 3 -1 R 4 -1 R 3 -2 R 4 -1 R 3 -1 R 4 -2 R
3 -1 R 3 -1 R 4 -2 R 3 -1 R 4 -2 R 3 -1 R 4 -1 R 3 -2 R 4 -1 R 3 -1 R 4 -2 R
3 -1 R 4 -2 R 3 -1 R 4 -1 R 3 -2 R 4 -1 R 3 -1 R 4 -2 R 3 -1 R 3 -2 R 4 -1 R
3 -1 R 4 -2 R 3 -1 R 4 -1 R 3 -2 R 4 -1 R 3 -2 R 4 -1 R 3 -1 R 4 -2 R 3 -1 R
4 -1 R 3 -2 R 4 -1 R 3 -1 R 4 -2 R 3 -1 R 3 -2 R 4 -1 R 3 -1 R 4 -2 R 3 -1 R
4 -1 R 3 -2 R 4 -1 R 3 -1 R 4 -2 R 3 -1 R 4 -2 R 3 -1 R 4 -1 R 3 -2 R 4 -1 R
3 -1 R 4 -2 R 3 -1 R 4 -1 R 3 -2 R 3 -1 R 4 -1 R 3 -2 R 4 -1 R 3 -1 R 4 -2 R
3 -1 R 4 -1 R 3 -2 R 4 -1 R 3 -1 R 4 -2 R 3 -1 R 4 -1 R 3 -1 R 4 -2 R 3 -1 R
4 -1 R 3 -2 R 3 -1 R 4 -1 R 3 -1 R 4 -2 R 3 -1 R 4 -1 R 3 -1 R 4 -1 R 3 -2 R
4 -1 R 3 -1 R 4 -1 R 3 -1 R 4 -1 R 3 -1 R 4 -1 R 3 -1 R 4 -1 R 3 -1 R 3 -1 R
4 -1 R 3 -1 R 4 -1 R 3 -1 R 4 0 R 3 -1 R 4 -1 R 3 0 R 4 -1 R 3 0 R 4 0 R
3 0 R 4 0 R 3 0 R 4 0 R 3 1 R 4 1 R 3 1 R 3 1 R 4 2 R 3 2 R 4 3 R 3 3 R
4 3 R 3 4 R 4 5 R 3 5 R 4 7 R 3 7 R 4 7 R 3 9 R 4 10 R 3 10 R 4 12 R 3 13 R
4 14 R 3 15 R 3 16 R 4 18 R 3 18 R 4 20 R 3 20 R 4 22 R 3 22 R 4 23 R 3 23 R
4 24 R 3 24 R 4 24 R 3 24 R 4 24 R 3 23 R 4 22 R 3 21 R 4 20 R 3 19 R 3 17 R
4 15 R 3 13 R 4 11 R 3 9 R 4 6 R 3 4 R 4 2 R 3 -1 R 4 -3 R 3 -6 R 4 -9 R
3 -10 R 4 -14 R 3 -15 R 4 -17 R 3 -19 R 4 -21 R 3 -22 R 3 -23 R 4 -25 R
3 -25 R 4 -26 R 3 -27 R 4 -27 R 3 -27 R 4 -26 R 3 -27 R 4 -26 R 3 -25 R
4 -25 R 3 -24 R 4 -22 R 3 -22 R 4 -21 R 3 -20 R 4 -19 R 3 -17 R 4 -17 R
3 -15 R 3 -14 R 4 -13 R 3 -13 R 4 -11 R 3 -11 R 4 -9 R 3 -9 R 4 -8 R 3 -8 R
4 -7 R 3 -6 R 4 -6 R 3 -6 R 4 -5 R 3 -5 R 4 -4 R 3 -4 R 4 -4 R 3 -4 R 3 -3 R
4 -3 R 3 -3 R 4 -3 R 3 -3 R 4 -3 R 3 -3 R 4 -2 R 3 -3 R 4 -2 R 3 -2 R 4 -2 R
3 -3 R 4 -2 R 3 -2 R 4 -2 R 3 -2 R 4 -2 R 3 -2 R 3 -2 R 4 -2 R 3 -2 R 4 -2 R
3 -2 R 4 -2 R 3 -2 R 4 -2 R 3 -1 R 4 -2 R 3 -2 R 4 -2 R 3 -2 R 4 -2 R 3 -1 R
4 -2 R 3 -2 R 4 -2 R 3 -1 R 3 -2 R 4 -2 R 3 -1 R 4 -2 R 3 -1 R 4 -2 R 3 -1 R
4 -1 R 3 -1 R 4 -1 R 3 0 R 4 0 R 3 0 R 4 2 R 3 2 R 4 2 R 3 4 R 4 6 R 3 7 R
3 10 R 4 11 R 3 15 R 4 19 R 3 22 R 4 28 R 3 33 R 4 39 R 3 47 R 4 55 R 3 64 R
4 74 R 3 85 R 4 96 R 3 108 R 4 122 R 3 134 R 4 148 R 3 161 R 3 174 R 4 186 R
3 197 R 4 209 R 3 217 R 4 225 R 3 232 R 4 236 R 3 240 R 4 241 R 3 240 R
4 239 R 3 236 R 4 230 R 3 225 R 4 217 R 3 208 R 4 198 R 3 187 R 3 176 R
4 163 R 3 150 R 4 136 R 3 122 R 4 106 R 3 92 R 4 76 R 3 59 R 4 44 R 3 27 R
4 11 R 3 -6 R 4 -23 R 3 -39 R 4 -56 R 3 -73 R 4 -89 R 3 -106 R 3 -122 R
4 -138 R 3 -154 R 4 -170 R 3 -185 R 4 -200 R 3 -215 R 4 -229 R 3 -244 R
4 -257 R 3 -270 R 4 -282 R 3 -296 R 4 -306 R 3 -318 R 4 -329 R 3 -339 R
4 -349 R 3 -359 R 4 -367 R 3 -375 R 3 -384 R 4 -392 R 3 -399 R 4 -406 R
3 -414 R 4 -421 R 3 -427 R 4 -434 R 3 -442 R 4 -449 R 3 -456 R 1 -153 R D L2
4440 11307 M 2 -1 R 4 -1 R 3 -1 R 4 -1 R 3 -2 R 4 -1 R 3 -1 R 4 -1 R 3 -1 R
3 -2 R 4 -1 R 3 -1 R 4 -1 R 3 -2 R 4 -1 R 3 -1 R 4 -1 R 3 -2 R 4 -1 R 3 -1 R
4 -1 R 3 -1 R 4 -2 R 3 -1 R 4 -1 R 3 -1 R 4 -2 R 3 -1 R 3 -1 R 4 -1 R 3 -2 R
4 -1 R 3 -1 R 4 -1 R 3 -2 R 4 -1 R 3 -1 R 4 -1 R 3 -1 R 4 -2 R 3 -1 R 4 -1 R
3 -1 R 4 -2 R 3 -1 R 4 -1 R 3 -1 R 4 -2 R 3 -1 R 3 -1 R 4 -1 R 3 -2 R 4 -1 R
3 -1 R 4 -1 R 3 -1 R 4 -2 R 3 -1 R 4 -1 R 3 -1 R 4 -2 R 3 -1 R 4 -1 R 3 -1 R
4 -2 R 3 -1 R 4 -1 R 3 -1 R 3 -2 R 4 -1 R 3 -1 R 4 -1 R 3 -2 R 4 -1 R 3 -1 R
4 -1 R 3 -2 R 4 -1 R 3 -1 R 4 -1 R 3 -1 R 4 -2 R 3 -1 R 4 -1 R 3 -1 R 4 -2 R
3 -1 R 3 -1 R 4 -1 R 3 -2 R 4 -1 R 3 -1 R 4 -1 R 3 -2 R 4 -1 R 3 -1 R 4 -1 R
3 -2 R 4 -1 R 3 -1 R 4 -1 R 3 -2 R 4 -1 R 3 -1 R 4 -1 R 3 -2 R 3 -1 R 4 -1 R
3 -1 R 4 -2 R 3 -1 R 4 -1 R 3 -1 R 4 -2 R 3 -1 R 4 -1 R 3 -1 R 4 -2 R 3 -1 R
4 -1 R 3 -1 R 4 -2 R 3 -1 R 4 -1 R 3 -2 R 3 -1 R 4 -1 R 3 -1 R 4 -2 R 3 -1 R
4 -1 R 3 -1 R 4 -2 R 3 -1 R 4 -1 R 3 -1 R 4 -2 R 3 -1 R 4 -1 R 3 -2 R 4 -1 R
3 -1 R 4 -1 R 3 -2 R 3 -1 R 4 -1 R 3 -1 R 4 -2 R 3 -1 R 4 -1 R 3 -2 R 4 -1 R
3 -1 R 4 -1 R 3 -2 R 4 -1 R 3 -1 R 4 -2 R 3 -1 R 4 -1 R 3 -1 R 4 -2 R 3 -1 R
3 -1 R 4 -2 R 3 -1 R 4 -1 R 3 -1 R 4 -2 R 3 -1 R 4 -1 R 3 -2 R 4 -1 R 3 -1 R
4 -2 R 3 -1 R 4 -1 R 3 -1 R 4 -2 R 3 -1 R 4 -1 R 3 -2 R 4 -1 R 3 -1 R 3 -2 R
4 -1 R 3 -1 R 4 -1 R 3 -2 R 4 -1 R 3 -1 R 4 -2 R 3 -1 R 4 -1 R 3 -2 R 4 -1 R
3 -1 R 4 -2 R 3 -1 R 4 -1 R 3 -2 R 4 -1 R 3 -1 R 3 -2 R 4 -1 R 3 -1 R 4 -2 R
3 -1 R 4 -1 R 3 -2 R 4 -1 R 3 -1 R 4 -1 R 3 -2 R 4 -1 R 3 -1 R 4 -2 R 3 -1 R
4 -1 R 3 -2 R 4 -1 R 3 -1 R 3 -2 R 4 -1 R 3 -1 R 4 -2 R 3 -1 R 4 -2 R 3 -1 R
4 -1 R 3 -2 R 4 -1 R 3 -1 R 4 -2 R 3 -1 R 4 -1 R 3 -2 R 4 -1 R 3 -1 R 4 -2 R
3 -1 R 3 -1 R 4 -2 R 3 -1 R 4 -1 R 3 -2 R 4 -1 R 3 -1 R 4 -2 R 3 -1 R 4 -2 R
3 -1 R 4 -1 R 3 -2 R 4 -1 R 3 -1 R 4 -2 R 3 -1 R 4 -1 R 3 -2 R 3 -1 R 4 -1 R
3 -2 R 4 -1 R 3 -1 R 4 -2 R 3 -1 R 4 -2 R 3 -1 R 4 -1 R 3 -2 R 4 -1 R 3 -1 R
4 -2 R 3 -1 R 4 -1 R 3 -2 R 4 -1 R 3 -2 R 3 -1 R 4 -1 R 3 -2 R 4 -1 R 3 -1 R
4 -2 R 3 -1 R 4 -1 R 3 -2 R 4 -1 R 3 -2 R 4 -1 R 3 -1 R 4 -2 R 3 -1 R 4 -1 R
3 -2 R 4 -1 R 3 -1 R 3 -2 R 4 -1 R 3 -1 R 4 -2 R 3 -1 R 4 -2 R 3 -1 R 4 -1 R
3 -2 R 4 -1 R 3 -1 R 4 -2 R 3 -1 R 4 -1 R 3 -2 R 4 -1 R 3 -2 R 4 -1 R 3 -1 R
3 -2 R 4 -1 R 3 -1 R 4 -2 R 3 -1 R 4 -1 R 3 -2 R 4 -1 R 3 -1 R 4 -2 R 3 -1 R
4 -2 R 3 -1 R 4 -1 R 3 -2 R 4 -1 R 3 -1 R 4 -2 R 3 -1 R 4 -1 R 3 -2 R 3 -1 R
4 -1 R 3 -2 R 4 -1 R 3 -1 R 4 -2 R 3 -1 R 4 -1 R 3 -2 R 4 -1 R 3 -2 R 4 -1 R
3 -1 R 4 -2 R 3 -1 R 4 -1 R 3 -2 R 4 -1 R 3 -1 R 3 -2 R 4 -1 R 3 -1 R 4 -2 R
3 -1 R 4 -1 R 3 -2 R 4 -1 R 3 -1 R 4 -2 R 3 -1 R 4 -1 R 3 -2 R 4 -1 R 3 -1 R
4 -2 R 3 -1 R 4 -1 R 3 -2 R 3 -1 R 4 -1 R 3 -2 R 4 -1 R 3 -1 R 4 -2 R 3 -1 R
4 -1 R 3 -2 R 4 -1 R 3 -1 R 4 -2 R 3 -1 R 4 -1 R 3 -2 R 4 -1 R 3 -1 R 4 -2 R
3 -1 R 3 -1 R 4 -2 R 3 -1 R 4 -1 R 3 -1 R 4 -2 R 3 -1 R 4 -1 R 3 -2 R 4 -1 R
3 -1 R 4 -2 R 3 -1 R 4 -1 R 3 -2 R 4 -1 R 3 -1 R 4 -2 R 3 -1 R 3 -1 R 4 -2 R
3 -1 R 4 -1 R 3 -2 R 4 -1 R 3 -1 R 4 -1 R 3 -2 R 4 -1 R 3 -1 R 4 -2 R 3 -1 R
4 -1 R 3 -2 R 4 -1 R 3 -1 R 4 -2 R 3 -1 R 3 -1 R 4 -2 R 3 -1 R 4 -1 R 3 -2 R
4 -1 R 3 -1 R 4 -1 R 3 -2 R 4 -1 R 3 -1 R 4 -2 R 3 -1 R 4 -1 R 3 -2 R 4 -1 R
3 -1 R 4 -2 R 3 -1 R 3 -1 R 4 -2 R 3 -1 R 4 -1 R 3 -2 R 4 -1 R 3 -1 R 4 -1 R
3 -2 R 4 -1 R 3 -1 R 4 -2 R 3 -1 R 4 -1 R 3 -2 R 4 -1 R 3 -1 R 4 -2 R 3 -1 R
4 -1 R 3 -2 R 3 -1 R 4 -1 R 3 -2 R 4 -1 R 3 -1 R 4 -2 R 3 -1 R 4 -1 R 3 -2 R
4 -1 R 3 -1 R 4 -2 R 3 -1 R 4 -1 R 3 -2 R 4 -1 R 3 -1 R 4 -2 R 3 -1 R 3 -1 R
4 -2 R 3 -1 R 4 -1 R 3 -2 R 4 -1 R 3 -1 R 4 -2 R 3 -1 R 4 -1 R 3 -2 R 4 -1 R
3 -1 R 4 -2 R 3 -1 R 4 -1 R 3 -2 R 4 -1 R 3 -1 R 3 -2 R 4 -1 R 3 -1 R 4 -2 R
3 -1 R 4 -1 R 3 -2 R 4 -1 R 3 -1 R 4 -2 R 3 -1 R 4 -1 R 3 -2 R 4 -1 R 3 -2 R
4 -1 R 3 -1 R 4 -2 R 3 -1 R 3 -1 R 4 -2 R 3 -1 R 4 -1 R 3 -2 R 4 -1 R 3 -1 R
4 -2 R 3 -1 R 4 -2 R 3 -1 R 4 -1 R 3 -2 R 4 -1 R 3 -1 R 4 -2 R 3 -1 R 4 -1 R
3 -2 R 3 -1 R 4 -2 R 3 -1 R 4 -1 R 3 -2 R 4 -1 R 3 -1 R 4 -2 R 3 -1 R 4 -2 R
3 -1 R 4 -1 R 3 -2 R 4 -1 R 3 -1 R 4 -2 R 3 -1 R 4 -2 R 3 -1 R 3 -1 R 4 -2 R
3 -1 R 4 -2 R 3 -1 R 4 -1 R 3 -2 R 4 -1 R 3 -2 R 4 -1 R 3 -1 R 4 -2 R 3 -1 R
4 -1 R 3 -2 R 4 -1 R 3 -2 R 4 -1 R 3 -1 R 3 -2 R 4 -1 R 3 -2 R 4 -1 R 3 -1 R
4 -2 R 3 -1 R 4 -2 R 3 -1 R 4 -1 R 3 -2 R 4 -1 R 3 -2 R 4 -1 R 3 -1 R 4 -2 R
3 -1 R 4 -2 R 3 -1 R 4 -2 R 3 -1 R 3 -1 R 4 -2 R 3 -1 R 4 -2 R 3 -1 R 4 -1 R
3 -2 R 4 -1 R 3 -2 R 4 -1 R 3 -1 R 4 -2 R 3 -1 R 4 -2 R 3 -1 R 4 -2 R 3 -1 R
4 -1 R 3 -2 R 3 -1 R 4 -2 R 3 -1 R 4 -2 R 3 -1 R 4 -1 R 3 -2 R 4 -1 R 3 -2 R
4 -1 R 3 -1 R 4 -2 R 3 -1 R 4 -2 R 3 -1 R 4 -2 R 3 -1 R 4 -1 R 3 -2 R 3 -1 R
4 -2 R 3 -1 R 4 -2 R 3 -1 R 4 -1 R 3 -2 R 4 -1 R 3 -2 R 4 -1 R 3 -2 R 4 -1 R
3 -1 R 4 -2 R 3 -1 R 4 -2 R 3 -1 R 4 -2 R 3 -1 R 3 -1 R 4 -2 R 3 -1 R 4 -2 R
3 -1 R 4 -2 R 3 -1 R 4 -1 R 3 -2 R 4 -1 R 3 -2 R 4 -1 R 3 -2 R 4 -1 R 3 -1 R
4 -2 R 3 -1 R 4 -2 R 3 -1 R 3 -2 R 4 -1 R 3 -1 R 4 -2 R 3 -1 R 4 -2 R 3 -1 R
4 -2 R 3 -1 R 4 -1 R 3 -2 R 4 -1 R 3 -2 R 4 -1 R 3 -2 R 4 -1 R 3 -2 R 4 -1 R
3 -1 R 3 -2 R 4 -1 R 3 -2 R 4 -1 R 3 -2 R 4 -1 R 3 -1 R 4 -2 R 3 -1 R 4 -2 R
3 -1 R 4 -2 R 3 -1 R 4 -1 R 3 -2 R 4 -1 R 3 -2 R 4 -1 R 3 -2 R 3 -1 R 4 -1 R
3 -2 R 4 -1 R 3 -2 R 4 -1 R 3 -1 R 4 -2 R 3 -1 R 4 -2 R 3 -1 R 4 -2 R 3 -1 R
4 -1 R 3 -2 R 4 -1 R 3 -2 R 4 -1 R 3 -2 R 3 -1 R 4 -1 R 3 -2 R 4 -1 R 3 -2 R
4 -1 R 3 -2 R 4 -1 R 3 -1 R D 7044 10304 M 4 -2 R 3 -1 R 4 -2 R 3 -1 R
4 -2 R 3 -1 R 4 -1 R 3 -2 R 4 -1 R 3 -2 R 4 -1 R 3 -2 R 3 -1 R 4 -1 R 3 -2 R
4 -1 R 3 -2 R 4 -1 R 3 -1 R 4 -2 R 3 -1 R 4 -2 R 3 -1 R 4 -2 R 3 -1 R 4 -1 R
3 -2 R 4 -1 R 3 -2 R 4 -1 R 3 -2 R 3 -1 R 4 -1 R 3 -2 R 4 -1 R 3 -2 R 4 -1 R
3 -2 R 4 -1 R 3 -1 R 4 -2 R 3 -1 R 4 -2 R 3 -1 R 4 -2 R 3 -1 R 4 -1 R 3 -2 R
4 -1 R 3 -2 R 3 -1 R 4 -2 R 3 -1 R 4 -1 R 3 -2 R 4 -1 R 3 -2 R 4 -1 R 3 -2 R
4 -1 R 3 -1 R 4 -2 R 3 -1 R 4 -2 R 3 -1 R 4 -2 R 3 -1 R 4 -1 R 3 -2 R 3 -1 R
4 -2 R 3 -1 R 4 -2 R 3 -1 R 4 -1 R 3 -2 R 4 -1 R 3 -2 R 4 -1 R 3 -2 R 4 -1 R
3 -2 R 4 -1 R 3 -1 R 4 -2 R 3 -1 R 4 -2 R 3 -1 R 3 -2 R 4 -1 R 3 -1 R 4 -2 R
3 -1 R 4 -2 R 3 -1 R 4 -2 R 3 -1 R 4 -2 R 3 -1 R 4 -2 R 3 -1 R 4 -1 R 3 -2 R
4 -1 R 3 -2 R 4 -1 R 3 -2 R 3 -1 R 4 -2 R 3 -1 R 4 -1 R 3 -2 R 4 -1 R 3 -2 R
4 -1 R 3 -2 R 4 -1 R 3 -2 R 4 -1 R 3 -2 R 4 -1 R 3 -2 R 4 -1 R 3 -1 R 4 -2 R
3 -1 R 3 -2 R 4 -1 R 3 -2 R 4 -1 R 3 -2 R 4 -1 R 3 -2 R 4 -1 R 3 -2 R 4 -1 R
3 -2 R 4 -1 R 3 -1 R 4 -2 R 3 -1 R 4 -2 R 3 -1 R 4 -2 R 3 -1 R 4 -2 R 3 -1 R
3 -2 R 4 -1 R 3 -2 R 4 -1 R 3 -2 R 4 -1 R 3 -2 R 4 -1 R 3 -2 R 4 -1 R 3 -2 R
4 -1 R 3 -2 R 4 -1 R 3 -2 R 4 -1 R 3 -2 R 4 -1 R 3 -2 R 3 -1 R 4 -2 R 3 -1 R
4 -2 R 3 -1 R 4 -2 R 3 -1 R 4 -2 R 3 -1 R 4 -2 R 3 -1 R 4 -2 R 3 -1 R 4 -2 R
3 -1 R 4 -2 R 3 -1 R 4 -2 R 3 -1 R 3 -2 R 4 -1 R 3 -2 R 4 -1 R 3 -2 R 4 -1 R
3 -2 R 4 -1 R 3 -2 R 4 -1 R 3 -2 R 4 -1 R 3 -2 R 4 -1 R 3 -2 R 4 -1 R 3 -2 R
4 -1 R 3 -2 R 3 -1 R 4 -2 R 3 -1 R 4 -2 R 3 -1 R 4 -2 R 3 -2 R 4 -1 R 3 -2 R
4 -1 R 3 -2 R 4 -1 R 3 -2 R 4 -1 R 3 -2 R 4 -1 R 3 -2 R 4 -1 R 3 -2 R 3 -1 R
4 -2 R 3 -2 R 4 -1 R 3 -2 R 4 -1 R 3 -2 R 4 -1 R 3 -2 R 4 -1 R 3 -2 R 4 -1 R
3 -2 R 4 -1 R 3 -2 R 4 -2 R 3 -1 R 4 -2 R 3 -1 R 3 -2 R 4 -1 R 3 -2 R 4 -1 R
3 -2 R 4 -1 R 3 -2 R 4 -2 R 3 -1 R 4 -2 R 3 -1 R 4 -2 R 3 -1 R 4 -2 R 3 -1 R
4 -2 R 3 -1 R 4 -2 R 3 -2 R 3 -1 R 4 -2 R 3 -1 R 4 -2 R 3 -1 R 4 -2 R 3 -1 R
4 -2 R 3 -2 R 4 -1 R 3 -2 R 4 -1 R 3 -2 R 4 -1 R 3 -2 R 4 -1 R 3 -2 R 4 -1 R
3 -2 R 4 -2 R 3 -1 R 3 -2 R 4 -1 R 3 -2 R 4 -1 R 3 -2 R 4 -1 R 3 -2 R 4 -2 R
3 -1 R 4 -2 R 3 -1 R 4 -2 R 3 -1 R 4 -2 R 3 -1 R 4 -2 R 3 -2 R 4 -1 R 3 -2 R
3 -1 R 4 -2 R 3 -1 R 4 -2 R 3 -1 R 4 -2 R 3 -1 R 4 -2 R 3 -2 R 4 -1 R 3 -2 R
4 -1 R 3 -2 R 4 -1 R 3 -2 R 4 -1 R 3 -2 R 4 -1 R 3 -2 R 3 -2 R 4 -1 R 3 -2 R
4 -1 R 3 -2 R 4 -1 R 3 -2 R 4 -1 R 3 -2 R 4 -1 R 3 -2 R 4 -2 R 3 -1 R 4 -2 R
3 -1 R 4 -2 R 3 -1 R 4 -2 R 3 -1 R 3 -2 R 4 -1 R 3 -2 R 4 -1 R 3 -2 R 4 -1 R
3 -2 R 4 -2 R 3 -1 R 4 -2 R 3 -1 R 4 -2 R 3 -1 R 4 -2 R 3 -1 R 4 -2 R 3 -1 R
4 -2 R 3 -1 R 3 -2 R 4 -1 R 3 -2 R 4 -1 R 3 -2 R 4 -2 R 3 -1 R 4 -2 R 3 -1 R
4 -2 R 3 -1 R 4 -2 R 3 -1 R 4 -2 R 3 -1 R 4 -2 R 3 -1 R 4 -2 R 3 -1 R 3 -2 R
4 -1 R 3 -2 R 4 -1 R 3 -2 R 4 -1 R 3 -2 R 4 -1 R 3 -2 R 4 -1 R 3 -2 R 4 -1 R
3 -2 R 4 -1 R 3 -2 R 4 -1 R 3 -2 R 4 -1 R 3 -2 R 3 -1 R 4 -2 R 3 -1 R 4 -2 R
3 -1 R 4 -2 R 3 -1 R 4 -2 R 3 -1 R 4 -2 R 3 -1 R 4 -2 R 3 -1 R 4 -2 R 3 -1 R
4 -2 R 3 -1 R 4 -2 R 3 -1 R 3 -2 R 4 -1 R 3 -2 R 4 -1 R 3 -2 R 4 -1 R 3 -2 R
4 -1 R 3 -2 R 4 -1 R 3 -2 R 4 -1 R 3 -2 R 4 -1 R 3 -2 R 4 -1 R 3 -2 R 4 -1 R
3 -2 R 4 -1 R 3 -2 R 3 -1 R 4 -1 R 3 -2 R 4 -1 R 3 -2 R 4 -1 R 3 -2 R 4 -1 R
3 -2 R 4 -1 R 3 -2 R 4 -1 R 3 -2 R 4 -1 R 3 -2 R 4 -1 R 3 -2 R 4 -1 R 3 -2 R
3 -1 R 4 -2 R 3 -1 R 4 -2 R 3 -1 R 4 -1 R 3 -2 R 4 -1 R 3 -2 R 4 -1 R 3 -2 R
4 -1 R 3 -2 R 4 -1 R 3 -2 R 4 -1 R 3 -2 R 4 -1 R 3 -2 R 3 -1 R 4 -2 R 3 -1 R
4 -2 R 3 -1 R 4 -2 R 3 -1 R 4 -1 R 3 -2 R 4 -1 R 3 -2 R 4 -1 R 3 -2 R 4 -1 R
3 -2 R 4 -1 R 3 -2 R 4 -1 R 3 -2 R 3 -1 R 4 -2 R 3 -1 R 4 -2 R 3 -1 R 4 -2 R
3 -1 R 4 -2 R 3 -1 R 4 -1 R 3 -2 R 4 -1 R 3 -2 R 4 -1 R 3 -2 R 4 -1 R 3 -2 R
4 -1 R 3 -2 R 3 -1 R 4 -2 R 3 -1 R 4 -2 R 3 -1 R 4 -2 R 3 -1 R 4 -2 R 3 -1 R
4 -2 R 3 -1 R 4 -2 R 3 -1 R 4 -2 R 3 -1 R 4 -2 R 3 -1 R 4 -2 R 3 -1 R 3 -2 R
4 -1 R 3 -1 R 4 -2 R 3 -1 R 4 -2 R 3 -1 R 4 -2 R 3 -1 R 4 -2 R 3 -1 R 4 -2 R
3 -1 R 4 -2 R 3 -1 R 4 -2 R 3 -1 R 4 -2 R 3 -1 R 3 -2 R 4 -1 R 3 -2 R 4 -1 R
3 -2 R 4 -1 R 3 -2 R 4 -1 R 3 -2 R 4 -1 R 3 -2 R 4 -1 R 3 -2 R 4 -1 R 3 -2 R
4 -1 R 3 -2 R 4 -1 R 3 -2 R 4 -1 R 3 -2 R 3 -1 R 4 -2 R 3 -2 R 4 -1 R 3 -2 R
4 -1 R 3 -2 R 4 -1 R 3 -2 R 4 -1 R 3 -2 R 4 -1 R 3 -2 R 4 -1 R 3 -2 R 4 -1 R
3 -2 R 4 -1 R 3 -2 R 3 -1 R 4 -2 R 3 -1 R 4 -2 R 3 -1 R 4 -2 R 3 -1 R 4 -2 R
3 -1 R 4 -2 R 3 -2 R 4 -1 R 3 -2 R 4 -1 R 3 -2 R 4 -1 R 3 -2 R 4 -1 R 3 -2 R
3 -1 R 4 -2 R 3 -1 R 4 -2 R 3 -1 R 4 -2 R 3 -2 R 4 -1 R 3 -2 R 4 -1 R 3 -2 R
4 -1 R 3 -2 R 4 -1 R 3 -2 R 4 -1 R 3 -2 R 4 -1 R 3 -2 R 3 -2 R 4 -1 R 3 -2 R
4 -1 R 3 -2 R 4 -1 R 3 -2 R 4 -1 R 3 -2 R 4 -1 R 3 -2 R 4 -1 R 3 -2 R 4 -2 R
3 -1 R 4 -2 R 3 -1 R 4 -2 R 3 -1 R 3 -2 R 4 -1 R 3 -2 R 4 -2 R 3 -1 R 4 -2 R
3 -1 R 4 -2 R 3 -1 R 4 -2 R 3 -1 R 4 -2 R 3 -1 R 4 -2 R 3 -2 R 4 -1 R 3 -2 R
4 -1 R 3 -2 R 3 -1 R 4 -2 R 3 -1 R 4 -2 R 3 -1 R 4 -2 R 3 -2 R 4 -1 R 3 -2 R
4 -1 R 3 -2 R 4 -1 R 3 -2 R 4 -1 R 3 -2 R 4 -2 R 3 -1 R 4 -2 R 3 -1 R 3 -2 R
4 -1 R 3 -2 R 4 -1 R 3 -2 R 4 -1 R 3 -2 R 4 -2 R 3 -1 R 4 -2 R 3 -1 R 4 -2 R
3 -1 R 4 -2 R 3 -1 R 4 -2 R 3 -1 R 4 -2 R 3 -2 R 4 -1 R 3 -2 R 3 -1 R 4 -2 R
3 -1 R 4 -2 R 3 -1 R 4 -2 R 3 -1 R 4 -2 R 3 -1 R 4 -2 R 3 -2 R 4 -1 R 3 -2 R
4 -1 R 3 -2 R 4 -1 R 3 -2 R 4 -1 R 3 -2 R 3 -1 R 4 -2 R 3 -1 R 4 -2 R 3 -1 R
4 -2 R 3 -1 R 4 -2 R 3 -2 R 4 -1 R 3 -2 R 4 -1 R 3 -2 R 4 -1 R 3 -2 R 4 -1 R
3 -2 R 4 -1 R 3 -2 R 3 -1 R 4 -2 R 3 -1 R 4 -2 R 3 -1 R 4 -2 R D 9650 9176 M
3 -1 R 4 -2 R 3 -1 R 4 -2 R 3 -1 R 4 -2 R 3 -1 R 4 -2 R 3 -1 R 4 -2 R 3 -1 R
4 -2 R 3 -1 R 3 -2 R 4 -1 R 3 -2 R 4 -1 R 3 -2 R 4 -1 R 3 -2 R 4 -1 R 3 -2 R
4 -1 R 3 -1 R 4 -2 R 3 -1 R 4 -2 R 3 -1 R 4 -2 R 3 -1 R 4 -2 R 3 -1 R 3 -2 R
4 -1 R 3 -2 R 4 -1 R 3 -2 R 4 -1 R 3 -1 R 4 -2 R 3 -1 R 4 -2 R 3 -1 R 4 -2 R
3 -1 R 4 -2 R 3 -1 R 4 -1 R 3 -2 R 4 -1 R 3 -2 R 3 -1 R 4 -2 R 3 -1 R 4 -2 R
3 -1 R 4 -1 R 3 -2 R 4 -1 R 3 -2 R 4 -1 R 3 -1 R 4 -2 R 3 -1 R 4 -2 R 3 -1 R
4 -2 R 3 -1 R 4 -1 R 3 -2 R 3 -1 R 4 -2 R 3 -1 R 4 -1 R 3 -2 R 4 -1 R 3 -2 R
4 -1 R 3 -1 R 4 -2 R 3 -1 R 4 -2 R 3 -1 R 4 -1 R 3 -2 R 4 -1 R 3 -1 R 4 -2 R
3 -1 R 3 -2 R 4 -1 R 3 -1 R 4 -2 R 3 -1 R 4 -1 R 3 -2 R 4 -1 R 3 -2 R 4 -1 R
3 -1 R 4 -2 R 3 -1 R 4 -1 R 3 -2 R 4 -1 R 3 -1 R 4 -2 R 3 -1 R 4 -1 R 3 -2 R
3 -1 R 4 -2 R 3 -1 R 4 -1 R 3 -2 R 4 -1 R 3 -1 R 4 -2 R 3 -1 R 4 -1 R 3 -2 R
4 -1 R 3 -1 R 4 -2 R 3 -1 R 4 -1 R 3 -2 R 4 -1 R 3 -1 R 3 -2 R 4 -1 R 3 -1 R
4 -1 R 3 -2 R 4 -1 R 3 -1 R 4 -2 R 3 -1 R 4 -1 R 3 -2 R 4 -1 R 3 -1 R 4 -2 R
3 -1 R 4 -1 R 3 -2 R 4 -1 R 3 -1 R 3 -1 R 4 -2 R 3 -1 R 4 -1 R 3 -2 R 4 -1 R
3 -1 R 4 -2 R 3 -1 R 4 -1 R 3 -1 R 4 -2 R 3 -1 R 4 -1 R 3 -2 R 4 -1 R 3 -1 R
4 -1 R 3 -2 R 3 -1 R 4 -1 R 3 -2 R 4 -1 R 3 -1 R 4 -1 R 3 -2 R 4 -1 R 3 -1 R
4 -2 R 3 -1 R 4 -1 R 3 -1 R 4 -2 R 3 -1 R 4 -1 R 3 -2 R 4 -1 R 3 -1 R 3 -1 R
4 -2 R 3 -1 R 4 -1 R 3 -1 R 4 -2 R 3 -1 R 4 -1 R 3 -2 R 4 -1 R 3 -1 R 4 -1 R
3 -2 R 4 -1 R 3 -1 R 4 -1 R 3 -2 R 4 -1 R 3 -1 R 3 -2 R 4 -1 R 3 -1 R 4 -1 R
3 -2 R 4 -1 R 3 -1 R 4 -1 R 3 -2 R 4 -1 R 3 -1 R 4 -1 R 3 -2 R 4 -1 R 3 -1 R
4 -2 R 3 -1 R 4 -1 R 3 -1 R 3 -2 R 4 -1 R 3 -1 R 4 -1 R 3 -2 R 4 -1 R 3 -1 R
4 -1 R 3 -2 R 4 -1 R 3 -1 R 4 -1 R 3 -2 R 4 -1 R 3 -1 R 4 -2 R 3 -1 R 4 -1 R
3 -1 R 4 -2 R 3 -1 R 3 -1 R 4 -1 R 3 -2 R 4 -1 R 3 -1 R 4 -1 R 3 -2 R 4 -1 R
3 -1 R 4 -2 R 3 -1 R 4 -1 R 3 -1 R 4 -2 R 3 -1 R 4 -1 R 3 -1 R 4 -2 R 3 -1 R
3 -1 R 4 -1 R 3 -2 R 4 -1 R 3 -1 R 4 -2 R 3 -1 R 4 -1 R 3 -1 R 4 -2 R 3 -1 R
4 -1 R 3 -1 R 4 -2 R 3 -1 R 4 -1 R 3 -1 R 4 -2 R 3 -1 R 3 -1 R 4 -2 R 3 -1 R
4 -1 R 3 -1 R 4 -2 R 3 -1 R 4 -1 R 3 -1 R 4 -2 R 3 -1 R 4 -1 R 3 -2 R 4 -1 R
3 -1 R 4 -1 R 3 -2 R 4 -1 R 3 -1 R 3 -2 R 4 -1 R 3 -1 R 4 -1 R 3 -2 R 4 -1 R
3 -1 R 4 -1 R 3 -2 R 4 -1 R 3 -1 R 4 -2 R 3 -1 R 4 -1 R 3 -1 R 4 -2 R 3 -1 R
4 -1 R 3 -2 R 3 -1 R 4 -1 R 3 -1 R 4 -2 R 3 -1 R 4 -1 R 3 -2 R 4 -1 R 3 -1 R
4 -1 R 3 -2 R 4 -1 R 3 -1 R 4 -2 R 3 -1 R 4 -1 R 3 -1 R 4 -2 R 3 -1 R 3 -1 R
4 -2 R 3 -1 R 4 -1 R 3 -1 R 4 -2 R 3 -1 R 4 -1 R 3 -2 R 4 -1 R 3 -1 R 4 -1 R
3 -2 R 4 -1 R 3 -1 R 4 -2 R 3 -1 R 4 -1 R 3 -1 R 3 -2 R 4 -1 R 3 -1 R 4 -2 R
3 -1 R 4 -1 R 3 -1 R 4 -2 R 3 -1 R 4 -1 R 3 -2 R 4 -1 R 3 -1 R 4 -1 R 3 -2 R
4 -1 R 3 -1 R 4 -2 R 3 -1 R 4 -1 R 3 -2 R 3 -1 R 4 -1 R 3 -1 R 4 -2 R 3 -1 R
4 -1 R 3 -2 R 4 -1 R 3 -1 R 4 -1 R 3 -2 R 4 -1 R 3 -1 R 4 -2 R 3 -1 R 4 -1 R
3 -1 R 4 -2 R 3 -1 R 3 -1 R 4 -2 R 3 -1 R 4 -1 R 3 -1 R 4 -2 R 3 -1 R 4 -1 R
3 -2 R 4 -1 R 3 -1 R 4 -1 R 3 -2 R 4 -1 R 3 -1 R 4 -2 R 3 -1 R 4 -1 R 3 -1 R
3 -2 R 4 -1 R 3 -1 R 4 -1 R 3 -2 R 4 -1 R 3 -1 R 4 -2 R 3 -1 R 4 -1 R 3 -1 R
4 -2 R 3 -1 R 4 -1 R 3 -1 R 4 -2 R 3 -1 R 4 -1 R 3 -2 R 3 -1 R 4 -1 R 3 -1 R
4 -2 R 3 -1 R 4 -1 R 3 -1 R 4 -2 R 3 -1 R 4 -1 R 3 -1 R 4 -2 R 3 -1 R 4 -1 R
3 -1 R 4 -2 R 3 -1 R 4 -1 R 3 -1 R 3 -2 R 4 -1 R 3 -1 R 4 -1 R 3 -2 R 4 -1 R
3 -1 R 4 -1 R 3 -2 R 4 -1 R 3 -1 R 4 -1 R 3 -2 R 4 -1 R 3 -1 R 4 -1 R 3 -2 R
4 -1 R 3 -1 R 3 -1 R 4 -2 R 3 -1 R 4 -1 R 3 -1 R 4 -1 R 3 -2 R 4 -1 R 3 -1 R
4 -1 R 3 -2 R 4 -1 R 3 -1 R 4 -1 R 3 -1 R 4 -2 R 3 -1 R 4 -1 R 3 -1 R 3 -2 R
4 -1 R 3 -1 R 4 -1 R 3 -1 R 4 -2 R 3 -1 R 4 -1 R 3 -1 R 4 -1 R 3 -2 R 4 -1 R
3 -1 R 4 -1 R 3 -1 R 4 -2 R 3 -1 R 4 -1 R 3 -1 R 4 -1 R 3 -1 R 3 -2 R 4 -1 R
3 -1 R 4 -1 R 3 -1 R 4 -2 R 3 -1 R 4 -1 R 3 -1 R 4 -1 R 3 -1 R 4 -2 R 3 -1 R
4 -1 R 3 -1 R 4 -1 R 3 -1 R 4 -2 R 3 -1 R 3 -1 R 4 -1 R 3 -1 R 4 -1 R 3 -2 R
4 -1 R 3 -1 R 4 -1 R 3 -1 R 4 -1 R 3 -1 R 4 -2 R 3 -1 R 4 -1 R 3 -1 R 4 -1 R
3 -1 R 4 -1 R 3 -1 R 3 -2 R 4 -1 R 3 -1 R 4 -1 R 3 -1 R 4 -1 R 3 -1 R 4 -1 R
3 -2 R 4 -1 R 3 -1 R 4 -1 R 3 -1 R 4 -1 R 3 -1 R 4 -1 R 3 -1 R 4 -2 R 3 -1 R
3 -1 R 4 -1 R 3 -1 R 4 -1 R 3 -1 R 4 -1 R 3 -1 R 4 -1 R 3 -2 R 4 -1 R 3 -1 R
4 -1 R 3 -1 R 4 -1 R 3 -1 R 4 -1 R 3 -1 R 4 -1 R 3 -1 R 3 -1 R 4 -2 R 3 -1 R
4 -1 R 3 -1 R 4 -1 R 3 -1 R 4 -1 R 3 -1 R 4 -1 R 3 -1 R 4 -1 R 3 -1 R 4 -1 R
3 -1 R 4 -1 R 3 -2 R 4 -1 R 3 -1 R 3 -1 R 4 -1 R 3 -1 R 4 -1 R 3 -1 R 4 -1 R
3 -1 R 4 -1 R 3 -1 R 4 -1 R 3 -1 R 4 -1 R 3 -1 R 4 -1 R 3 -1 R 4 -1 R 3 -1 R
4 -1 R 3 -2 R 3 -1 R 4 -1 R 3 -1 R 4 -1 R 3 -1 R 4 -1 R 3 -1 R 4 -1 R 3 -1 R
4 -1 R 3 -1 R 4 -1 R 3 -1 R 4 -1 R 3 -1 R 4 -1 R 3 -1 R 4 -1 R 3 -1 R 3 -1 R
4 -1 R 3 -1 R 4 -1 R 3 -1 R 4 -1 R 3 -1 R 4 -1 R 3 -1 R 4 -1 R 3 -1 R 4 -1 R
3 -1 R 4 -1 R 3 -1 R 4 -1 R 3 -1 R 4 -1 R 3 -1 R 4 -1 R 3 -1 R 3 -1 R 4 -1 R
3 -1 R 4 -1 R 3 -1 R 4 -1 R 3 -1 R 4 -1 R 3 -1 R 4 -1 R 3 -1 R 4 -1 R 3 -1 R
4 -1 R 3 -1 R 4 -1 R 3 -1 R 4 -1 R 3 -1 R 3 -1 R 4 -1 R 3 -1 R 4 -1 R 3 -1 R
4 -1 R 3 -1 R 4 -1 R 3 -1 R 4 -1 R 3 -1 R 4 -1 R 3 -1 R 4 -1 R 3 -1 R 4 -1 R
3 -1 R 4 -1 R 3 -1 R 3 -1 R 4 -1 R 3 -1 R 4 -1 R 3 -1 R 4 -1 R 3 -1 R 4 -1 R
3 -1 R 4 -1 R 3 -1 R 4 -1 R 3 -1 R 4 -1 R 3 -1 R 4 -1 R 3 -1 R 4 -1 R 3 -1 R
3 -1 R 4 -1 R 3 0 R 4 -1 R 3 -2 R 4 0 R 3 -1 R 4 -1 R 3 -1 R 4 -1 R 3 -1 R
4 -1 R 3 -1 R 4 -1 R 3 -1 R 4 -1 R 3 -1 R 4 -1 R 3 -1 R 3 -1 R 4 -1 R 3 -1 R
4 -1 R 3 -1 R D 12255 8257 M 4 -1 R 3 -1 R 4 -1 R 3 -1 R 4 -1 R 3 -1 R
4 -1 R 3 -1 R 4 -1 R 3 -1 R 4 -1 R 3 -1 R 4 -1 R 3 -1 R 3 -1 R 4 -1 R 3 -1 R
4 -1 R 3 -1 R 4 -1 R 3 -1 R 4 -1 R 3 0 R 4 -2 R 3 0 R 4 -1 R 3 -1 R 4 -1 R
3 -1 R 4 -1 R 3 -1 R 4 -1 R 3 -1 R 3 -1 R 4 -1 R 3 -1 R 4 -2 R 3 0 R 4 -1 R
3 -1 R 4 -1 R 3 -1 R 4 -1 R 3 -1 R 4 -1 R 3 -1 R 4 -1 R 3 -1 R 4 -1 R 3 -1 R
4 -1 R 3 -1 R 4 -1 R 3 -1 R 3 -1 R 4 -1 R 3 -1 R 4 -1 R 3 -1 R 4 -1 R 3 -1 R
4 -1 R 3 -1 R 4 -1 R 3 -1 R 4 0 R 3 -1 R 4 -1 R 3 -1 R 4 -1 R 3 -1 R 4 -1 R
3 -1 R 3 -1 R 4 -1 R 3 -1 R 4 -1 R 3 -1 R 4 -1 R 3 -1 R 4 -1 R 3 -1 R 4 -1 R
3 -1 R 4 -1 R 3 -1 R 4 -1 R 3 -1 R 4 -1 R 3 -1 R 4 -1 R 3 -1 R 3 -1 R 4 -1 R
3 -1 R 4 -1 R 3 -1 R 4 -1 R 3 -1 R 4 -1 R 3 -1 R 4 -1 R 3 -1 R 4 -1 R 3 -1 R
4 0 R 3 -1 R 4 -1 R 3 -1 R 4 -1 R 3 -1 R 3 -1 R 4 -1 R 3 -1 R 4 -1 R 3 -1 R
4 -1 R 3 -1 R 4 -1 R 3 -1 R 4 -1 R 3 -1 R 4 -1 R 3 -1 R 4 -1 R 3 -1 R 4 -1 R
3 -1 R 4 -1 R 3 -1 R 3 -1 R 4 -1 R 3 -1 R 4 -4 R 3 2 R 4 -1 R 3 0 R 4 -1 R
3 -1 R 4 -1 R 3 -1 R 4 -1 R 3 -1 R 4 -1 R 3 -1 R 4 -1 R 3 -1 R 4 -1 R 3 -1 R
3 -1 R 4 -1 R 3 -1 R 4 -1 R 3 -1 R 4 -1 R 3 -1 R 4 -1 R 3 -1 R 4 -1 R 3 0 R
4 -1 R 3 -1 R 4 -1 R 3 -1 R 4 -1 R 3 -1 R 4 -1 R 3 -1 R 3 -1 R 4 -1 R 3 -1 R
4 -1 R 3 -1 R 4 -1 R 3 -1 R 4 -1 R 3 -1 R 4 0 R 3 -1 R 4 -1 R 3 -1 R 4 -1 R
3 -1 R 4 -1 R 3 -1 R 4 -1 R 3 -1 R 4 -1 R 3 -1 R 3 -1 R 4 -1 R 3 -1 R 4 -1 R
3 0 R 4 -10 R 3 8 R 4 -1 R 3 -1 R 4 -1 R 3 -1 R 4 -1 R 3 -1 R 4 -1 R 3 -1 R
4 -1 R 3 -1 R 4 0 R 3 -1 R 3 -1 R 4 -1 R 3 -1 R 4 -1 R 3 -1 R 4 -1 R 3 -1 R
4 -1 R 3 -1 R 4 -1 R 3 -1 R 4 0 R 3 -1 R 4 -1 R 3 -1 R 4 -1 R 3 -1 R 4 -1 R
3 -1 R 3 -1 R 4 -1 R 3 -1 R 4 0 R 3 -1 R 4 -1 R 3 -1 R 4 -1 R 3 -1 R 4 -1 R
3 -1 R 4 -1 R 3 -1 R 4 -1 R 3 0 R 4 -1 R 3 -1 R 4 -1 R 3 -1 R 3 -1 R 4 -1 R
3 -1 R 4 -1 R 3 -1 R 4 0 R 3 -1 R 4 -1 R 3 -1 R 4 -1 R 3 -1 R 4 -1 R 3 -1 R
4 -1 R 3 -1 R 4 -1 R 3 0 R 4 -1 R 3 -1 R 3 -1 R 4 -1 R 3 -1 R 4 -1 R 3 -1 R
4 -1 R 3 -1 R 4 0 R 3 -1 R 4 -1 R 3 -1 R 4 -1 R 3 -1 R 4 -1 R 3 -1 R 4 -1 R
3 -1 R 4 -1 R 3 0 R 3 -1 R 4 -1 R 3 -1 R 4 -1 R 3 -1 R 4 -1 R 3 -1 R 4 -1 R
3 -1 R 4 -1 R 3 0 R 4 -1 R 3 -1 R 4 -1 R 3 -1 R 4 -1 R 3 -1 R 4 -1 R 3 -1 R
3 -1 R 4 -1 R 3 -1 R 4 0 R 3 -1 R 4 -1 R 3 -1 R 4 -1 R 3 -1 R 4 -1 R 3 -1 R
4 -1 R 3 -1 R 4 -1 R 3 -1 R 4 -1 R 3 -1 R 4 -1 R 3 0 R 3 -1 R 4 -1 R 3 -1 R
4 -1 R 3 -1 R 4 -1 R 3 -1 R 4 -1 R 3 -1 R 4 -1 R 3 -1 R 4 -1 R 3 -1 R 4 -1 R
3 -1 R 4 -1 R 3 -1 R 4 -1 R 3 -1 R 4 -1 R 3 -1 R 3 -1 R 4 0 R 3 -1 R 4 -1 R
3 -1 R 4 -1 R 3 -1 R 4 -1 R 3 -1 R 4 -1 R 3 -1 R 4 -1 R 3 -1 R 4 -1 R 3 -1 R
4 -1 R 3 -1 R 4 -1 R 3 -1 R 3 -1 R 4 -1 R 3 -1 R 4 -1 R 3 -1 R 4 -1 R 3 -1 R
4 -1 R 3 -2 R 4 -1 R 3 -1 R 4 -1 R 3 -1 R 4 -1 R 3 -1 R 4 -1 R 3 -1 R 4 -1 R
3 -1 R 3 -1 R 4 -1 R 3 -1 R 4 -1 R 3 -1 R 4 -1 R 3 -1 R 4 -1 R 3 -1 R 4 -2 R
3 -1 R 4 -1 R 3 -1 R 4 -1 R 3 -1 R 4 -1 R 3 -1 R 4 -1 R 3 -1 R 3 -1 R 4 -1 R
3 -2 R 4 -1 R 3 -1 R 4 -1 R 3 -1 R 4 -1 R 3 -1 R 4 -1 R 3 -1 R 4 -2 R 3 -1 R
4 -1 R 3 -1 R 4 -1 R 3 -1 R 4 -1 R 3 -2 R 3 -1 R 4 -1 R 3 -1 R 4 -1 R 3 -1 R
4 -1 R 3 -2 R 4 -1 R 3 -1 R 4 -1 R 3 -1 R 4 -1 R 3 -2 R 4 -1 R 3 -1 R 4 -1 R
3 -1 R 4 -1 R 3 -2 R 3 -1 R 4 -1 R 3 -1 R 4 -1 R 3 -2 R 4 -1 R 3 -1 R 4 -1 R
3 -1 R 4 -2 R 3 -1 R 4 -1 R 3 -1 R 4 -1 R 3 -2 R 4 -1 R 3 -1 R 4 -1 R 3 -2 R
3 -1 R 4 -1 R 3 -1 R 4 -2 R 3 -1 R 4 -1 R 3 -1 R 4 -1 R 3 -2 R 4 -1 R 3 -1 R
4 -1 R 3 -2 R 4 -1 R 3 -1 R 4 -1 R 3 -2 R 4 -1 R 3 -1 R 4 -2 R 3 -1 R 3 -1 R
4 -1 R 3 -2 R 4 -1 R 3 -1 R 4 -1 R 3 -2 R 4 -1 R 3 -1 R 4 -2 R 3 -1 R 4 -1 R
3 -1 R 4 -2 R 3 -1 R 4 -1 R 3 -2 R 4 -1 R 3 -1 R 3 -1 R 4 -2 R 3 -1 R 4 -1 R
3 -2 R 4 -1 R 3 -1 R 4 -2 R 3 -1 R 4 -1 R 3 -1 R 4 -2 R 3 -1 R 4 -1 R 3 -2 R
4 -1 R 3 -1 R 4 -2 R 3 -1 R 3 -1 R 4 -2 R 3 -1 R 4 -1 R 3 -2 R 4 -1 R 3 -1 R
4 -2 R 3 -1 R 4 -1 R 3 -2 R 4 -1 R 3 -1 R 4 -2 R 3 -1 R 4 -1 R 3 -2 R 4 -1 R
3 -1 R 3 -2 R 4 -1 R 3 -1 R 4 -2 R 3 -1 R 4 -1 R 3 -2 R 4 -1 R 3 -1 R 4 -2 R
3 -1 R 4 -1 R 3 -2 R 4 -1 R 3 -1 R 4 -2 R 3 -1 R 4 -1 R 3 -2 R 3 -1 R 4 -1 R
3 -2 R 4 -1 R 3 -1 R 4 -2 R 3 -1 R 4 -1 R 3 -2 R 4 -1 R 3 -1 R 4 -2 R 3 -1 R
4 -1 R 3 -2 R 4 -1 R 3 -1 R 4 -2 R 3 -1 R 3 -1 R 4 -2 R 3 -1 R 4 -1 R 3 -2 R
4 -1 R 3 -1 R 4 -2 R 3 -1 R 4 -1 R 3 -2 R 4 -1 R 3 -1 R 4 -2 R 3 -1 R 4 -1 R
3 -2 R 4 -1 R 3 -1 R 3 -2 R 4 -1 R 3 -1 R 4 -2 R 3 -1 R 4 -1 R 3 -2 R 4 -1 R
3 -1 R 4 -2 R 3 -1 R 4 -1 R 3 -2 R 4 -1 R 3 -1 R 4 -2 R 3 -1 R 4 -1 R 3 -2 R
4 -1 R 3 -1 R 3 -2 R 4 -1 R 3 -1 R 4 -1 R 3 -2 R 4 -1 R 3 -1 R 4 -2 R 3 -1 R
4 -1 R 3 -2 R 4 -1 R 3 -1 R 4 -2 R 3 -1 R 4 -1 R 3 -1 R 4 -2 R 3 -1 R 3 -1 R
4 -2 R 3 -1 R 4 -1 R 3 -1 R 4 -2 R 3 -1 R 4 -1 R 3 -2 R 4 -1 R 3 -1 R 4 -1 R
3 -2 R 4 -1 R 3 -1 R 4 -1 R 3 -2 R 4 -1 R 3 -1 R 3 -2 R 4 -1 R 3 -1 R 4 -1 R
3 -2 R 4 -1 R 3 -1 R 4 -1 R 3 -2 R 4 -1 R 3 -1 R 4 -1 R 3 -1 R 4 -2 R 3 -1 R
4 -1 R 3 -1 R 4 -2 R 3 -1 R 3 -1 R 4 -1 R 3 -1 R 4 -2 R 3 -1 R 4 -1 R 3 -1 R
4 -1 R 3 -2 R 4 -1 R 3 -1 R 4 -1 R 3 -1 R 4 -2 R 3 -1 R 4 -1 R 3 -1 R 4 -1 R
3 -1 R 3 -2 R 4 -1 R 3 -1 R 4 -1 R 3 -1 R 4 -1 R 3 -1 R 4 -2 R 3 -1 R 4 -1 R
3 -1 R 4 -1 R 3 -1 R 4 -1 R 3 -1 R 4 -2 R 3 -1 R 4 -4 R 3 2 R 3 -1 R 4 -1 R
3 -1 R 4 -1 R 3 -1 R 4 -1 R 3 -1 R 4 -1 R 3 -1 R 4 -1 R 3 -1 R 4 -2 R 3 -1 R
4 -1 R 3 -1 R 4 -1 R 3 -1 R 4 -1 R 3 -1 R 3 -1 R 4 -1 R 3 -1 R 4 -1 R 3 0 R
4 -1 R 3 -1 R 4 -1 R 3 -1 R 4 -1 R 3 -1 R 4 -1 R 3 -1 R 4 -1 R 3 -1 R 4 -1 R
3 -1 R 4 -1 R 3 0 R 3 -1 R 4 -1 R 3 -1 R 4 -1 R D 14861 7445 M 3 -1 R 4 -1 R
3 0 R 4 -1 R 3 -1 R 4 -1 R 3 -1 R 4 0 R 3 -1 R 4 -1 R 3 -1 R 4 0 R 3 -1 R
4 -1 R 3 -1 R 4 0 R 3 -1 R 3 -1 R 4 -1 R 3 0 R 4 -1 R 3 -1 R 4 0 R 3 -1 R
4 -1 R 3 0 R 4 -1 R 3 0 R 4 -1 R 3 -1 R 4 0 R 3 -1 R 4 0 R 3 -1 R 4 0 R
3 -1 R 3 0 R 4 -1 R 3 0 R 4 -1 R 3 0 R 4 -1 R 3 0 R 4 -1 R 3 0 R 4 -1 R
3 0 R 4 -1 R 3 0 R 4 0 R 3 -1 R 4 -1 R 3 1 R 4 -1 R 3 0 R 3 0 R 4 -1 R 3 0 R
4 0 R 3 -1 R 4 0 R 3 0 R 4 0 R 3 -1 R 4 0 R 3 0 R 4 0 R 3 0 R 4 0 R 3 -1 R
4 0 R 3 0 R 4 0 R 3 -1 R 3 1 R 4 0 R 3 0 R 4 0 R 3 0 R 4 0 R 3 0 R 4 0 R
3 0 R 4 0 R 3 0 R 4 0 R 3 0 R 4 0 R 3 0 R 4 0 R 3 0 R 4 1 R 3 -1 R 3 1 R
4 0 R 3 0 R 4 1 R 3 0 R 4 0 R 3 0 R 4 1 R 3 0 R 4 0 R 3 0 R 4 1 R 3 0 R
4 0 R 3 1 R 4 0 R 3 1 R 4 0 R 3 0 R 3 1 R 4 0 R 3 1 R 4 0 R 3 1 R 4 0 R
3 1 R 4 0 R 3 1 R 4 0 R 3 1 R 4 0 R 3 1 R 4 1 R 3 0 R 4 1 R 3 0 R 4 1 R
3 1 R 3 0 R 4 1 R 3 1 R 4 0 R 3 1 R 4 1 R 3 1 R 4 0 R 3 1 R 4 1 R 3 1 R
4 0 R 3 1 R 4 1 R 3 1 R 4 1 R 3 0 R 4 1 R 3 1 R 4 1 R 3 1 R 3 1 R 4 1 R
3 1 R 4 0 R 3 1 R 4 1 R 3 1 R 4 1 R 3 1 R 4 1 R 3 1 R 4 1 R 3 1 R 4 1 R
3 1 R 4 1 R 3 1 R 4 1 R 3 1 R 3 1 R 4 1 R 3 1 R 4 1 R 3 1 R 4 1 R 3 1 R
4 1 R 3 1 R 4 1 R 3 1 R 4 1 R 3 1 R 4 1 R 3 1 R 4 1 R 3 1 R 4 1 R 3 1 R
3 1 R 4 1 R 3 1 R 4 0 R 3 1 R 4 1 R 3 1 R 4 1 R 3 1 R 4 1 R 3 1 R 4 1 R
3 1 R 4 1 R 3 1 R 4 1 R 3 0 R 4 1 R 3 1 R 3 1 R 4 1 R 3 1 R 4 0 R 3 1 R
4 1 R 3 1 R 4 0 R 3 1 R 4 1 R 3 1 R 4 0 R 3 1 R 4 1 R 3 0 R 4 1 R 3 0 R
4 1 R 3 1 R 3 0 R 4 1 R 3 0 R 4 0 R 3 1 R 4 0 R 3 1 R 4 0 R 3 0 R 4 1 R
3 0 R 4 0 R 3 0 R 4 1 R 3 0 R 4 0 R 3 0 R 4 0 R 3 0 R 3 0 R 4 0 R 3 0 R
4 0 R 3 0 R 4 -1 R 3 0 R 4 0 R 3 0 R 4 -1 R 3 0 R 4 0 R 3 -1 R 4 0 R 3 -1 R
4 0 R 3 -1 R 4 -1 R 3 0 R 3 -1 R 4 -1 R 3 -1 R 4 -1 R 3 -1 R 4 -1 R 3 -1 R
4 -1 R 3 -1 R 4 -1 R 3 -1 R 4 -2 R 3 -1 R 4 -1 R 3 -2 R 4 -1 R 3 -2 R 4 -1 R
3 -2 R 4 -2 R 3 -1 R 3 -2 R 4 -2 R 3 -2 R 4 -2 R 3 -2 R 4 -2 R 3 -3 R 4 -2 R
3 -2 R 4 -3 R 3 -2 R 4 -2 R 3 -3 R 4 -3 R 3 -2 R 4 -3 R 3 -3 R 4 -3 R 3 -3 R
3 -3 R 4 -3 R 3 -3 R 4 -4 R 3 -3 R 4 -3 R 3 -4 R 4 -3 R 3 -4 R 4 -4 R 3 -4 R
4 -4 R 3 -3 R 4 -5 R 3 -4 R 4 -4 R 3 -4 R 4 -4 R 3 -5 R 3 -4 R 4 -5 R 3 -5 R
4 -4 R 3 -5 R 4 -5 R 3 -5 R 4 -5 R 3 -6 R 4 -5 R 3 -5 R 4 -6 R 3 -5 R 4 -6 R
3 -6 R 4 -5 R 3 -6 R 4 -6 R 3 -7 R 3 -6 R 4 -6 R 3 -6 R 4 -7 R 3 -6 R 4 -7 R
3 -7 R 4 -7 R 3 -7 R 4 -7 R 3 -7 R 4 -7 R 3 -8 R 4 -7 R 3 -8 R 4 -7 R 3 -8 R
4 -8 R 3 -8 R 3 -8 R 4 -8 R 3 -8 R 4 -9 R 3 -8 R 4 -9 R 3 -9 R 4 -8 R 3 -9 R
4 -9 R 3 -9 R 4 -10 R 3 -9 R 4 -9 R 3 -10 R 4 -10 R 3 -10 R 4 -9 R 3 -10 R
3 -11 R 4 -10 R 3 -10 R 4 -11 R 3 -10 R 4 -11 R 3 -11 R 4 -11 R 3 -11 R
4 -11 R 3 -11 R 4 -12 R 3 -11 R 4 -12 R 3 -12 R 4 -12 R 3 -12 R 4 -12 R
3 -12 R 3 -12 R 4 -13 R 3 -12 R 4 -13 R 3 -13 R 4 -13 R 3 -13 R 4 -13 R
3 -14 R 4 -13 R 3 -14 R 4 -13 R 3 -14 R 4 -14 R 3 -14 R 4 -15 R 3 -14 R
4 -14 R 3 -15 R 3 -15 R 4 -15 R 3 -15 R 4 -15 R 3 -15 R 4 -15 R 3 -16 R
4 -15 R 3 -16 R 4 -16 R 3 -16 R 4 -16 R 3 -17 R 4 -16 R 3 -17 R 4 -16 R
3 -17 R 4 -17 R 3 -17 R 4 -18 R 3 -17 R 3 -17 R 4 -18 R 3 -18 R 4 -18 R
3 -18 R 4 -18 R 3 -18 R 4 -19 R 3 -18 R 4 -19 R 3 -19 R 4 -19 R 3 -19 R
4 -19 R 3 -20 R 4 -19 R 3 -20 R 4 -20 R 3 -20 R 3 -20 R 4 -20 R 3 -21 R
4 -20 R 3 -21 R 4 -21 R 3 -21 R 4 -21 R 3 -21 R 4 -21 R 3 -22 R 4 -21 R
3 -22 R 4 -22 R 3 -22 R 4 -23 R 3 -22 R 4 -22 R 3 -23 R 3 -23 R 4 -23 R
3 -23 R 4 -23 R 3 -24 R 4 -23 R 3 -24 R 4 -24 R 3 -24 R 4 -24 R 3 -24 R
4 -24 R 3 -25 R 4 -25 R 3 -24 R 4 -25 R 3 -26 R 4 -25 R 3 -25 R 3 -26 R
4 -26 R 3 -25 R 4 -26 R 3 -27 R 4 -26 R 3 -26 R 4 -27 R 3 -27 R 4 -27 R
3 -27 R 4 -27 R 3 -27 R 4 -28 R 3 -27 R 4 -28 R 3 -28 R 4 -28 R 3 -28 R
3 -29 R 4 -28 R 3 -29 R 4 -29 R 3 -29 R 4 -29 R 3 -29 R 4 -30 R 3 -29 R
4 -30 R 3 -30 R 4 -30 R 3 -30 R 4 -31 R 3 -30 R 4 -31 R 3 -31 R 4 -31 R
3 -31 R 3 -31 R 4 -31 R 3 -32 R 4 -32 R 3 -31 R 4 -32 R 3 -33 R 4 -32 R
3 -32 R 4 -33 R 3 -33 R 4 -33 R 3 -33 R 4 -33 R 3 -33 R 4 -34 R 3 -34 R
4 -33 R 3 -34 R 3 -34 R 4 -35 R 3 -34 R 4 -35 R 3 -35 R 4 -34 R 3 -36 R
4 -35 R 3 -35 R 4 -36 R 3 -35 R 4 -36 R 0 -1 R D L1 4440 11338 M 2 0 R
4 -1 R 3 -1 R 4 -2 R 3 -1 R 4 -1 R 3 -1 R 4 -1 R 3 -2 R 3 -1 R 4 -1 R 3 -1 R
4 -2 R 3 -1 R 4 -1 R 3 -1 R 4 -1 R 3 -2 R 4 -1 R 3 -1 R 4 -1 R 3 -1 R 4 -2 R
3 -1 R 4 -1 R 3 -1 R 4 -2 R 3 -1 R 3 -1 R 4 -1 R 3 -2 R 4 -1 R 3 -1 R 4 -1 R
3 -1 R 4 -2 R 3 -1 R 4 -1 R 3 -1 R 4 -2 R 3 -1 R 4 -1 R 3 -1 R 4 -2 R 3 -1 R
4 -1 R 3 -1 R 4 -1 R 3 -2 R 3 -1 R 4 -1 R 3 -1 R 4 -2 R 3 -1 R 4 -1 R 3 -1 R
4 -2 R 3 -1 R 4 -1 R 3 -1 R 4 -2 R 3 -1 R 4 -1 R 3 -1 R 4 -1 R 3 -2 R 4 -1 R
3 -1 R 3 -1 R 4 -2 R 3 -1 R 4 -1 R 3 -1 R 4 -2 R 3 -1 R 4 -1 R 3 -1 R 4 -2 R
3 -1 R 4 -1 R 3 -1 R 4 -2 R 3 -1 R 4 -1 R 3 -1 R 4 -2 R 3 -1 R 3 -1 R 4 -1 R
3 -2 R 4 -1 R 3 -1 R 4 -1 R 3 -2 R 4 -1 R 3 -1 R 4 -1 R 3 -2 R 4 -1 R 3 -1 R
4 -1 R 3 -2 R 4 -1 R 3 -1 R 4 -1 R 3 -2 R 3 -1 R 4 -1 R 3 -2 R 4 -1 R 3 -1 R
4 -1 R 3 -2 R 4 -1 R 3 -1 R 4 -1 R 3 -2 R 4 -1 R 3 -1 R 4 -1 R 3 -2 R 4 -1 R
3 -1 R 4 -1 R 3 -2 R 3 -1 R 4 -1 R 3 -2 R 4 -1 R 3 -1 R 4 -1 R 3 -2 R 4 -1 R
3 -1 R 4 -1 R 3 -2 R 4 -1 R 3 -1 R 4 -1 R 3 -2 R 4 -1 R 3 -1 R 4 -2 R 3 -1 R
3 -1 R 4 -1 R 3 -2 R 4 -1 R 3 -1 R 4 -1 R 3 -2 R 4 -1 R 3 -1 R 4 -2 R 3 -1 R
4 -1 R 3 -1 R 4 -2 R 3 -1 R 4 -1 R 3 -2 R 4 -1 R 3 -1 R 3 -1 R 4 -2 R 3 -1 R
4 -1 R 3 -1 R 4 -2 R 3 -1 R 4 -1 R 3 -2 R 4 -1 R 3 -1 R 4 -1 R 3 -2 R 4 -1 R
3 -1 R 4 -2 R 3 -1 R 4 -1 R 3 -1 R 4 -2 R 3 -1 R 3 -1 R 4 -2 R 3 -1 R 4 -1 R
3 -1 R 4 -2 R 3 -1 R 4 -1 R 3 -2 R 4 -1 R 3 -1 R 4 -1 R 3 -2 R 4 -1 R 3 -1 R
4 -2 R 3 -1 R 4 -1 R 3 -2 R 3 -1 R 4 -1 R 3 -1 R 4 -2 R 3 -1 R 4 -1 R 3 -2 R
4 -1 R 3 -1 R 4 -1 R 3 -2 R 4 -1 R 3 -1 R 4 -2 R 3 -1 R 4 -1 R 3 -2 R 4 -1 R
3 -1 R 3 -1 R 4 -2 R 3 -1 R 4 -1 R 3 -2 R 4 -1 R 3 -1 R 4 -2 R 3 -1 R 4 -1 R
3 -1 R 4 -2 R 3 -1 R 4 -1 R 3 -2 R 4 -1 R 3 -1 R 4 -2 R 3 -1 R 3 -1 R 4 -2 R
3 -1 R 4 -1 R 3 -1 R 4 -2 R 3 -1 R 4 -1 R 3 -2 R 4 -1 R 3 -1 R 4 -2 R 3 -1 R
4 -1 R 3 -2 R 4 -1 R 3 -1 R 4 -1 R 3 -2 R 3 -1 R 4 -1 R 3 -2 R 4 -1 R 3 -1 R
4 -2 R 3 -1 R 4 -1 R 3 -2 R 4 -1 R 3 -1 R 4 -1 R 3 -2 R 4 -1 R 3 -1 R 4 -2 R
3 -1 R 4 -1 R 3 -2 R 3 -1 R 4 -1 R 3 -2 R 4 -1 R 3 -1 R 4 -2 R 3 -1 R 4 -1 R
3 -1 R 4 -2 R 3 -1 R 4 -1 R 3 -2 R 4 -1 R 3 -1 R 4 -2 R 3 -1 R 4 -1 R 3 -2 R
3 -1 R 4 -1 R 3 -2 R 4 -1 R 3 -1 R 4 -2 R 3 -1 R 4 -1 R 3 -2 R 4 -1 R 3 -1 R
4 -1 R 3 -2 R 4 -1 R 3 -1 R 4 -2 R 3 -1 R 4 -1 R 3 -2 R 3 -1 R 4 -1 R 3 -2 R
4 -1 R 3 -1 R 4 -2 R 3 -1 R 4 -1 R 3 -2 R 4 -1 R 3 -1 R 4 -2 R 3 -1 R 4 -1 R
3 -2 R 4 -1 R 3 -1 R 4 -2 R 3 -1 R 4 -1 R 3 -2 R 3 -1 R 4 -1 R 3 -1 R 4 -2 R
3 -1 R 4 -1 R 3 -2 R 4 -1 R 3 -1 R 4 -2 R 3 -1 R 4 -1 R 3 -2 R 4 -1 R 3 -1 R
4 -2 R 3 -1 R 4 -1 R 3 -2 R 3 -1 R 4 -1 R 3 -2 R 4 -1 R 3 -1 R 4 -2 R 3 -1 R
4 -1 R 3 -2 R 4 -1 R 3 -1 R 4 -2 R 3 -1 R 4 -1 R 3 -2 R 4 -1 R 3 -1 R 4 -2 R
3 -1 R 3 -1 R 4 -2 R 3 -1 R 4 -1 R 3 -2 R 4 -1 R 3 -1 R 4 -2 R 3 -1 R 4 -1 R
3 -2 R 4 -1 R 3 -1 R 4 -2 R 3 -1 R 4 -1 R 3 -2 R 4 -1 R 3 -1 R 3 -2 R 4 -1 R
3 -1 R 4 -2 R 3 -1 R 4 -1 R 3 -2 R 4 -1 R 3 -1 R 4 -2 R 3 -1 R 4 -1 R 3 -2 R
4 -1 R 3 -1 R 4 -2 R 3 -1 R 4 -1 R 3 -2 R 3 -1 R 4 -1 R 3 -2 R 4 -1 R 3 -1 R
4 -2 R 3 -1 R 4 -1 R 3 -2 R 4 -1 R 3 -1 R 4 -2 R 3 -1 R 4 -1 R 3 -2 R 4 -1 R
3 -1 R 4 -2 R 3 -1 R 3 -1 R 4 -2 R 3 -1 R 4 -1 R 3 -2 R 4 -1 R 3 -2 R 4 -1 R
3 -1 R 4 -2 R 3 -1 R 4 -1 R 3 -2 R 4 -1 R 3 -1 R 4 -2 R 3 -1 R 4 -1 R 3 -2 R
3 -1 R 4 -1 R 3 -2 R 4 -1 R 3 -1 R 4 -2 R 3 -1 R 4 -1 R 3 -2 R 4 -1 R 3 -1 R
4 -2 R 3 -1 R 4 -1 R 3 -2 R 4 -1 R 3 -2 R 4 -1 R 3 -1 R 4 -2 R 3 -1 R 3 -1 R
4 -2 R 3 -1 R 4 -1 R 3 -2 R 4 -1 R 3 -1 R 4 -2 R 3 -1 R 4 -1 R 3 -2 R 4 -1 R
3 -1 R 4 -2 R 3 -1 R 4 -2 R 3 -1 R 4 -1 R 3 -2 R 3 -1 R 4 -1 R 3 -2 R 4 -1 R
3 -1 R 4 -2 R 3 -1 R 4 -1 R 3 -2 R 4 -1 R 3 -1 R 4 -2 R 3 -1 R 4 -2 R 3 -1 R
4 -1 R 3 -2 R 4 -1 R 3 -1 R 3 -2 R 4 -1 R 3 -1 R 4 -2 R 3 -1 R 4 -2 R 3 -1 R
4 -1 R 3 -2 R 4 -1 R 3 -1 R 4 -2 R 3 -1 R 4 -1 R 3 -2 R 4 -1 R 3 -1 R 4 -2 R
3 -1 R 3 -2 R 4 -1 R 3 -1 R 4 -2 R 3 -1 R 4 -1 R 3 -2 R 4 -1 R 3 -1 R 4 -2 R
3 -1 R 4 -2 R 3 -1 R 4 -1 R 3 -2 R 4 -1 R 3 -1 R 4 -2 R 3 -1 R 3 -1 R 4 -2 R
3 -1 R 4 -2 R 3 -1 R 4 -1 R 3 -2 R 4 -1 R 3 -1 R 4 -2 R 3 -1 R 4 -2 R 3 -1 R
4 -1 R 3 -2 R 4 -1 R 3 -1 R 4 -2 R 3 -1 R 3 -2 R 4 -1 R 3 -1 R 4 -2 R 3 -1 R
4 -1 R 3 -2 R 4 -1 R 3 -2 R 4 -1 R 3 -1 R 4 -2 R 3 -1 R 4 -1 R 3 -2 R 4 -1 R
3 -2 R 4 -1 R 3 -1 R 3 -2 R 4 -1 R 3 -1 R 4 -2 R 3 -1 R 4 -2 R 3 -1 R 4 -1 R
3 -2 R 4 -1 R 3 -1 R 4 -2 R 3 -1 R 4 -2 R 3 -1 R 4 -1 R 3 -2 R 4 -1 R 3 -2 R
4 -1 R 3 -1 R 3 -2 R 4 -1 R 3 -1 R 4 -2 R 3 -1 R 4 -2 R 3 -1 R 4 -1 R 3 -2 R
4 -1 R 3 -2 R 4 -1 R 3 -1 R 4 -2 R 3 -1 R 4 -1 R 3 -2 R 4 -1 R 3 -2 R 3 -1 R
4 -1 R 3 -2 R 4 -1 R 3 -2 R 4 -1 R 3 -1 R 4 -2 R 3 -1 R 4 -2 R 3 -1 R 4 -1 R
3 -2 R 4 -1 R 3 -1 R 4 -2 R 3 -1 R 4 -2 R 3 -1 R 3 -1 R 4 -2 R 3 -1 R 4 -2 R
3 -1 R 4 -1 R 3 -2 R 4 -1 R 3 -2 R 4 -1 R 3 -1 R 4 -2 R 3 -1 R 4 -2 R 3 -1 R
4 -1 R 3 -2 R 4 -1 R 3 -2 R 3 -1 R 4 -1 R 3 -2 R 4 -1 R 3 -2 R 4 -1 R 3 -1 R
4 -2 R 3 -1 R 4 -2 R 3 -1 R 4 -1 R 3 -2 R 4 -1 R 3 -2 R 4 -1 R 3 -1 R 4 -2 R
3 -1 R 3 -2 R 4 -1 R 3 -1 R 4 -2 R 3 -1 R 4 -2 R 3 -1 R 4 -2 R 3 -1 R 4 -1 R
3 -2 R 4 -1 R 3 -2 R 4 -1 R 3 -1 R 4 -2 R 3 -1 R 4 -2 R 3 -1 R 3 -1 R 4 -2 R
3 -1 R 4 -2 R 3 -1 R 4 -1 R 3 -2 R 4 -1 R 3 -2 R 4 -1 R 3 -2 R 4 -1 R 3 -1 R
4 -2 R 3 -1 R 4 -2 R 3 -1 R 4 -1 R 3 -2 R 3 -1 R 4 -2 R 3 -1 R 4 -2 R 3 -1 R
4 -1 R 3 -2 R 4 -1 R 3 -2 R 4 -1 R 3 -1 R 4 -2 R 3 -1 R 4 -2 R 3 -1 R 4 -2 R
3 -1 R 4 -1 R 3 -2 R 3 -1 R 4 -2 R 3 -1 R 4 -2 R 3 -1 R 4 -1 R 3 -2 R 4 -1 R
3 -2 R D 7044 10343 M 4 -1 R 3 -1 R 4 -2 R 3 -1 R 4 -2 R 3 -1 R 4 -2 R
3 -1 R 4 -1 R 3 -2 R 4 -1 R 3 -2 R 3 -1 R 4 -2 R 3 -1 R 4 -1 R 3 -2 R 4 -1 R
3 -2 R 4 -1 R 3 -2 R 4 -1 R 3 -1 R 4 -2 R 3 -1 R 4 -2 R 3 -1 R 4 -2 R 3 -1 R
4 -2 R 3 -1 R 3 -1 R 4 -2 R 3 -1 R 4 -2 R 3 -1 R 4 -2 R 3 -1 R 4 -1 R 3 -2 R
4 -1 R 3 -2 R 4 -1 R 3 -2 R 4 -1 R 3 -1 R 4 -2 R 3 -1 R 4 -2 R 3 -1 R 3 -2 R
4 -1 R 3 -2 R 4 -1 R 3 -1 R 4 -2 R 3 -1 R 4 -2 R 3 -1 R 4 -2 R 3 -1 R 4 -2 R
3 -1 R 4 -1 R 3 -2 R 4 -1 R 3 -2 R 4 -1 R 3 -2 R 3 -1 R 4 -2 R 3 -1 R 4 -1 R
3 -2 R 4 -1 R 3 -2 R 4 -1 R 3 -2 R 4 -1 R 3 -2 R 4 -1 R 3 -1 R 4 -2 R 3 -1 R
4 -2 R 3 -1 R 4 -2 R 3 -1 R 3 -2 R 4 -1 R 3 -2 R 4 -1 R 3 -1 R 4 -2 R 3 -1 R
4 -2 R 3 -1 R 4 -2 R 3 -1 R 4 -2 R 3 -1 R 4 -1 R 3 -2 R 4 -1 R 3 -2 R 4 -1 R
3 -2 R 3 -1 R 4 -2 R 3 -1 R 4 -2 R 3 -1 R 4 -2 R 3 -1 R 4 -1 R 3 -2 R 4 -1 R
3 -2 R 4 -1 R 3 -2 R 4 -1 R 3 -2 R 4 -1 R 3 -2 R 4 -1 R 3 -1 R 3 -2 R 4 -1 R
3 -2 R 4 -1 R 3 -2 R 4 -1 R 3 -2 R 4 -1 R 3 -2 R 4 -1 R 3 -2 R 4 -1 R 3 -2 R
4 -1 R 3 -1 R 4 -2 R 3 -1 R 4 -2 R 3 -1 R 4 -2 R 3 -1 R 3 -2 R 4 -1 R 3 -2 R
4 -1 R 3 -2 R 4 -1 R 3 -2 R 4 -1 R 3 -1 R 4 -2 R 3 -1 R 4 -2 R 3 -1 R 4 -2 R
3 -1 R 4 -2 R 3 -1 R 4 -2 R 3 -1 R 3 -2 R 4 -1 R 3 -2 R 4 -1 R 3 -2 R 4 -1 R
3 -1 R 4 -2 R 3 -1 R 4 -2 R 3 -1 R 4 -2 R 3 -1 R 4 -2 R 3 -1 R 4 -2 R 3 -1 R
4 -2 R 3 -1 R 3 -2 R 4 -1 R 3 -2 R 4 -1 R 3 -2 R 4 -1 R 3 -2 R 4 -1 R 3 -1 R
4 -2 R 3 -1 R 4 -2 R 3 -1 R 4 -2 R 3 -1 R 4 -2 R 3 -1 R 4 -2 R 3 -1 R 3 -2 R
4 -1 R 3 -2 R 4 -1 R 3 -2 R 4 -1 R 3 -2 R 4 -1 R 3 -2 R 4 -1 R 3 -2 R 4 -1 R
3 -2 R 4 -1 R 3 -1 R 4 -2 R 3 -1 R 4 -2 R 3 -1 R 3 -2 R 4 -1 R 3 -2 R 4 -1 R
3 -2 R 4 -1 R 3 -2 R 4 -1 R 3 -2 R 4 -1 R 3 -2 R 4 -1 R 3 -2 R 4 -1 R 3 -2 R
4 -1 R 3 -2 R 4 -1 R 3 -2 R 3 -1 R 4 -2 R 3 -1 R 4 -2 R 3 -1 R 4 -2 R 3 -1 R
4 -2 R 3 -1 R 4 -2 R 3 -1 R 4 -2 R 3 -1 R 4 -1 R 3 -2 R 4 -1 R 3 -2 R 4 -1 R
3 -2 R 3 -1 R 4 -2 R 3 -1 R 4 -2 R 3 -1 R 4 -2 R 3 -1 R 4 -2 R 3 -1 R 4 -2 R
3 -1 R 4 -2 R 3 -1 R 4 -2 R 3 -1 R 4 -2 R 3 -1 R 4 -2 R 3 -1 R 4 -2 R 3 -1 R
3 -2 R 4 -1 R 3 -2 R 4 -1 R 3 -2 R 4 -1 R 3 -2 R 4 -1 R 3 -2 R 4 -1 R 3 -2 R
4 -1 R 3 -2 R 4 -1 R 3 -2 R 4 -1 R 3 -2 R 4 -1 R 3 -2 R 3 -1 R 4 -2 R 3 -1 R
4 -2 R 3 -1 R 4 -2 R 3 -1 R 4 -2 R 3 -1 R 4 -2 R 3 -1 R 4 -2 R 3 -1 R 4 -2 R
3 -1 R 4 -2 R 3 -1 R 4 -2 R 3 -1 R 3 -2 R 4 -1 R 3 -2 R 4 -1 R 3 -2 R 4 -1 R
3 -2 R 4 -1 R 3 -2 R 4 -1 R 3 -2 R 4 -1 R 3 -2 R 4 -1 R 3 -1 R 4 -2 R 3 -1 R
4 -2 R 3 -1 R 3 -2 R 4 -1 R 3 -2 R 4 -1 R 3 -2 R 4 -1 R 3 -2 R 4 -1 R 3 -2 R
4 -1 R 3 -2 R 4 -1 R 3 -2 R 4 -1 R 3 -2 R 4 -1 R 3 -2 R 4 -1 R 3 -2 R 3 -1 R
4 -2 R 3 -1 R 4 -2 R 3 -1 R 4 -2 R 3 -1 R 4 -2 R 3 -1 R 4 -2 R 3 -1 R 4 -2 R
3 -1 R 4 -2 R 3 -1 R 4 -2 R 3 -1 R 4 -2 R 3 -1 R 3 -2 R 4 -1 R 3 -2 R 4 -1 R
3 -2 R 4 -1 R 3 -2 R 4 -1 R 3 -2 R 4 -1 R 3 -2 R 4 -1 R 3 -2 R 4 -1 R 3 -2 R
4 -1 R 3 -2 R 4 -1 R 3 -2 R 3 -1 R 4 -2 R 3 -1 R 4 -2 R 3 -1 R 4 -2 R 3 -1 R
4 -2 R 3 -1 R 4 -2 R 3 -1 R 4 -2 R 3 -1 R 4 -2 R 3 -1 R 4 -2 R 3 -1 R 4 -2 R
3 -1 R 3 -2 R 4 -1 R 3 -2 R 4 -1 R 3 -2 R 4 -1 R 3 -2 R 4 -1 R 3 -2 R 4 -1 R
3 -2 R 4 -1 R 3 -2 R 4 -1 R 3 -2 R 4 -1 R 3 -2 R 4 -1 R 3 -2 R 4 -1 R 3 -2 R
3 -1 R 4 -2 R 3 -1 R 4 -2 R 3 -1 R 4 -2 R 3 -1 R 4 -2 R 3 -1 R 4 -2 R 3 -1 R
4 -2 R 3 -1 R 4 -2 R 3 -1 R 4 -2 R 3 -1 R 4 -2 R 3 -1 R 3 -2 R 4 -1 R 3 -2 R
4 -1 R 3 -2 R 4 -1 R 3 -2 R 4 -1 R 3 -2 R 4 -1 R 3 -2 R 4 -1 R 3 -2 R 4 -1 R
3 -2 R 4 -1 R 3 -2 R 4 -1 R 3 -2 R 3 -1 R 4 -2 R 3 -1 R 4 -2 R 3 -1 R 4 -2 R
3 -1 R 4 -2 R 3 -1 R 4 -2 R 3 -1 R 4 -2 R 3 -1 R 4 -2 R 3 -1 R 4 -2 R 3 -1 R
4 -2 R 3 -1 R 3 -2 R 4 -1 R 3 -2 R 4 -1 R 3 -2 R 4 -1 R 3 -2 R 4 -1 R 3 -2 R
4 -1 R 3 -2 R 4 -1 R 3 -2 R 4 -1 R 3 -2 R 4 -1 R 3 -2 R 4 -1 R 3 -2 R 3 -1 R
4 -2 R 3 -1 R 4 -2 R 3 -1 R 4 -2 R 3 -1 R 4 -2 R 3 -1 R 4 -2 R 3 -1 R 4 -2 R
3 -1 R 4 -2 R 3 -1 R 4 -2 R 3 -1 R 4 -2 R 3 -1 R 3 -2 R 4 -1 R 3 -2 R 4 -1 R
3 -2 R 4 -1 R 3 -2 R 4 -1 R 3 -2 R 4 -1 R 3 -2 R 4 -1 R 3 -2 R 4 -1 R 3 -2 R
4 -1 R 3 -2 R 4 -1 R 3 -2 R 3 -1 R 4 -2 R 3 -1 R 4 -2 R 3 -1 R 4 -1 R 3 -2 R
4 -1 R 3 -2 R 4 -1 R 3 -2 R 4 -1 R 3 -2 R 4 -1 R 3 -2 R 4 -1 R 3 -2 R 4 -1 R
3 -2 R 4 -1 R 3 -2 R 3 -1 R 4 -2 R 3 -1 R 4 -2 R 3 -1 R 4 -2 R 3 -1 R 4 -2 R
3 -1 R 4 -2 R 3 -1 R 4 -2 R 3 -1 R 4 -2 R 3 -1 R 4 -2 R 3 -1 R 4 -2 R 3 -1 R
3 -2 R 4 -1 R 3 -2 R 4 -1 R 3 -2 R 4 -1 R 3 -2 R 4 -1 R 3 -2 R 4 -1 R 3 -1 R
4 -2 R 3 -1 R 4 -2 R 3 -1 R 4 -2 R 3 -1 R 4 -2 R 3 -1 R 3 -2 R 4 -1 R 3 -2 R
4 -1 R 3 -2 R 4 -1 R 3 -2 R 4 -1 R 3 -2 R 4 -1 R 3 -2 R 4 -1 R 3 -2 R 4 -1 R
3 -2 R 4 -1 R 3 -2 R 4 -1 R 3 -1 R 3 -2 R 4 -1 R 3 -2 R 4 -1 R 3 -2 R 4 -1 R
3 -2 R 4 -1 R 3 -2 R 4 -1 R 3 -2 R 4 -1 R 3 -2 R 4 -1 R 3 -2 R 4 -1 R 3 -2 R
4 -1 R 3 -2 R 3 -1 R 4 -1 R 3 -2 R 4 -1 R 3 -2 R 4 -1 R 3 -2 R 4 -1 R 3 -2 R
4 -1 R 3 -2 R 4 -1 R 3 -2 R 4 -1 R 3 -2 R 4 -1 R 3 -2 R 4 -1 R 3 -1 R 3 -2 R
4 -1 R 3 -2 R 4 -1 R 3 -2 R 4 -1 R 3 -2 R 4 -1 R 3 -2 R 4 -1 R 3 -2 R 4 -1 R
3 -2 R 4 -1 R 3 -1 R 4 -2 R 3 -1 R 4 -2 R 3 -1 R 3 -2 R 4 -1 R 3 -2 R 4 -1 R
3 -2 R 4 -1 R 3 -2 R 4 -1 R 3 -1 R 4 -2 R 3 -1 R 4 -2 R 3 -1 R 4 -2 R 3 -1 R
4 -2 R 3 -1 R 4 -2 R 3 -1 R 4 -2 R 3 -1 R 3 -1 R 4 -2 R 3 -1 R 4 -2 R 3 -1 R
4 -2 R 3 -1 R 4 -2 R 3 -1 R 4 -1 R 3 -2 R 4 -1 R 3 -2 R 4 -1 R 3 -2 R 4 -1 R
3 -2 R 4 -1 R 3 -2 R 3 -1 R 4 -1 R 3 -2 R 4 -1 R 3 -2 R 4 -1 R 3 -2 R 4 -1 R
3 -2 R 4 -1 R 3 -1 R 4 -2 R 3 -1 R 4 -2 R 3 -1 R 4 -2 R 3 -1 R 4 -1 R 3 -2 R
3 -1 R 4 -2 R 3 -1 R 4 -2 R 3 -1 R 4 -2 R D 9650 9235 M 3 -1 R 4 -1 R 3 -2 R
4 -1 R 3 -2 R 4 -1 R 3 -2 R 4 -1 R 3 -1 R 4 -2 R 3 -1 R 4 -2 R 3 -1 R 3 -2 R
4 -1 R 3 -1 R 4 -2 R 3 -1 R 4 -2 R 3 -1 R 4 -2 R 3 -1 R 4 -1 R 3 -2 R 4 -1 R
3 -2 R 4 -1 R 3 -2 R 4 -1 R 3 -1 R 4 -2 R 3 -1 R 3 -2 R 4 -1 R 3 -2 R 4 -1 R
3 -1 R 4 -2 R 3 -1 R 4 -2 R 3 -1 R 4 -1 R 3 -2 R 4 -1 R 3 -2 R 4 -1 R 3 -2 R
4 -1 R 3 -1 R 4 -2 R 3 -1 R 3 -2 R 4 -1 R 3 -1 R 4 -2 R 3 -1 R 4 -2 R 3 -1 R
4 -1 R 3 -2 R 4 -1 R 3 -2 R 4 -1 R 3 -1 R 4 -2 R 3 -1 R 4 -2 R 3 -1 R 4 -1 R
3 -2 R 3 -1 R 4 -2 R 3 -1 R 4 -2 R 3 -1 R 4 -1 R 3 -2 R 4 -1 R 3 -1 R 4 -2 R
3 -1 R 4 -2 R 3 -1 R 4 -1 R 3 -2 R 4 -1 R 3 -1 R 4 -2 R 3 -1 R 3 -2 R 4 -1 R
3 -2 R 4 -1 R 3 -1 R 4 -2 R 3 -1 R 4 -2 R 3 -1 R 4 -1 R 3 -2 R 4 -1 R 3 -1 R
4 -2 R 3 -1 R 4 -2 R 3 -1 R 4 -1 R 3 -2 R 4 -1 R 3 -2 R 3 -1 R 4 -1 R 3 -2 R
4 -1 R 3 -1 R 4 -2 R 3 -1 R 4 -2 R 3 -1 R 4 -1 R 3 -2 R 4 -1 R 3 -1 R 4 -2 R
3 -1 R 4 -2 R 3 -1 R 4 -1 R 3 -2 R 3 -1 R 4 -1 R 3 -2 R 4 -1 R 3 -2 R 4 -1 R
3 -1 R 4 -2 R 3 -1 R 4 -1 R 3 -2 R 4 -1 R 3 -1 R 4 -2 R 3 -1 R 4 -2 R 3 -1 R
4 -1 R 3 -2 R 3 -1 R 4 -1 R 3 -2 R 4 -1 R 3 -1 R 4 -2 R 3 -1 R 4 -2 R 3 -1 R
4 -1 R 3 -2 R 4 -1 R 3 -1 R 4 -2 R 3 -1 R 4 -1 R 3 -2 R 4 -1 R 3 -1 R 3 -2 R
4 -1 R 3 -1 R 4 -2 R 3 -1 R 4 -2 R 3 -1 R 4 -1 R 3 -2 R 4 -1 R 3 -1 R 4 -2 R
3 -1 R 4 -1 R 3 -2 R 4 -1 R 3 -1 R 4 -2 R 3 -1 R 3 -1 R 4 -2 R 3 -1 R 4 -1 R
3 -2 R 4 -1 R 3 -1 R 4 -2 R 3 -1 R 4 -1 R 3 -2 R 4 -1 R 3 -1 R 4 -2 R 3 -1 R
4 -1 R 3 -2 R 4 -1 R 3 -1 R 3 -2 R 4 -1 R 3 -1 R 4 -2 R 3 -1 R 4 -1 R 3 -2 R
4 -1 R 3 -1 R 4 -2 R 3 -1 R 4 -1 R 3 -2 R 4 -1 R 3 -1 R 4 -2 R 3 -1 R 4 -1 R
3 -2 R 3 -1 R 4 -1 R 3 -2 R 4 -1 R 3 -1 R 4 -1 R 3 -2 R 4 -1 R 3 -1 R 4 -2 R
3 -1 R 4 -1 R 3 -2 R 4 -1 R 3 -1 R 4 -2 R 3 -1 R 4 -1 R 3 -2 R 4 -1 R 3 -1 R
3 -2 R 4 -1 R 3 -1 R 4 -1 R 3 -2 R 4 -1 R 3 -1 R 4 -2 R 3 -1 R 4 -1 R 3 -2 R
4 -1 R 3 -1 R 4 -1 R 3 -2 R 4 -1 R 3 -1 R 4 -2 R 3 -1 R 3 -1 R 4 -2 R 3 -1 R
4 -1 R 3 -2 R 4 -1 R 3 -1 R 4 -1 R 3 -2 R 4 -1 R 3 -1 R 4 -2 R 3 -1 R 4 -1 R
3 -1 R 4 -2 R 3 -1 R 4 -1 R 3 -2 R 3 -1 R 4 -1 R 3 -2 R 4 -1 R 3 -1 R 4 -1 R
3 -2 R 4 -1 R 3 -1 R 4 -2 R 3 -1 R 4 -1 R 3 -1 R 4 -2 R 3 -1 R 4 -1 R 3 -2 R
4 -1 R 3 -1 R 3 -1 R 4 -2 R 3 -1 R 4 -1 R 3 -1 R 4 -2 R 3 -1 R 4 -1 R 3 -2 R
4 -1 R 3 -1 R 4 -1 R 3 -2 R 4 -1 R 3 -1 R 4 -1 R 3 -2 R 4 -1 R 3 -1 R 3 -2 R
4 -1 R 3 -1 R 4 -1 R 3 -2 R 4 -1 R 3 -1 R 4 -1 R 3 -2 R 4 -1 R 3 -1 R 4 -2 R
3 -1 R 4 -1 R 3 -1 R 4 -2 R 3 -1 R 4 -1 R 3 -1 R 3 -2 R 4 -1 R 3 -1 R 4 -1 R
3 -2 R 4 -1 R 3 -1 R 4 -1 R 3 -2 R 4 -1 R 3 -1 R 4 -1 R 3 -2 R 4 -1 R 3 -1 R
4 -1 R 3 -2 R 4 -1 R 3 -1 R 3 -1 R 4 -2 R 3 -1 R 4 -1 R 3 -1 R 4 -2 R 3 -1 R
4 -1 R 3 -1 R 4 -2 R 3 -1 R 4 -1 R 3 -1 R 4 -2 R 3 -1 R 4 -1 R 3 -1 R 4 -2 R
3 -1 R 4 -1 R 3 -1 R 3 -2 R 4 -1 R 3 -1 R 4 -1 R 3 -2 R 4 -1 R 3 -1 R 4 -1 R
3 -1 R 4 -2 R 3 -1 R 4 -1 R 3 -1 R 4 -2 R 3 -1 R 4 -1 R 3 -1 R 4 -2 R 3 -1 R
3 -1 R 4 -1 R 3 -1 R 4 -2 R 3 -1 R 4 -1 R 3 -1 R 4 -2 R 3 -1 R 4 -1 R 3 -1 R
4 -1 R 3 -2 R 4 -1 R 3 -1 R 4 -1 R 3 -2 R 4 -1 R 3 -1 R 3 -1 R 4 -1 R 3 -2 R
4 -1 R 3 -1 R 4 -1 R 3 -2 R 4 -1 R 3 -1 R 4 -1 R 3 -1 R 4 -2 R 3 -1 R 4 -1 R
3 -1 R 4 -1 R 3 -2 R 4 -1 R 3 -1 R 3 -1 R 4 -1 R 3 -2 R 4 -1 R 3 -1 R 4 -1 R
3 -1 R 4 -2 R 3 -1 R 4 -1 R 3 -1 R 4 -1 R 3 -2 R 4 -1 R 3 -1 R 4 -1 R 3 -1 R
4 -2 R 3 -1 R 3 -1 R 4 -1 R 3 -1 R 4 -2 R 3 -1 R 4 -1 R 3 -1 R 4 -1 R 3 -2 R
4 -1 R 3 -1 R 4 -1 R 3 -1 R 4 -2 R 3 -1 R 4 -1 R 3 -1 R 4 -1 R 3 -1 R 3 -2 R
4 -1 R 3 -1 R 4 -1 R 3 -1 R 4 -2 R 3 -1 R 4 -1 R 3 -1 R 4 -1 R 3 -1 R 4 -2 R
3 -1 R 4 -1 R 3 -1 R 4 -1 R 3 -1 R 4 -2 R 3 -1 R 3 -1 R 4 -1 R 3 -1 R 4 -2 R
3 -1 R 4 -1 R 3 -1 R 4 -1 R 3 -1 R 4 -2 R 3 -1 R 4 -1 R 3 -1 R 4 -1 R 3 -1 R
4 -2 R 3 -1 R 4 -1 R 3 -1 R 4 -1 R 3 -1 R 3 -1 R 4 -2 R 3 -1 R 4 -1 R 3 -1 R
4 -1 R 3 -1 R 4 -2 R 3 -1 R 4 -1 R 3 -1 R 4 -1 R 3 -1 R 4 -1 R 3 -2 R 4 -1 R
3 -1 R 4 -1 R 3 -1 R 3 -1 R 4 -2 R 3 -1 R 4 -1 R 3 -1 R 4 -1 R 3 -1 R 4 -1 R
3 -2 R 4 -1 R 3 -1 R 4 -1 R 3 -1 R 4 -1 R 3 -1 R 4 -2 R 3 -1 R 4 -1 R 3 -1 R
3 -1 R 4 -1 R 3 -1 R 4 -1 R 3 -2 R 4 -1 R 3 -1 R 4 -1 R 3 -1 R 4 -1 R 3 -1 R
4 -2 R 3 -1 R 4 -1 R 3 -1 R 4 -1 R 3 -1 R 4 -1 R 3 -1 R 3 -2 R 4 -1 R 3 -1 R
4 -1 R 3 -1 R 4 -1 R 3 -1 R 4 -1 R 3 -2 R 4 -1 R 3 -1 R 4 -1 R 3 -1 R 4 -1 R
3 -1 R 4 -1 R 3 -1 R 4 -2 R 3 -1 R 3 -1 R 4 -1 R 3 -1 R 4 -1 R 3 -1 R 4 -1 R
3 -1 R 4 -2 R 3 -1 R 4 -2 R 3 0 R 4 -1 R 3 -1 R 4 -1 R 3 -1 R 4 -1 R 3 -2 R
4 -1 R 3 -1 R 3 -1 R 4 -1 R 3 -1 R 4 -1 R 3 -1 R 4 -1 R 3 -1 R 4 -2 R 3 -1 R
4 -1 R 3 -1 R 4 -1 R 3 -1 R 4 -1 R 3 -1 R 4 -1 R 3 -1 R 4 -2 R 3 -1 R 3 -1 R
4 -1 R 3 -1 R 4 -1 R 3 -1 R 4 -1 R 3 -1 R 4 -1 R 3 -1 R 4 -2 R 3 -1 R 4 -1 R
3 -1 R 4 -1 R 3 -1 R 4 -1 R 3 -1 R 4 -1 R 3 -1 R 3 -1 R 4 -1 R 3 -2 R 4 -1 R
3 -1 R 4 -1 R 3 -1 R 4 -1 R 3 -1 R 4 -1 R 3 -1 R 4 -1 R 3 -1 R 4 -1 R 3 -1 R
4 -2 R 3 -1 R 4 -1 R 3 -1 R 4 -1 R 3 -1 R 3 -1 R 4 -1 R 3 -1 R 4 -1 R 3 -1 R
4 -1 R 3 -1 R 4 -1 R 3 -2 R 4 -1 R 3 -1 R 4 -1 R 3 -3 R 4 1 R 3 -1 R 4 -1 R
3 -1 R 4 -1 R 3 -1 R 3 -1 R 4 -1 R 3 -1 R 4 -1 R 3 -1 R 4 -2 R 3 -1 R 4 -1 R
3 -1 R 4 -1 R 3 -1 R 4 -1 R 3 -1 R 4 -1 R 3 -1 R 4 -1 R 3 -1 R 4 -1 R 3 -1 R
3 -1 R 4 -1 R 3 -1 R 4 -1 R 3 -2 R 4 -1 R 3 -1 R 4 -1 R 3 -1 R 4 -1 R 3 -1 R
4 -1 R 3 -1 R 4 -1 R 3 -1 R 4 -1 R 3 -1 R 4 -1 R 3 -1 R 3 -1 R 4 -1 R 3 -1 R
4 -1 R 3 -1 R 4 -1 R 3 -1 R 4 -2 R 3 -1 R 4 -1 R 3 -1 R 4 -1 R 3 -1 R 4 -1 R
3 -1 R 4 -1 R 3 -1 R 4 -1 R 3 -1 R 3 -1 R 4 -1 R 3 -1 R 4 -1 R 3 -1 R D
12255 8308 M 4 -1 R 3 -1 R 4 -1 R 3 -1 R 4 -1 R 3 -1 R 4 -1 R 3 -1 R 4 -1 R
3 -1 R 4 -2 R 3 -1 R 4 -1 R 3 -1 R 3 -1 R 4 -1 R 3 -1 R 4 -5 R 3 3 R 4 -1 R
3 -1 R 4 -1 R 3 -1 R 4 -1 R 3 -1 R 4 -1 R 3 -1 R 4 -1 R 3 -1 R 4 -1 R 3 -1 R
4 -1 R 3 -1 R 3 -1 R 4 -1 R 3 -1 R 4 -1 R 3 -1 R 4 -1 R 3 -1 R 4 -1 R 3 -1 R
4 -1 R 3 -1 R 4 -1 R 3 -1 R 4 -2 R 3 -1 R 4 -1 R 3 -1 R 4 -1 R 3 -1 R 4 -1 R
3 -1 R 3 -1 R 4 -1 R 3 -1 R 4 -1 R 3 -1 R 4 -1 R 3 -1 R 4 -1 R 3 -1 R 4 -1 R
3 -1 R 4 -1 R 3 -1 R 4 -1 R 3 -1 R 4 -1 R 3 -1 R 4 -1 R 3 -1 R 3 -1 R 4 -1 R
3 -1 R 4 -1 R 3 -1 R 4 -1 R 3 -1 R 4 -1 R 3 -1 R 4 -1 R 3 -1 R 4 -1 R 3 -1 R
4 -1 R 3 -1 R 4 -1 R 3 -1 R 4 -1 R 3 -1 R 3 -1 R 4 -1 R 3 -1 R 4 -1 R 3 -1 R
4 -1 R 3 -1 R 4 -1 R 3 -1 R 4 -1 R 3 -1 R 4 -1 R 3 -1 R 4 -1 R 3 -1 R 4 -1 R
3 -2 R 4 -1 R 3 -1 R 3 -1 R 4 -1 R 3 -1 R 4 -1 R 3 -1 R 4 -1 R 3 -1 R 4 -1 R
3 -1 R 4 -1 R 3 -1 R 4 -1 R 3 -1 R 4 -1 R 3 -1 R 4 -1 R 3 -1 R 4 -1 R 3 -1 R
3 -1 R 4 -1 R 3 -1 R 4 -1 R 3 -1 R 4 -1 R 3 -1 R 4 -1 R 3 -1 R 4 -1 R 3 -1 R
4 -1 R 3 -1 R 4 -1 R 3 -1 R 4 -1 R 3 -1 R 4 -1 R 3 -1 R 3 -1 R 4 -1 R 3 -1 R
4 -1 R 3 -1 R 4 -1 R 3 -1 R 4 -1 R 3 -1 R 4 -1 R 3 -1 R 4 -1 R 3 -1 R 4 -1 R
3 -1 R 4 -1 R 3 -1 R 4 -1 R 3 -1 R 3 -1 R 4 -1 R 3 -1 R 4 -1 R 3 -1 R 4 -1 R
3 -1 R 4 -1 R 3 -1 R 4 -1 R 3 -1 R 4 -1 R 3 -1 R 4 -1 R 3 -1 R 4 -1 R 3 -1 R
4 -1 R 3 -1 R 4 -1 R 3 -1 R 3 -1 R 4 -1 R 3 -1 R 4 -1 R 3 -1 R 4 -1 R 3 -1 R
4 -1 R 3 -2 R 4 -1 R 3 -1 R 4 -1 R 3 -1 R 4 -1 R 3 -1 R 4 -1 R 3 -1 R 4 -1 R
3 -1 R 3 -1 R 4 -1 R 3 -1 R 4 -1 R 3 -1 R 4 -1 R 3 -1 R 4 -1 R 3 -1 R 4 -1 R
3 -1 R 4 -1 R 3 -1 R 4 -1 R 3 -1 R 4 -1 R 3 -1 R 4 -1 R 3 -1 R 3 -1 R 4 -1 R
3 -1 R 4 -1 R 3 -1 R 4 -1 R 3 -1 R 4 -1 R 3 -1 R 4 -1 R 3 -1 R 4 -1 R 3 -1 R
4 -1 R 3 -1 R 4 -1 R 3 -1 R 4 -1 R 3 -1 R 3 -1 R 4 -1 R 3 -1 R 4 -1 R 3 -1 R
4 -1 R 3 -1 R 4 -1 R 3 -1 R 4 -2 R 3 -1 R 4 -1 R 3 -1 R 4 -1 R 3 -1 R 4 -1 R
3 -1 R 4 -1 R 3 -1 R 3 -1 R 4 -1 R 3 -1 R 4 -1 R 3 -1 R 4 -1 R 3 -1 R 4 -1 R
3 -1 R 4 -1 R 3 -1 R 4 -1 R 3 -1 R 4 -1 R 3 -1 R 4 -1 R 3 -1 R 4 -1 R 3 -1 R
3 -1 R 4 -1 R 3 -1 R 4 -1 R 3 -1 R 4 -1 R 3 -1 R 4 -1 R 3 -1 R 4 -1 R 3 -2 R
4 -1 R 3 -1 R 4 -1 R 3 -1 R 4 -1 R 3 -1 R 4 -1 R 3 -1 R 3 -1 R 4 -1 R 3 -1 R
4 -1 R 3 -1 R 4 -1 R 3 -1 R 4 -1 R 3 -1 R 4 -1 R 3 -1 R 4 -1 R 3 -1 R 4 -1 R
3 -1 R 4 -1 R 3 -1 R 4 -1 R 3 -1 R 3 -1 R 4 -1 R 3 -1 R 4 -2 R 3 -1 R 4 -1 R
3 -1 R 4 -1 R 3 -1 R 4 -1 R 3 -1 R 4 -1 R 3 -1 R 4 -1 R 3 -1 R 4 -1 R 3 -1 R
4 -1 R 3 -1 R 4 -1 R 3 -1 R 3 -1 R 4 -1 R 3 -1 R 4 -1 R 3 -1 R 4 -1 R 3 -1 R
4 -1 R 3 -1 R 4 -1 R 3 -2 R 4 -1 R 3 -1 R 4 -1 R 3 -1 R 4 -1 R 3 -1 R 4 -1 R
3 -1 R 3 -1 R 4 -1 R 3 -1 R 4 -1 R 3 -1 R 4 -1 R 3 -1 R 4 -1 R 3 -1 R 4 -1 R
3 -1 R 4 -1 R 3 -1 R 4 -1 R 3 -1 R 4 -1 R 3 -1 R 4 -2 R 3 -1 R 3 -1 R 4 -1 R
3 -1 R 4 -1 R 3 -1 R 4 -1 R 3 -1 R 4 -1 R 3 -1 R 4 -1 R 3 -1 R 4 -1 R 3 -1 R
4 -1 R 3 -1 R 4 -1 R 3 -1 R 4 -1 R 3 -1 R 3 -1 R 4 -1 R 3 -1 R 4 -1 R 3 -2 R
4 -1 R 3 -1 R 4 -1 R 3 -1 R 4 -1 R 3 -1 R 4 -1 R 3 -1 R 4 -1 R 3 -1 R 4 -1 R
3 -1 R 4 -1 R 3 -1 R 3 -1 R 4 -1 R 3 -1 R 4 -1 R 3 -1 R 4 -1 R 3 -1 R
4 -19 R 3 17 R 4 -1 R 3 -2 R 4 -1 R 3 -1 R 4 -1 R 3 -1 R 4 -1 R 3 -1 R
4 -1 R 3 -1 R 3 -1 R 4 -1 R 3 -1 R 4 -1 R 3 -1 R 4 -1 R 3 -1 R 4 -1 R 3 -1 R
4 -1 R 3 -1 R 4 -1 R 3 -1 R 4 -1 R 3 -1 R 4 -1 R 3 -1 R 4 -2 R 3 -1 R 3 -1 R
4 -1 R 3 -1 R 4 -1 R 3 -1 R 4 -1 R 3 -1 R 4 -1 R 3 -1 R 4 -1 R 3 -1 R 4 -1 R
3 -1 R 4 -1 R 3 -1 R 4 -1 R 3 -1 R 4 -1 R 3 -1 R 4 -1 R 3 -1 R 3 -1 R 4 -1 R
3 -1 R 4 -1 R 3 -1 R 4 -2 R 3 -1 R 4 -1 R 3 -1 R 4 -1 R 3 -1 R 4 -1 R 3 -1 R
4 -1 R 3 -1 R 4 -1 R 3 -1 R 4 -1 R 3 -1 R 3 -1 R 4 -1 R 3 -1 R 4 -1 R 3 -1 R
4 -1 R 3 -1 R 4 -1 R 3 -1 R 4 -1 R 3 -1 R 4 -1 R 3 -1 R 4 -1 R 3 -1 R 4 -1 R
3 -2 R 4 -1 R 3 -1 R 3 -1 R 4 -1 R 3 -1 R 4 -1 R 3 -1 R 4 -1 R 3 -1 R 4 -1 R
3 -1 R 4 -1 R 3 -1 R 4 -1 R 3 -1 R 4 -1 R 3 -1 R 4 -1 R 3 -1 R 4 -1 R 3 -1 R
3 -1 R 4 -1 R 3 -1 R 4 -1 R 3 -1 R 4 -1 R 3 -1 R 4 -1 R 3 -1 R 4 -2 R 3 -1 R
4 -1 R 3 -1 R 4 -1 R 3 -1 R 4 -1 R 3 -1 R 4 -1 R 3 -1 R 3 -1 R 4 -1 R 3 -1 R
4 -1 R 3 -1 R 4 -1 R 3 -1 R 4 -1 R 3 -1 R 4 -1 R 3 -1 R 4 -1 R 3 -1 R 4 -1 R
3 -1 R 4 -1 R 3 -1 R 4 -1 R 3 -1 R 3 -2 R 4 -1 R 3 -1 R 4 -1 R 3 -1 R 4 -1 R
3 -1 R 4 -1 R 3 -1 R 4 -1 R 3 -1 R 4 -1 R 3 -1 R 4 -1 R 3 -1 R 4 -1 R 3 -1 R
4 -1 R 3 -1 R 3 -1 R 4 -1 R 3 -1 R 4 -1 R 3 -2 R 4 -1 R 3 -1 R 4 -1 R 3 -1 R
4 -1 R 3 -1 R 4 -1 R 3 -1 R 4 -1 R 3 -1 R 4 -1 R 3 -1 R 4 -1 R 3 -1 R 4 -1 R
3 -1 R 3 -2 R 4 -1 R 3 -1 R 4 -1 R 3 -1 R 4 -1 R 3 -1 R 4 -1 R 3 -1 R 4 -1 R
3 -1 R 4 -1 R 3 -1 R 4 -1 R 3 -2 R 4 -1 R 3 -1 R 4 -1 R 3 -1 R 3 -1 R 4 -1 R
3 -1 R 4 -1 R 3 -1 R 4 -1 R 3 -2 R 4 -1 R 3 -1 R 4 -1 R 3 -1 R 4 -1 R 3 -1 R
4 -1 R 3 -1 R 4 -1 R 3 -2 R 4 -1 R 3 -1 R 3 -1 R 4 -1 R 3 -1 R 4 -1 R 3 -1 R
4 -2 R 3 -1 R 4 -1 R 3 -1 R 4 -1 R 3 -1 R 4 -1 R 3 -2 R 4 -1 R 3 -1 R 4 -1 R
3 -1 R 4 -1 R 3 -1 R 3 -2 R 4 -1 R 3 -1 R 4 -1 R 3 -1 R 4 -1 R 3 -2 R 4 -1 R
3 -1 R 4 -1 R 3 -1 R 4 -2 R 3 -1 R 4 -1 R 3 -1 R 4 -1 R 3 -1 R 4 -2 R 3 -1 R
3 -1 R 4 -1 R 3 -2 R 4 -1 R 3 -1 R 4 -1 R 3 -1 R 4 -2 R 3 -1 R 4 -1 R 3 -1 R
4 -2 R 3 -1 R 4 -1 R 3 -1 R 4 -2 R 3 -1 R 4 -1 R 3 -1 R 3 -2 R 4 -1 R 3 -1 R
4 -2 R 3 -1 R 4 -1 R 3 -2 R 4 -1 R 3 -1 R 4 -1 R 3 -2 R 4 -1 R 3 -1 R 4 -2 R
3 -1 R 4 -1 R 3 -2 R 4 -1 R 3 -1 R 3 -2 R 4 -1 R 3 -2 R 4 -1 R 3 -1 R 4 -2 R
3 -1 R 4 -1 R 3 -2 R 4 -1 R 3 -2 R 4 -1 R 3 -2 R 4 -1 R 3 -1 R 4 -2 R 3 -1 R
4 -2 R 3 -1 R 3 -2 R 4 -1 R 3 -2 R 4 -1 R D 14861 7511 M 3 -1 R 4 -2 R
3 -1 R 4 -2 R 3 -1 R 4 -2 R 3 -1 R 4 -2 R 3 -1 R 4 -2 R 3 -2 R 4 -1 R 3 -2 R
4 -1 R 3 -2 R 4 -1 R 3 -2 R 3 -2 R 4 -1 R 3 -2 R 4 -1 R 3 -2 R 4 -2 R 3 -1 R
4 -2 R 3 -1 R 4 -2 R 3 -2 R 4 -1 R 3 -2 R 4 -2 R 3 -1 R 4 -2 R 3 -2 R 4 -1 R
3 -2 R 3 -2 R 4 -2 R 3 -1 R 4 -2 R 3 -2 R 4 -2 R 3 -1 R 4 -2 R 3 -2 R 4 -2 R
3 -2 R 4 -1 R 3 -2 R 4 -2 R 3 -2 R 4 -2 R 3 -1 R 4 -2 R 3 -10 R 3 6 R 4 -2 R
3 -2 R 4 -2 R 3 -2 R 4 -2 R 3 -2 R 4 -1 R 3 -2 R 4 -2 R 3 -2 R 4 -2 R 3 -2 R
4 -2 R 3 -2 R 4 -2 R 3 -2 R 4 -2 R 3 -2 R 3 -2 R 4 -3 R 3 -2 R 4 -2 R 3 -2 R
4 -2 R 3 -2 R 4 -2 R 3 -2 R 4 -2 R 3 -3 R 4 -2 R 3 -2 R 4 -2 R 3 -2 R 4 -2 R
3 -3 R 4 -2 R 3 -9 R 3 5 R 4 -3 R 3 -2 R 4 -2 R 3 -3 R 4 -2 R 3 -2 R 4 -2 R
3 -3 R 4 -2 R 3 -3 R 4 -2 R 3 -2 R 4 -3 R 3 -2 R 4 -3 R 3 -2 R 4 -2 R 3 -3 R
3 -2 R 4 -3 R 3 -2 R 4 -3 R 3 -2 R 4 -3 R 3 -2 R 4 -3 R 3 -3 R 4 -2 R 3 -3 R
4 -2 R 3 -3 R 4 -3 R 3 -2 R 4 -3 R 3 -3 R 4 -2 R 3 -3 R 3 -3 R 4 -3 R 3 -2 R
4 -8 R 3 2 R 4 -3 R 3 -2 R 4 -3 R 3 -3 R 4 -3 R 3 -3 R 4 -3 R 3 -3 R 4 -2 R
3 -3 R 4 -3 R 3 -3 R 4 -3 R 3 -3 R 4 -3 R 3 -3 R 3 -3 R 4 -3 R 3 -3 R 4 -3 R
3 -3 R 4 -3 R 3 -4 R 4 -3 R 3 -3 R 4 -3 R 3 -3 R 4 -8 R 3 1 R 4 -3 R 3 -3 R
4 -3 R 3 -4 R 4 -3 R 3 -3 R 3 -3 R 4 -4 R 3 -3 R 4 -3 R 3 -4 R 4 -3 R 3 -4 R
4 -3 R 3 -4 R 4 -3 R 3 -3 R 4 -4 R 3 -3 R 4 -4 R 3 -4 R 4 -3 R 3 -4 R 4 -3 R
3 -4 R 3 -4 R 4 -3 R 3 -4 R 4 -4 R 3 -3 R 4 -4 R 3 -4 R 4 -3 R 3 -4 R 4 -4 R
3 -4 R 4 -4 R 3 -3 R 4 -4 R 3 -4 R 4 -4 R 3 -4 R 4 -4 R 3 -4 R 3 -4 R 4 -4 R
3 -4 R 4 -4 R 3 -4 R 4 -4 R 3 -4 R 4 -4 R 3 -4 R 4 -4 R 3 -5 R 4 -4 R 3 -4 R
4 -4 R 3 -4 R 4 -5 R 3 -4 R 4 -4 R 3 -5 R 3 -4 R 4 -4 R 3 -5 R 4 -4 R 3 -4 R
4 -5 R 3 -4 R 4 -5 R 3 -4 R 4 -5 R 3 -4 R 4 -5 R 3 -4 R 4 -5 R 3 -5 R 4 -4 R
3 -5 R 4 -5 R 3 -4 R 3 -5 R 4 -5 R 3 -4 R 4 -5 R 3 -5 R 4 -5 R 3 -5 R 4 -5 R
3 -4 R 4 -5 R 3 -5 R 4 -5 R 3 -5 R 4 -5 R 3 -5 R 4 -5 R 3 -5 R 4 -5 R 3 -5 R
3 -6 R 4 -5 R 3 -5 R 4 -5 R 3 -5 R 4 -5 R 3 -6 R 4 -5 R 3 -5 R 4 -6 R 3 -5 R
4 -5 R 3 -6 R 4 -5 R 3 -6 R 4 -5 R 3 -5 R 4 -6 R 3 -5 R 4 -6 R 3 -6 R 3 -5 R
4 -6 R 3 -5 R 4 -6 R 3 -6 R 4 -5 R 3 -6 R 4 -6 R 3 -6 R 4 -6 R 3 -5 R 4 -6 R
3 -6 R 4 -6 R 3 -6 R 4 -6 R 3 -6 R 4 -6 R 3 -6 R 3 -6 R 4 -6 R 3 -6 R 4 -6 R
3 -6 R 4 -6 R 3 -6 R 4 -7 R 3 -6 R 4 -6 R 3 -6 R 4 -7 R 3 -6 R 4 -6 R 3 -7 R
4 -6 R 3 -7 R 4 -6 R 3 -6 R 3 -7 R 4 -6 R 3 -7 R 4 -7 R 3 -6 R 4 -7 R 3 -6 R
4 -7 R 3 -7 R 4 -6 R 3 -7 R 4 -7 R 3 -7 R 4 -7 R 3 -6 R 4 -7 R 3 -7 R 4 -7 R
3 -7 R 3 -7 R 4 -7 R 3 -7 R 4 -7 R 3 -7 R 4 -7 R 3 -7 R 4 -8 R 3 -7 R 4 -7 R
3 -7 R 4 -7 R 3 -8 R 4 -7 R 3 -7 R 4 -8 R 3 -7 R 4 -7 R 3 -8 R 3 -7 R 4 -8 R
3 -7 R 4 -8 R 3 -7 R 4 -8 R 3 -8 R 4 -7 R 3 -8 R 4 -8 R 3 -7 R 4 -8 R 3 -8 R
4 -8 R 3 -8 R 4 -7 R 3 -8 R 4 -8 R 3 -8 R 3 -8 R 4 -8 R 3 -8 R 4 -8 R 3 -8 R
4 -8 R 3 -8 R 4 -9 R 3 -8 R 4 -8 R 3 -8 R 4 -9 R 3 -8 R 4 -8 R 3 -9 R 4 -8 R
3 -8 R 4 -9 R 3 -8 R 3 -9 R 4 -8 R 3 -9 R 4 -8 R 3 -9 R 4 -8 R 3 -9 R 4 -9 R
3 -9 R 4 -8 R 3 -9 R 4 -9 R 3 -9 R 4 -8 R 3 -9 R 4 -9 R 3 -9 R 4 -9 R 3 -9 R
3 -9 R 4 -9 R 3 -9 R 4 -9 R 3 -9 R 4 -10 R 3 -9 R 4 -9 R 3 -9 R 4 -10 R
3 -9 R 4 -9 R 3 -9 R 4 -10 R 3 -9 R 4 -10 R 3 -9 R 4 -10 R 3 -9 R 4 -10 R
3 -9 R 3 -10 R 4 -10 R 3 -9 R 4 -10 R 3 -10 R 4 -9 R 3 -10 R 4 -10 R 3 -10 R
4 -10 R 3 -10 R 4 -10 R 3 -10 R 4 -10 R 3 -10 R 4 -10 R 3 -10 R 4 -10 R
3 -10 R 3 -10 R 4 -10 R 3 -10 R 4 -11 R 3 -10 R 4 -10 R 3 -11 R 4 -10 R
3 -10 R 4 -11 R 3 -10 R 4 -11 R 3 -10 R 4 -11 R 3 -10 R 4 -11 R 3 -11 R
4 -10 R 3 -11 R 3 -11 R 4 -10 R 3 -11 R 4 -11 R 3 -11 R 4 -11 R 3 -11 R
4 -11 R 3 -10 R 4 -11 R 3 -11 R 4 -11 R 3 -12 R 4 -11 R 3 -11 R 4 -11 R
3 -11 R 4 -11 R 3 -12 R 3 -11 R 4 -12 R 3 -11 R 4 -11 R 3 -11 R 4 -12 R
3 -11 R 4 -12 R 3 -11 R 4 -12 R 3 -11 R 4 -12 R 3 -12 R 4 -11 R 3 -12 R
4 -12 R 3 -11 R 4 -12 R 3 -12 R 3 -12 R 4 -12 R 3 -12 R 4 -12 R 3 -12 R
4 -12 R 3 -12 R 4 -12 R 3 -12 R 4 -12 R 3 -12 R 4 -12 R 3 -13 R 4 -12 R
3 -12 R 4 -12 R 3 -13 R 4 -12 R 3 -12 R 3 -13 R 4 -12 R 3 -13 R 4 -12 R
3 -13 R 4 -12 R 3 -13 R 4 -13 R 3 -12 R 4 -13 R 3 -13 R 4 -13 R 3 -12 R
4 -13 R 3 -13 R 4 -13 R 3 -13 R 4 -13 R 3 -13 R 3 -13 R 4 -13 R 3 -13 R
4 -13 R 3 -13 R 4 -13 R 3 -13 R 4 -14 R 3 -13 R 4 -13 R 3 -13 R 4 -14 R
3 -13 R 4 -14 R 3 -13 R 4 -14 R 3 -13 R 4 -14 R 3 -13 R 4 -14 R 3 -13 R
3 -14 R 4 -14 R 3 -13 R 4 -14 R 3 -14 R 4 -14 R 3 -13 R 4 -14 R 3 -14 R
4 -14 R 3 -14 R 4 -14 R 3 -14 R 4 -14 R 3 -14 R 4 -14 R 3 -14 R 4 -15 R
3 -14 R 3 -14 R 4 -14 R 3 -15 R 4 -14 R 3 -14 R 4 -15 R 3 -14 R 4 -15 R
3 -14 R 4 -15 R 3 -14 R 4 -15 R 3 -14 R 4 -15 R 3 -15 R 4 -14 R 3 -15 R
4 -15 R 3 -15 R 3 -14 R 4 -15 R 3 -15 R 4 -15 R 3 -15 R 4 -15 R 3 -15 R
4 -15 R 3 -15 R 4 -15 R 3 -15 R 4 -15 R 3 -16 R 4 -15 R 3 -15 R 4 -15 R
3 -16 R 4 -15 R 3 -15 R 3 -16 R 4 -15 R 3 -16 R 4 -15 R 3 -16 R 4 -15 R
3 -16 R 4 -15 R 3 -16 R 4 -16 R 3 -15 R 4 -16 R 3 -16 R 4 -16 R 3 -16 R
4 -16 R 1 -5 R D L0 5231 3669 M 1580 0 R D L2 5231 4523 M 1580 0 R D L1
5231 5376 M 1580 0 R D 40 setlinewidth L0 7259 4037 M 0 -368 R D 7259 4037 M
228 0 R D 7259 3862 M 140 0 R D 7259 3669 M 228 0 R D 7592 3915 M 0 -246 R D
7592 3845 M 53 52 R 35 18 R 52 0 R 35 -18 R 18 -52 R 0 -176 R D 7908 3810 M
210 0 R 0 35 R -18 35 R -17 17 R -35 18 R -53 0 R -35 -18 R -35 -35 R
-17 -52 R 0 -36 R 17 -52 R 35 -35 R 35 -18 R 53 0 R 35 18 R 35 35 R D
8241 3915 M 0 -246 R D 8241 3810 M 17 52 R 35 35 R 35 18 R 53 0 R D
8661 3915 M 0 -298 R -17 -53 R -18 -17 R -35 -18 R -52 0 R -35 18 R D
8661 3862 M -35 35 R -35 18 R -52 0 R -35 -18 R -35 -35 R -18 -52 R 0 -36 R
18 -52 R 35 -35 R 35 -18 R 52 0 R 35 18 R 35 35 R D 8766 3915 M 106 -246 R
105 246 R D 8872 3669 M -35 -87 R -35 -35 R -36 -18 R -17 0 R D 9362 4037 M
0 -368 R D 9362 4037 M 158 0 R 53 -17 R 17 -18 R 18 -35 R 0 -35 R -18 -35 R
-17 -17 R -53 -18 R -158 0 R D 9485 3862 M 123 -193 R D 9713 3810 M 210 0 R
0 35 R -17 35 R -18 17 R -35 18 R -52 0 R -36 -18 R -35 -35 R -17 -52 R
0 -36 R 17 -52 R 35 -35 R 36 -18 R 52 0 R 35 18 R 35 35 R D 10221 3862 M
-17 35 R -53 18 R -53 0 R -52 -18 R -18 -35 R 18 -35 R 35 -17 R 88 -18 R
35 -18 R 17 -35 R 0 -17 R -17 -35 R -53 -18 R -53 0 R -52 18 R -18 35 R D
10361 3704 M -17 -17 R 17 -18 R 18 18 R -18 17 R D 10887 4037 M -52 -17 R
-35 -53 R -18 -87 R 0 -53 R 18 -88 R 35 -52 R 52 -18 R 35 0 R 53 18 R
35 52 R 17 88 R 0 53 R -17 87 R -35 53 R -53 17 R -35 0 R D 11168 3704 M
-18 -17 R 18 -18 R 17 18 R -17 17 R D 11518 4037 M -175 0 R -18 -157 R
18 17 R 52 18 R 53 0 R 53 -18 R 35 -35 R 17 -52 R 0 -36 R -17 -52 R
-35 -35 R -53 -18 R -53 0 R -52 18 R -18 17 R -17 35 R D 11974 4037 M
-316 -368 R D 11746 4037 M 35 -35 R 0 -35 R -18 -35 R -35 -17 R -35 0 R
-35 35 R 0 35 R 18 35 R 35 17 R 35 0 R 35 -17 R 53 -18 R 52 0 R 53 18 R
35 17 R D 11904 3792 M -35 -18 R -18 -35 R 0 -35 R 35 -35 R 35 0 R 35 18 R
18 35 R 0 35 R -35 35 R -35 0 R D 7259 4891 M 0 -368 R D 7259 4891 M 228 0 R
D 7259 4715 M 140 0 R D 7259 4523 M 228 0 R D 7592 4768 M 0 -245 R D
7592 4698 M 53 52 R 35 18 R 52 0 R 35 -18 R 18 -52 R 0 -175 R D 7908 4663 M
210 0 R 0 35 R -18 35 R -17 17 R -35 18 R -53 0 R -35 -18 R -35 -35 R
-17 -52 R 0 -35 R 17 -53 R 35 -35 R 35 -17 R 53 0 R 35 17 R 35 35 R D
8241 4768 M 0 -245 R D 8241 4663 M 17 52 R 35 35 R 35 18 R 53 0 R D
8661 4768 M 0 -298 R -17 -53 R -18 -17 R -35 -18 R -52 0 R -35 18 R D
8661 4715 M -35 35 R -35 18 R -52 0 R -35 -18 R -35 -35 R -18 -52 R 0 -35 R
18 -53 R 35 -35 R 35 -17 R 52 0 R 35 17 R 35 35 R D 8766 4768 M 106 -245 R
105 245 R D 8872 4523 M -35 -88 R -35 -35 R -36 -18 R -17 0 R D 9362 4891 M
0 -368 R D 9362 4891 M 158 0 R 53 -18 R 17 -17 R 18 -35 R 0 -36 R -18 -35 R
-17 -17 R -53 -18 R -158 0 R D 9485 4715 M 123 -192 R D 9713 4663 M 210 0 R
0 35 R -17 35 R -18 17 R -35 18 R -52 0 R -36 -18 R -35 -35 R -17 -52 R
0 -35 R 17 -53 R 35 -35 R 36 -17 R 52 0 R 35 17 R 35 35 R D 10221 4715 M
-17 35 R -53 18 R -53 0 R -52 -18 R -18 -35 R 18 -35 R 35 -17 R 88 -18 R
35 -17 R 17 -35 R 0 -18 R -17 -35 R -53 -17 R -53 0 R -52 17 R -18 35 R D
10361 4558 M -17 -18 R 17 -17 R 18 17 R -18 18 R D 10992 4891 M -175 0 R
-17 -158 R 17 17 R 53 18 R 52 0 R 53 -18 R 35 -35 R 17 -52 R 0 -35 R
-17 -53 R -35 -35 R -53 -17 R -52 0 R -53 17 R -17 18 R -18 35 R D
11448 4891 M -315 -368 R D 11220 4891 M 35 -35 R 0 -35 R -17 -36 R -35 -17 R
-35 0 R -35 35 R 0 35 R 17 35 R 35 18 R 35 0 R 35 -18 R 53 -17 R 52 0 R
53 17 R 35 18 R D 11378 4645 M -35 -17 R -18 -35 R 0 -35 R 35 -35 R 35 0 R
35 17 R 18 35 R 0 35 R -35 35 R -35 0 R D 7259 5744 M 0 -368 R D 7259 5744 M
228 0 R D 7259 5569 M 140 0 R D 7259 5376 M 228 0 R D 7592 5621 M 0 -245 R D
7592 5551 M 53 53 R 35 17 R 52 0 R 35 -17 R 18 -53 R 0 -175 R D 7908 5516 M
210 0 R 0 35 R -18 35 R -17 18 R -35 17 R -53 0 R -35 -17 R -35 -35 R
-17 -53 R 0 -35 R 17 -53 R 35 -35 R 35 -17 R 53 0 R 35 17 R 35 35 R D
8241 5621 M 0 -245 R D 8241 5516 M 17 53 R 35 35 R 35 17 R 53 0 R D
8661 5621 M 0 -298 R -17 -52 R -18 -18 R -35 -17 R -52 0 R -35 17 R D
8661 5569 M -35 35 R -35 17 R -52 0 R -35 -17 R -35 -35 R -18 -53 R 0 -35 R
18 -53 R 35 -35 R 35 -17 R 52 0 R 35 17 R 35 35 R D 8766 5621 M 106 -245 R
105 245 R D 8872 5376 M -35 -88 R -35 -35 R -36 -17 R -17 0 R D 9362 5744 M
0 -368 R D 9362 5744 M 158 0 R 53 -18 R 17 -17 R 18 -35 R 0 -35 R -18 -35 R
-17 -18 R -53 -17 R -158 0 R D 9485 5569 M 123 -193 R D 9713 5516 M 210 0 R
0 35 R -17 35 R -18 18 R -35 17 R -52 0 R -36 -17 R -35 -35 R -17 -53 R
0 -35 R 17 -53 R 35 -35 R 36 -17 R 52 0 R 35 17 R 35 35 R D 10221 5569 M
-17 35 R -53 17 R -53 0 R -52 -17 R -18 -35 R 18 -35 R 35 -18 R 88 -17 R
35 -18 R 17 -35 R 0 -18 R -17 -35 R -53 -17 R -53 0 R -52 17 R -18 35 R D
10361 5411 M -17 -18 R 17 -17 R 18 17 R -18 18 R D 10835 5674 M 35 17 R
52 53 R 0 -368 R D 11238 5744 M -53 -18 R -35 -52 R -17 -88 R 0 -52 R
17 -88 R 35 -53 R 53 -17 R 35 0 R 52 17 R 35 53 R 18 88 R 0 52 R -18 88 R
-35 52 R -52 18 R -35 0 R D 11799 5744 M -316 -368 R D 11571 5744 M 35 -35 R
0 -35 R -18 -35 R -35 -18 R -35 0 R -35 35 R 0 35 R 18 35 R 35 18 R 35 0 R
35 -18 R 52 -17 R 53 0 R 52 17 R 36 18 R D 11728 5499 M -35 -18 R -17 -35 R
0 -35 R 35 -35 R 35 0 R 35 17 R 18 35 R 0 35 R -36 36 R -35 0 R D
7259 6474 M 0 -245 R D 7259 6404 M 53 53 R 35 17 R 52 0 R 35 -17 R 18 -53 R
0 -175 R D 7452 6404 M 53 53 R 35 17 R 52 0 R 35 -17 R 18 -53 R 0 -175 R D
7765 6317 M 0 -227 R D 7765 6317 M 98 0 R 32 -10 R 11 -11 R 11 -22 R 0 -22 R
-11 -21 R -11 -11 R -32 -11 R -98 0 R D 7863 6209 M 32 -11 R 11 -11 R
11 -21 R 0 -33 R -11 -22 R -11 -11 R -32 -10 R -98 0 R D 8013 6439 M 315 0 R
D 8013 6334 M 315 0 R D 8486 6597 M 193 0 R -105 -140 R 52 0 R 35 -18 R
18 -17 R 17 -53 R 0 -35 R -17 -52 R -35 -35 R -53 -18 R -52 0 R -53 18 R
-17 17 R -18 35 R D 8907 6597 M -53 -17 R -35 -53 R -17 -88 R 0 -52 R
17 -88 R 35 -52 R 53 -18 R 35 0 R 52 18 R 35 52 R 18 88 R 0 52 R -18 88 R
-35 53 R -52 17 R -35 0 R D 9257 6597 M -52 -17 R -35 -53 R -18 -88 R
0 -52 R 18 -88 R 35 -52 R 52 -18 R 35 0 R 53 18 R 35 52 R 17 88 R 0 52 R
-17 88 R -35 53 R -53 17 R -35 0 R D 10046 6510 M -18 35 R -35 35 R -35 17 R
-70 0 R -35 -17 R -35 -35 R -17 -35 R -18 -53 R 0 -88 R 18 -52 R 17 -35 R
35 -35 R 35 -18 R 70 0 R 35 18 R 35 35 R 18 35 R 0 52 R -88 0 R D
10151 6369 M 210 0 R 0 35 R -17 35 R -18 18 R -35 17 R -52 0 R -35 -17 R
-35 -35 R -18 -53 R 0 -35 R 18 -52 R 35 -35 R 35 -18 R 52 0 R 35 18 R
35 35 R D 10431 6597 M 141 -368 R 140 368 R D 10835 6247 M -18 -18 R
-17 18 R 17 17 R 18 -17 R 0 -53 R -18 -35 R -17 -18 R D 11255 6597 M
0 -368 R D 11255 6597 M 246 -368 R 0 368 R D 11641 6597 M 0 -368 R D
11641 6597 M 228 0 R D 11641 6422 M 140 0 R D 11921 6597 M 88 -368 R
87 368 R 88 -368 R 88 368 R D 12657 6474 M 0 -385 R D 12657 6422 M 35 35 R
35 17 R 53 0 R 35 -17 R 35 -35 R 18 -53 R 0 -35 R -18 -52 R -35 -35 R
-35 -18 R -53 0 R -35 18 R -35 35 R D 12990 6474 M 0 -245 R D 12990 6369 M
18 53 R 35 35 R 35 17 R 53 0 R D 13288 6474 M -35 -17 R -35 -35 R -17 -53 R
0 -35 R 17 -52 R 35 -35 R 35 -18 R 53 0 R 35 18 R 35 35 R 17 52 R 0 35 R
-17 53 R -35 35 R -35 17 R -53 0 R D 13656 6597 M -35 0 R -35 -17 R
-17 -53 R 0 -298 R D 13516 6474 M 123 0 R D 13779 6264 M -18 -17 R 18 -18 R
18 18 R -18 17 R D
%%PageTrailer
end
%%PageResources: font Helvetica
%%Trailer
%%Pages: 1
%%DocumentNeededResources: font Helvetica
%%EOF
